{
  "login": "six@sixtree.com.au",
  "password": "password",
  "firstName": "Sixtree",
  "lastName": "Test",
  "email": "six@sixtree.com.au",
  "vehicleUser": {
    "registrationNumber": "ABC123",
    "state": "vic"
  },
  "salesforceId": "0011900000NDTZc",
  "isMarketingOptIn": false,
  "vin": "JTNKU3JE60J021675",
  "termsAndConditions": {
    "acceptedVersion": "1.1"
  },
  "privacyStatement": {
    "acceptedVersion": "1.1"
  }
}