{
  "orders": [
    {
      "title": "Mr",
      "firstName": "John",
      "lastName": "Smith",
      "email": "jsmith@mail.com.au",
      "mobile": "0412341234",
      "address": {
        "residential": {
          "streetAddress": "45 Bourke St",
          "suburb": "Melbourne",
          "state": "VIC",
          "postcode": "3000"
        }
      },
      "customerType": "private",
      "customerTypeDescription": "private customer",
      "commsPreferences": {
        "sendSms": true,
        "sendEmail": false,
        "disableGuestComms": false
      },
      "guestOrders": [
        {
          "cosi": "1234",
          "batchId": "231",
          "sapEta": "2016-12-20",
          "marginEta": "2017-01-10",
          "isCowt": true,
          "shippingLineId": "21312",
          "vehicleLine": "KLUG",
          "materialNumber": "4436080B0FD203R3",
          "countryOfOrigin": "Japan",
          "dealerDetails": {
            "dealerCode": "037272",
            "branchCode": "37272",
            "email": "mydealer@dealer.toyota.com.au"
          },
          "modelAllocationObject": "Kluger 4x4",
          "statusUpdates": [
            {
              "status": "20",
              "lastUpdatedDate": "2016-11-25"
            }
          ]
        }
      ]
    }
  ]
}