{
  "notifications": [
    {
      "type": "recall",
      "items": [
        {
          "key": "VIN1234",
          "value": [
            "CGG32E1",
            "CGG32E2",
            "CGG32E3"
          ]
        },
        {
          "key": "VIN5678",
          "value": [
            "CGG32E1",
            "CGG32E2"
          ]
        },
        {
          "key": "VIN91011",
          "value": [
            "CGG32E1"
          ]
        }
      ]
    },
    {
      "type": "service-booking",
      "items": [
        {
          "key": "VIN1234",
          "value": [
            "TB16428581",
            "TB16428582"
          ]
        },
        {
          "key": "VIN5678",
          "value": []
        },
        {
          "key": "VIN91011",
          "value": [
            "TB16428583"
          ]
        }
      ]
    }
  ]
}