{
  "vehicles": [
    {
      "batchNumber": "0006164997",
      "compliancePlate": "2013-04",
      "engineNumber": "2ZR1223438",
      "vin": "JTNKU3JE60J021675",
      "materialNumber": "4436080B0FD203R3",
      "vehicleDescription": "Corolla Ascent Sport 1.8L Petrol CVT 5 Door Hatch",
      "katashikiCode": "ZRE182R-AHXNKQ",
      "transmission": "CVT",
      "sellingDealerCode": "1623",
      "sellingDealerName": "BRIAN HILTON TOYOTA",
      "registrationNumber": "COI14W",
      "userRegistrationNumber": "AAA111",
      "state": "VIC",
      "production": "2013-03",
      "discontinuedDate": null,
      "year": "2013"
    },
    {
      "batchNumber": "0006164998",
      "compliancePlate": "2013-05",
      "engineNumber": "2ZR1223439",
      "vin": "JTNKU3JE60J021676",
      "materialNumber": "4436080B0FD203R4",
      "vehicleDescription": "Corolla Ascent Sport 1.8L Petrol CVT 5 Door Sedan",
      "katashikiCode": "ZRE182R-AHXNKQ",
      "transmission": "CVT",
      "sellingDealerCode": "1623",
      "sellingDealerName": "BRIAN HILTON TOYOTA",
      "registrationNumber": "14WCOI",
      "userRegistrationNumber": "AAA222",
      "state": "VIC",
      "production": "2013-03",
      "discontinuedDate": null,
      "year": "2014"
    }
  ]
}