{
  "vehicle" : {
    "vin":"JTNKU3JE60J021675",
    "registration": {
      "registrationNumber":"ABC123",
      "registrationState":"VIC"
    },
    "relationship" : {
      "relationshipType":"owner",
      "startDate":"2014-02-09"
    }
  }
}