{
  "batchNumber": "0006164997",
  "compliancePlate": "2013-04",
  "engineNumber": "2ZR1223438",
  "ignitionKeyNumber": "43287",
  "materialNumber": "4436080B0FD203R3",
  "production": "2013-03",
  "vin": "JTNKU3JE60J021675",
  "outstandingRecalls":[
      {
         "lastUpdateTimstamp":"2015-05-05T15:09:22Z",
         "campaignCode":"AHG56",
         "campaignDescription":"OOW SUPPORT REFER TNF07/15 OR LNF09/15",
         "campaignTypeDescription":"TOYOTA INSPECT OIL COOLER PIPE",
         "campaignTypeCode":"AHG56B2"
      },
      {
         "lastUpdateTimstamp":"2012-10-22T10:06:32Z",
         "campaignCode":"2611H",
         "campaignDescription":"POWER WINDOW MASTER SWITCH",
         "campaignTypeDescription":"PWMS - AURION GREASE APPLICATION",
         "campaignTypeCode":"2611HA1A"
      }
   ]
}