{
  "dealers": [
    {
      "dealerCode": "037038",
      "dealerName": "Midland Toyota",
      "franchise": "Toyota",
      "dealerPartsCode": "6",
      "sapDealerCode": "37038",
      "pmaCode": "F09",
      "pmaName": "MIDLAND",
      "region": "WEST",
      "motorDealerLicenseNumber": "",
      "isMetro": "true",
      "isRural": "false",
      "pricingTransparencyOptIn": "false",
      "weightGroup": {
        "parts": "Middle",
        "sales": "Bantam",
        "service": "Heavy",
        "accessories": "Bantam",
        "used": "Bantam",
        "customerSupport": "Bantam"
      },
      "uniqueCode": "45164",
      "locations": [
        {
          "locationType": "Service",
          "locationId": "22982",
          "locationCode": "",
          "locationName": "Midland Toyota (Service & Parts)",
          "sapCode": "",
          "address": {
            "streetAddress": "163 Gt Eastern Hwy, 6 Moore Avenue",
            "suburb": "MIDLAND",
            "state": "WA",
            "postCode": "6056"
          },
          "poBox": {
            "box": "",
            "city": "",
            "state": "",
            "postCode": ""
          },
          "phone": {
            "main": "",
            "fax": "",
            "sales": "",
            "parts": "",
            "customerSupport": "",
            "service": ""
          },
          "email": {
            "main": "",
            "sales": "test@gmail.com",
            "parts": "",
            "service": "",
            "customerSupport": ""
          },
          "webSite": "",
          "serviceWebsite": ""
        }
      ]
    }
  ]
}