{
  "vehicles": [
    {
      "batchNumber": "0007502891",
      "compliancePlate": "2016-01",
      "engineNumber": "2ARU312878",
      "vin": "6T1BF3FK50X084678",
      "materialNumber": "3A1593006LA20070",
      "vehicleDescription": "Camry L4 Atara SL 2.5L Petrol Automatic Sedan",
      "katashikiCode": "ASV50R-DETNKQ",
      "transmission": "Automatic",
      "production": "2016-01",
      "discontinuedDate": "2016-05-02",
      "releaseYear": "2016",
      "suffix": {
        "code": "B0",
        "description": "Ascent Sport"
      },
      "trim": {
        "code": "FD20",
        "description": "Black Fabric"
      },
      "paint": {
        "code": "3R3",
        "description": "Wildfire"
      },
      "salesType": "ZRET",
      "vehicleUser": {
        "registrationNumber": "OKATON",
        "state": "VIC"
      },
      "customImages": [
        {
          "link": "http://cdn.rotorint.com/Corolla/2012_08_Aug/e/hero/png/hi/260x146/Corolla_Hatch_Ascent_Sport_Sfx_B0_3R3_Wildfire_003.png"
        }
      ]
    },
    {
      "batchNumber": "0006164997",
      "compliancePlate": "2013-04",
      "engineNumber": "2ZR1223438",
      "vin": "JTNKU3JE60J021675",
      "materialNumber": "4436080B0FD203R3",
      "vehicleDescription": "Corolla Ascent Sport 1.8L Petrol CVT 5 Door Hatch",
      "katashikiCode": "ZRE182R-AHXNKQ",
      "transmission": "CVT",
      "sellingDealerCode": "1623",
      "sellingDealerName": "BRIAN HILTON TOYOTA",
      "registrationNumber": "COI14W",
      "production": "2013-03",
      "discontinuedDate": "2016-05-02",
      "releaseYear": "2013",
      "suffix": {
        "code": "B0",
        "description": "Ascent Sport"
      },
      "trim": {
        "code": "FD20",
        "description": "Black Fabric"
      },
      "paint": {
        "code": "3R3",
        "description": "Wildfire"
      },
      "salesType": "ZRET",
      "images": [
        {
          "size": "260x146",
          "link": "http://cdn.rotorint.com/Corolla/2012_08_Aug/e/hero/png/hi/260x146/Corolla_Hatch_Ascent_Sport_Sfx_B0_3R3_Wildfire_003.png"
        },
        {
          "size": "519x292",
          "link": "http://cdn.rotorint.com/Corolla/2012_08_Aug/e/hero/png/hi/519x292/Corolla_Hatch_Ascent_Sport_Sfx_B0_3R3_Wildfire_003.png"
        }
      ],
      "vehicleUser": {
        "registrationNumber": "AAA111",
        "state": "VIC"
      },
      "customImages": [
        {
          "link": "http://cdn.rotorint.com/Corolla/2012_08_Aug/e/hero/png/hi/260x146/Corolla_Hatch_Ascent_Sport_Sfx_B0_3R3_Wildfire_003.png"
        }
      ]
    }
  ]
}