{
  "rewards": [
    {
      "id": "3a5ab3af-e826-45c9-ab77-09c4403abaed",
      "type": "Competition",
      "cardFront": {
        "cardImage": "/mytoyota/~/media/toyota/mytoyota/images/rewards/competitions/caltext_campaign_card_bg.png",
        "cardBackground": "#004c5f",
        "title": "Win a $50 Caltex Fuel Voucher!",
        "description": "Enter now to go into the draw for 1 of 20 $50 Caltex Fuel vouchers!",
        "buttonCopy": "Enter Now",
        "primaryColor": "#ffffff",
        "secondaryColor": "#ffffff"
      },
      "accordion": null,
      "expiryDate": "2017-07-24T14:30:00Z",
      "rewardIsActive": true,
      "singleClaimOnly": true,
      "isSuccessful": false,
      "message": null
    }
  ]
}