{
  "login": "six@sixtree.com.au",
  "password": "password",
  "title": "Mr",
  "firstName": "Sixtree",
  "lastName": "Test",
  "email": "six@sixtree.com.au",
  "mobile": "0423456789",
  "landline": "0334567891",
  "dateOfBirth": "1990-11-02",
  "address": {
    "residential": {
      "streetAddress": "45 Bourke St",
      "suburb": "Melbourne",
      "state": "VIC",
      "postcode": "3000",
      "country": "Australia",
      "fullAddress": "45 Bourke St, Melbourne VIC 3000",
      "dpid": "87654321",
      "totalCheckId": "8fe17b18-4294-4013-8d09-a3ac49a779ca--2"
    },
    "postal": {
      "streetAddress": "23 Bourke St",
      "suburb": "Melbourne",
      "state": "VIC",
      "postcode": "3000",
      "country": "Australia",
      "fullAddress": "23 Bourke St, Melbourne VIC 3000",
      "dpid": "12345678",
      "totalCheckId": "8fe17b18-4294-4013-8d09-a3ac49a779ca--1"
    }
  },
  "licenceId": "13123123",
  "licenceState": "VIC",
  "licenceCountry": "Australia",
  "licenceExpiry": "2017-02-22",
  "applicationIdentifiers": {
    "myToyota": {
      "id": "abc-123"
    },
    "sap":{
      "batchId": "32323"
    }
  },
  "termsAndConditions": {
    "acceptedVersion": "1.4"
  },
  "privacyPolicy": {
    "acceptedVersion": "1.0"
  }
}