{    
	"rewardId": "f697668b-047b-4974-870b-ce72574649f4",
	"rewardCode": "AVP-9890",
    "rewardType": "subscription",
    "campaignCode": "RAV4-LOYALTY-500",
    "description": "",
    "activationDate" : "2017-07-24T14:30:00Z",
    "status" : "active",
    "subscriptions": [
        {
            "subscriptionCode": "MAX-2341",
            "subscriptionDate": "2017-07-24T14:30:00Z"
        },
        {
        	"subscriptionCode": "TVP-7822",
            "subscriptionDate": "2017-07-24T14:30:00Z"
        }
    ],
    "entries": [
        {
            "questionId": "12345",
            "questionTitle": "Tell us what you think?",
            "answer": "Nothing"
        },
        {
            "questionId": "123456",
            "questionTitle": "What is your favourite myToyota features? (multiple choice question)",
            "answer": "Service Booking"
        }

    ]
}