{
  "login": "sixtreetest",
  "password": "password",
  "newPassword": "newpassword",
  "firstName": "Pinky",
  "lastName": "Rayburn",
  "email": "pinkrayburn518@gmail.com",
  "mobile": "0418123456"
}