{
  "vehicleData": {
    "vehicle": [
      {
        "regid": "BLK086",
        "vehid": 427298,
        "frndsc": "Toyota",
        "rngdsc": "86",
        "moddsc": "86 GTS 2.0L Petrol Automatic Coupe",
        "x_rowid": "0x000000000dc3ff82"
      }
    ],
    "upsells": [
      {
        "opdsc": "Wheel Alignment",
        "stdchg": "POA",
        "x_rowid": "0x000000000f584386"
      },
      {
        "opdsc": "Tyre Puncture Repair",
        "stdchg": "39.95",
        "x_rowid": "0x000000000f584387"
      }
    ],
    "serviceOperations": [
      {
        "optid": "SCHEDULE",
        "opid": "TOY34941-TSA60M36-3158865",
        "opdsc": "60000 Km or 36 Months Service",
        "dptid": "116",
        "tsaqua": true,
        "fixchg": 170.0,
        "waropr": "0D1D33",
        "warscd": "ADVZN6 1003",
        "hasproc": false,
        "fixflg": true,
        "capflg": false,
        "seqno": 1
      }
    ]
  }
}