{
    "dealerId": "036948",
    "name": "Werribee Toyota",
    "dmsType": "Pentana (ERA)",
    "branchId": "36948",
    "dmsId": "",
    "sapCode": "36948",
    "address": "212-216 Old Geelong Road",
    "suburb": "HOPPERS CROSSING",
    "state": "VIC",
    "postcode": "3029",
    "refX": "144.717916",
    "refY": "-37.875133",
    "telephone": "03 9974 0200",
    "email": "location-22388-email@dealer-45144.test.toyota.com.au",
    "externalUri": "http://www.werribeetoyota.com.au/",
    "serviceTypes": [
        {
            "name": "DASO",
            "comments": "",
            "OperatingHours": []
        },
        {
            "name": "New",
            "comments": "",
            "OperatingHours": [
                {
                    "day": "Monday",
                    "openingTime": "08:30:00",
                    "closingTime": "18:00:00",
                    "closed": ""
                },
                {
                    "day": "Tuesday",
                    "openingTime": "08:30:00",
                    "closingTime": "18:00:00",
                    "closed": ""
                },
                {
                    "day": "Wednesday",
                    "openingTime": "08:30:00",
                    "closingTime": "18:00:00",
                    "closed": ""
                },
                {
                    "day": "Thursday",
                    "openingTime": "08:30:00",
                    "closingTime": "18:00:00",
                    "closed": ""
                },
                {
                    "day": "Friday",
                    "openingTime": "08:30:00",
                    "closingTime": "18:00:00",
                    "closed": ""
                },
                {
                    "day": "Saturday",
                    "openingTime": "09:00:00",
                    "closingTime": "17:00:00",
                    "closed": ""
                },
                {
                    "day": "Sunday",
                    "openingTime": "",
                    "closingTime": "",
                    "closed": "true"
                }
            ]
        },
        {
            "name": "Parts",
            "comments": "",
            "OperatingHours": [
                {
                    "day": "Monday",
                    "openingTime": "08:00:00",
                    "closingTime": "17:30:00",
                    "closed": ""
                },
                {
                    "day": "Tuesday",
                    "openingTime": "08:00:00",
                    "closingTime": "17:30:00",
                    "closed": ""
                },
                {
                    "day": "Wednesday",
                    "openingTime": "08:00:00",
                    "closingTime": "17:30:00",
                    "closed": ""
                },
                {
                    "day": "Thursday",
                    "openingTime": "08:00:00",
                    "closingTime": "17:30:00",
                    "closed": ""
                },
                {
                    "day": "Friday",
                    "openingTime": "08:00:00",
                    "closingTime": "17:30:00",
                    "closed": ""
                },
                {
                    "day": "Saturday",
                    "openingTime": "08:00:00",
                    "closingTime": "12:00:00",
                    "closed": ""
                },
                {
                    "day": "Sunday",
                    "openingTime": "",
                    "closingTime": "",
                    "closed": "true"
                }
            ]
        },
        {
            "name": "Service",
            "comments": "",
            "OperatingHours": [
                {
                    "day": "Monday",
                    "openingTime": "07:30:00",
                    "closingTime": "17:30:00",
                    "closed": ""
                },
                {
                    "day": "Tuesday",
                    "openingTime": "07:30:00",
                    "closingTime": "17:30:00",
                    "closed": ""
                },
                {
                    "day": "Wednesday",
                    "openingTime": "07:30:00",
                    "closingTime": "17:30:00",
                    "closed": ""
                },
                {
                    "day": "Thursday",
                    "openingTime": "07:30:00",
                    "closingTime": "17:30:00",
                    "closed": ""
                },
                {
                    "day": "Friday",
                    "openingTime": "07:30:00",
                    "closingTime": "17:30:00",
                    "closed": ""
                },
                {
                    "day": "Saturday",
                    "openingTime": "08:00:00",
                    "closingTime": "12:00:00",
                    "closed": ""
                },
                {
                    "day": "Sunday",
                    "openingTime": "",
                    "closingTime": "",
                    "closed": "true"
                }
            ]
        },
        {
            "name": "Used",
            "comments": "",
            "OperatingHours": [
                {
                    "day": "Monday",
                    "openingTime": "08:30:00",
                    "closingTime": "18:00:00",
                    "closed": ""
                },
                {
                    "day": "Tuesday",
                    "openingTime": "08:30:00",
                    "closingTime": "18:00:00",
                    "closed": ""
                },
                {
                    "day": "Wednesday",
                    "openingTime": "08:30:00",
                    "closingTime": "18:00:00",
                    "closed": ""
                },
                {
                    "day": "Thursday",
                    "openingTime": "08:30:00",
                    "closingTime": "18:00:00",
                    "closed": ""
                },
                {
                    "day": "Friday",
                    "openingTime": "08:30:00",
                    "closingTime": "18:00:00",
                    "closed": ""
                },
                {
                    "day": "Saturday",
                    "openingTime": "09:00:00",
                    "closingTime": "17:00:00",
                    "closed": ""
                },
                {
                    "day": "Sunday",
                    "openingTime": "",
                    "closingTime": "",
                    "closed": "true"
                }
            ]
        },
        {
            "name": "Fleet",
            "comments": "",
            "OperatingHours": [
                {
                    "day": "Monday",
                    "openingTime": "08:30:00",
                    "closingTime": "18:00:00",
                    "closed": ""
                },
                {
                    "day": "Tuesday",
                    "openingTime": "08:30:00",
                    "closingTime": "18:00:00",
                    "closed": ""
                },
                {
                    "day": "Wednesday",
                    "openingTime": "08:30:00",
                    "closingTime": "18:00:00",
                    "closed": ""
                },
                {
                    "day": "Thursday",
                    "openingTime": "08:30:00",
                    "closingTime": "18:00:00",
                    "closed": ""
                },
                {
                    "day": "Friday",
                    "openingTime": "08:30:00",
                    "closingTime": "18:00:00",
                    "closed": ""
                },
                {
                    "day": "Saturday",
                    "openingTime": "",
                    "closingTime": "",
                    "closed": "true"
                },
                {
                    "day": "Sunday",
                    "openingTime": "",
                    "closingTime": "",
                    "closed": "true"
                }
            ]
        },
        {
            "name": "Express Maintenance",
            "comments": "",
            "OperatingHours": [
                {
                    "day": "Monday",
                    "openingTime": "08:00:00",
                    "closingTime": "16:30:00",
                    "closed": ""
                },
                {
                    "day": "Tuesday",
                    "openingTime": "08:00:00",
                    "closingTime": "16:30:00",
                    "closed": ""
                },
                {
                    "day": "Wednesday",
                    "openingTime": "08:00:00",
                    "closingTime": "16:30:00",
                    "closed": ""
                },
                {
                    "day": "Thursday",
                    "openingTime": "08:00:00",
                    "closingTime": "16:30:00",
                    "closed": ""
                },
                {
                    "day": "Friday",
                    "openingTime": "08:00:00",
                    "closingTime": "16:30:00",
                    "closed": ""
                },
                {
                    "day": "Saturday",
                    "openingTime": "",
                    "closingTime": "",
                    "closed": "true"
                },
                {
                    "day": "Sunday",
                    "openingTime": "",
                    "closingTime": "",
                    "closed": "true"
                }
            ]
        }
    ],
    "isService": true,
    "hoursOfOperationService": [
        {
            "day": "Monday",
            "openingTime": "07:30:00",
            "closingTime": "17:30:00",
            "closed": ""
        },
        {
            "day": "Tuesday",
            "openingTime": "07:30:00",
            "closingTime": "17:30:00",
            "closed": ""
        },
        {
            "day": "Wednesday",
            "openingTime": "07:30:00",
            "closingTime": "17:30:00",
            "closed": ""
        },
        {
            "day": "Thursday",
            "openingTime": "07:30:00",
            "closingTime": "17:30:00",
            "closed": ""
        },
        {
            "day": "Friday",
            "openingTime": "07:30:00",
            "closingTime": "17:30:00",
            "closed": ""
        },
        {
            "day": "Saturday",
            "openingTime": "08:00:00",
            "closingTime": "12:00:00",
            "closed": ""
        },
        {
            "day": "Sunday",
            "openingTime": "",
            "closingTime": "",
            "closed": "true"
        }
    ],
    "isSales": true,
    "hoursOfOperationSales": [
        {
            "day": "Monday",
            "openingTime": "08:30:00",
            "closingTime": "18:00:00",
            "closed": ""
        },
        {
            "day": "Tuesday",
            "openingTime": "08:30:00",
            "closingTime": "18:00:00",
            "closed": ""
        },
        {
            "day": "Wednesday",
            "openingTime": "08:30:00",
            "closingTime": "18:00:00",
            "closed": ""
        },
        {
            "day": "Thursday",
            "openingTime": "08:30:00",
            "closingTime": "18:00:00",
            "closed": ""
        },
        {
            "day": "Friday",
            "openingTime": "08:30:00",
            "closingTime": "18:00:00",
            "closed": ""
        },
        {
            "day": "Saturday",
            "openingTime": "09:00:00",
            "closingTime": "17:00:00",
            "closed": ""
        },
        {
            "day": "Sunday",
            "openingTime": "",
            "closingTime": "",
            "closed": "true"
        }
    ],
    "isParts": true,
    "isUsed": true,
    "isFleetSpecialist": false,
    "serviceRequestLeadTimeInDays": 2,
    "isServiceBooking": false
}