{
  	"batchNumber": "122334",
	"registrationDetails": {
		"documentFilename": "registration-papers-file.png",
		"encodedImage": "iVBORw0KGgoAAAANSUhEUgAAAWAAAAHgCAYAAACb0beUAAAEDWlDQ1BJQ0MgUHJvZmlsZQAAOI2NVV1oHFUUPrtzZyMkzlNsNIV0qD8NJQ2TVjShtLp/3d02bpZJNtoi6GT27s6Yyc44M7v9oU9FUHwx6psUxL+3gCAo9Q/bPrQvlQol2tQgKD60="
	}
}