{
  "dealerId": "",
  "branchId": "",
  "address": "",
  "postcode": "",
  "telephone": "",
  "email": "",
  "name": "",
  "suburb": "",
  "state": "",
  "fiveStar": false,
  "refX": "",
  "refY": "",
  "externalUri": "",
  "service": false,
  "sales": false,
  "parts": false,
  "fleetSpecialist": false,
  "used": false,
  "toyotaDealerPage": ""
}