{
  "termsAndConditions": {
    "version": "1.1",
    "content": "Lorem ipsum dolor sit amet, consectetur adipiscing elit. Ut auctor, eros eget fringilla luctus, augue libero finibus libero, ac venenatis diam ligula sed diam. Integer accumsan auctor ligula, facilisis sodales ipsum scelerisque at. Duis a tempor lectus, vitae convallis elit. Nullam vel dui elit. Sed ut cursus mauris. Suspendisse interdum elit vel est fermentum, ac elementum sem gravida. Aenean sed porttitor est. Sed eget lacinia diam. Vivamus vitae enim ac enim pellentesque luctus. Proin consequat, arcu non aliquet varius, dui dolor volutpat massa, vitae iaculis nulla quam non turpis. Integer vel ex magna. Etiam eu leo finibus, euismod diam nec, condimentum nisi. Pellentesque blandit, nibh vel consequat luctus, odio eros maximus tortor, vitae ornare ligula velit a lorem. Maecenas gravida porta velit eget consectetur. Nulla quis enim urna. In sit amet convallis tellus. Sed a nisl hendrerit, consectetur odio quis, pellentesque enim. Cras at sapien sit amet erat tincidunt finibus. Duis eleifend blandit nibh, vel euismod urna aliquam ac. Maecenas a ex ut erat sollicitudin placerat. Nulla nec lectus arcu. Fusce vestibulum fermentum lacinia. Maecenas vehicula, arcu et vehicula blandit, ligula turpis ullamcorper quam, eget elementum sapien erat quis justo. Lorem ipsum dolor sit amet, consectetur adipiscing elit. Sed id urna a urna ultrices tincidunt nec eu nunc. Nulla aliquet, felis vel viverra eleifend, ex ex fringilla tortor, vitae placerat diam tellus vel erat. Suspendisse dignissim ex vel fermentum finibus."
  },
  "privacyStatement": {
    "version": "1.0",
    "content": "Lorem ipsum dolor sit amet, consectetur adipiscing elit. Ut auctor, eros eget fringilla luctus, augue libero finibus libero, ac venenatis diam ligula sed diam. Integer accumsan auctor ligula, facilisis sodales ipsum scelerisque at. Duis a tempor lectus, vitae convallis elit. Nullam vel dui elit. Sed ut cursus mauris. Suspendisse interdum elit vel est fermentum, ac elementum sem gravida. Aenean sed porttitor est. Sed eget lacinia diam. Vivamus vitae enim ac enim pellentesque luctus. Proin consequat, arcu non aliquet varius, dui dolor volutpat massa, vitae iaculis nulla quam non turpis. Integer vel ex magna. Etiam eu leo finibus, euismod diam nec, condimentum nisi. Pellentesque blandit, nibh vel consequat luctus, odio eros maximus tortor, vitae ornare ligula velit a lorem. Maecenas gravida porta velit eget consectetur. Nulla quis enim urna. In sit amet convallis tellus. Sed a nisl hendrerit, consectetur odio quis, pellentesque enim. Cras at sapien sit amet erat tincidunt finibus. Duis eleifend blandit nibh, vel euismod urna aliquam ac. Maecenas a ex ut erat sollicitudin placerat. Nulla nec lectus arcu. Fusce vestibulum fermentum lacinia. Maecenas vehicula, arcu et vehicula blandit, ligula turpis ullamcorper quam, eget elementum sapien erat quis justo. Lorem ipsum dolor sit amet, consectetur adipiscing elit. Sed id urna a urna ultrices tincidunt nec eu nunc. Nulla aliquet, felis vel viverra eleifend, ex ex fringilla tortor, vitae placerat diam tellus vel erat. Suspendisse dignissim ex vel fermentum finibus."
  }
}