{
  "notifications": [
    {
      "id": "5931",
      "code": "TAKE_A_BREAK",
      "message": "You're currently on a break.",
      "category": "INFO",
      "redirectable": false,
      "closable": false,
      "redirectUri": "",
      "expiryDate": 1464749031053,
      "closedDate": 1464749035053
    },
    {
      "id": "5950",
      "code": "TAKE_A_BREAK_PERIOD",
      "message": "You're currently on a break. You'll start receiving communications again soon",
      "category": "INFO",
      "redirectable": true,
      "closable": true,
      "redirectUri": "",
      "expiryDate": 1464749032053,
      "closedDate": 1464749033053
    }
  ]
}