{
  "vehicle": {
    "registrationNumber": "CA13HJ",
    "dmsVehicleId": "295795"
  },
  "upsells": [
    {
      "description": "Replace Front Brake Pads",
      "price": "345.00",
      "id": "0x0000000007ae1441"
    },
    {
      "description": "Machine Front Brake Discs",
      "price": "319.00",
      "id": "0x0000000007ae1488"
    },
    {
      "description": "Machine Rear Brake Dics",
      "price": "329.00",
      "id": "0x0000000007ae1489"
    },
    {
      "description": "Replace 1 Tyre",
      "price": "POA",
      "id": "0x0000000007ae1685"
    },
    {
      "description": "Replace 2 Tyres",
      "price": "POA",
      "id": "0x0000000007ae1686"
    },
    {
      "description": "Replace 3 Tyres",
      "price": "POA",
      "id": "0x0000000007ae16c0"
    },
    {
      "description": "Replace 4 Tyres",
      "price": "POA",
      "id": "0x0000000007ae16c1"
    },
    {
      "description": "Puncture Repair",
      "price": "23.95",
      "id": "0x0000000007ae16c4"
    },
    {
      "description": "Carry out Wheel Alignment",
      "price": "67.25",
      "id": "0x0000000007ae16c6"
    }
  ],
  "serviceOperations": [
    {
      "operationTypeId": "SCHEDULE",
      "operationId": "TOY41815-TSA30M18-3158830",
      "description": "30000 Km or 18 Months Service",
      "tsaFlag": true,
      "price": 170,
      "externalClaimNumber": "0D1B73",
      "serviceCode": "ADVASA44R      1003",
      "fixedChargeOperationFlag": true,
      "cappedPriceOperationFlag": false,
      "recommended": false, 
	  "duration": "1.2", 
	  "serviceType": "OSB_SERVICE_TYPE_LOGBOOK",
	  "servicePricingType": "TSA", 
      "servicePricingTypeDesc": "Toyota Service Advantage",
	  "months": "12"
    },
    {
      "operationTypeId": "SCHEDULE",
      "operationId": "TOY41815-TSA40M24-3158830",
      "description": "40000 Km or 24 Months Service",
      "tsaFlag": true,
      "price": 170,
      "externalClaimNumber": "0D1C23",
      "serviceCode": "ADVASA44R      1003",
      "fixedChargeOperationFlag": true,
      "cappedPriceOperationFlag": false,
      "recommended": false, 
	  "duration": "1.2", 
	  "serviceType": "OSB_SERVICE_TYPE_LOGBOOK",
	  "servicePricingType": "TSA", 
      "servicePricingTypeDesc": "Toyota Service Advantage",
	  "months": "12"
    },
    {
      "operationTypeId": "SCHEDULE",
      "operationId": "TOY41815-TSA50M30-3158830",
      "description": "50000 Km or 30 Months Service",
      "tsaFlag": true,
      "price": 170,
      "externalClaimNumber": "0D1C83",
      "serviceCode": "ADVASA44R      1003",
      "fixedChargeOperationFlag": true,
      "cappedPriceOperationFlag": false,
      "recommended": false, 
	  "duration": "1.2", 
	  "serviceType": "OSB_SERVICE_TYPE_LOGBOOK",
	  "servicePricingType": "TSA", 
      "servicePricingTypeDesc": "Toyota Service Advantage",
	  "months": "12"
    },
    {
      "operationTypeId": "SCHEDULE",
      "operationId": "TOY41815-TSA60M36-3158830",
      "description": "60000 Km or 36 Months Service",
      "tsaFlag": true,
      "price": 170,
      "externalClaimNumber": "0D1D33",
      "serviceCode": "ADVASA44R      1003",
      "fixedChargeOperationFlag": true,
      "cappedPriceOperationFlag": false,
      "recommended": false, 
	  "duration": "1.2", 
	  "serviceType": "OSB_SERVICE_TYPE_LOGBOOK",
	  "servicePricingType": "TSA", 
      "servicePricingTypeDesc": "Toyota Service Advantage",
	  "months": "12"
    }
  ]
}