[
  {
    "id": 1,
    "code": "Y23I",
    "name": "Yaris",
    "description": "Yaris",
    "imageUrl": "images/models/yaris.png",
    "modelCategory": {
      "createdBy": "System",
      "createdDate": 1452665898560,
      "lastModifiedBy": null,
      "lastModifiedDate": null,
      "id": 1,
      "code": "C489",
      "description": "Cars"
    }
  },
  {
    "id": 2,
    "code": "C219",
    "name": "Corolla",
    "description": "Corolla",
    "imageUrl": "images/models/corolla.png",
    "modelCategory": {
      "createdBy": "System",
      "createdDate": 1452665898560,
      "lastModifiedBy": null,
      "lastModifiedDate": null,
      "id": 1,
      "code": "C489",
      "description": "Cars"
    }
  }
  ]