{
  "dealers":[
    {
      "dealerCode":"37104",
      "branchCode":"37184",
      "dealerId":"37104",
      "branchId":"37184",
      "address":"215-217 Normanby Rd",
      "postcode":"3205",
      "telephone":"03 8645 6333",
      "email":"sales@southmelbtoyota.com.au",
      "name":"South Melbourne Toyota",
      "suburb":"SOUTH MELBOURNE",
      "state":"VIC",
      "fiveStar":false,
      "refX":"144.9489480",
      "refY":"-37.8290190",
      "externalUri":"www.southmelbtoyota.com.au",
      "service":true,
      "sales":true,
      "parts":true,
      "fleetSpecialist":false,
      "used":false,
      "toyotaDealerPage":"dealer.toyota.com.au",
      "discontinuedDate":"2015-12-20",
      "favorite":true,
      "dmsType": "myService",
      "dmsId": "61.10184.10184011044",
      "sapCode": "37454",
      "serviceTypes": [
		    {
		        "name": "Maintenance Reminder System",
		        "comments": "",
		        "OperatingHours": []
		    },
		    {
		        "name": "Service",
		        "comments": "",
		        "OperatingHours": [
		            {
		                "day": "Monday",
		                "openingTime": "07:30:00",
		                "closingTime": "17:00:00",
		                "closed": ""
		            },
		            {
		                "day": "Tuesday",
		                "openingTime": "07:30:00",
		                "closingTime": "17:00:00",
		                "closed": ""
		            },
		            {
		                "day": "Wednesday",
		                "openingTime": "07:30:00",
		                "closingTime": "17:00:00",
		                "closed": ""
		            },
		            {
		                "day": "Thursday",
		                "openingTime": "07:30:00",
		                "closingTime": "17:00:00",
		                "closed": ""
		            },
		            {
		                "day": "Friday",
		                "openingTime": "07:30:00",
		                "closingTime": "17:00:00",
		                "closed": ""
		            },
		            {
		                "day": "Saturday",
		                "openingTime": "",
		                "closingTime": "",
		                "closed": "true"
		            },
		            {
		                "day": "Sunday",
		                "openingTime": "",
		                "closingTime": "",
		                "closed": "true"
		            }
		        ]
		    },
		    {
		        "name": "Express Maintenance",
		        "comments": "",
		        "OperatingHours": [
		            {
		                "day": "Monday",
		                "openingTime": "09:00:00",
		                "closingTime": "17:00:00",
		                "closed": ""
		            },
		            {
		                "day": "Tuesday",
		                "openingTime": "09:00:00",
		                "closingTime": "17:00:00",
		                "closed": ""
		            },
		            {
		                "day": "Wednesday",
		                "openingTime": "09:00:00",
		                "closingTime": "17:00:00",
		                "closed": ""
		            },
		            {
		                "day": "Thursday",
		                "openingTime": "09:00:00",
		                "closingTime": "17:00:00",
		                "closed": ""
		            },
		            {
		                "day": "Friday",
		                "openingTime": "09:00:00",
		                "closingTime": "17:00:00",
		                "closed": ""
		            },
		            {
		                "day": "Saturday",
		                "openingTime": "",
		                "closingTime": "",
		                "closed": "true"
		            },
		            {
		                "day": "Sunday",
		                "openingTime": "",
		                "closingTime": "",
		                "closed": "true"
		            }
		        ]
		    }
		],
		"isService": true,
		"hoursOfOperationService": [
		    {
		        "day": "Monday",
		        "openingTime": "07:30:00",
		        "closingTime": "17:00:00",
		        "closed": ""
		    },
		    {
		        "day": "Tuesday",
		        "openingTime": "07:30:00",
		        "closingTime": "17:00:00",
		        "closed": ""
		    },
		    {
		        "day": "Wednesday",
		        "openingTime": "07:30:00",
		        "closingTime": "17:00:00",
		        "closed": ""
		    },
		    {
		        "day": "Thursday",
		        "openingTime": "07:30:00",
		        "closingTime": "17:00:00",
		        "closed": ""
		    },
		    {
		        "day": "Friday",
		        "openingTime": "07:30:00",
		        "closingTime": "17:00:00",
		        "closed": ""
		    },
		    {
		        "day": "Saturday",
		        "openingTime": "",
		        "closingTime": "",
		        "closed": "true"
		    },
		    {
		        "day": "Sunday",
		        "openingTime": "",
		        "closingTime": "",
		        "closed": "true"
		    }
		],
	    "isSales": false,
	    "isParts": false,
	    "isUsed": false,
	    "isFleetSpecialist": false,
	    "serviceRequestLeadTimeInDays": 3,
	    "isServiceBooking": true,	  
      "vehicles" : [
        {
            "dealerRelationships" :["PURCHASING","SERVICING"],
            "vin": "JTNKU3JE80J525533",
		    "batchNumber": "0007604577",
		    "compliancePlate": "2016-03",
		    "deliveryDate": "2016-04-08",
		    "engineNumber": "2ZR1746548",
		    "katashikiCode": "ZRE182R-AHXNKQ",
		    "makeCode": "TO",
		    "makeDescription": "Toyota",
		    "materialNumber": "4E67950B0FA20209",
		    "model": {
		        "code": "67950",
		        "description": "Hatch Asct Spt/SE/SX/ZR CV"
		    },
		    "paint": {
		        "code": "209",
		        "description": "Black Mica Metallic"
		    },
		    "production": "2016-03",
		    "registrationNumber": "YDE86A",
		    "salesType": "ZRET",
		    "sellingDealerCode": "37425",
		    "sellingDealerName": "SYDNEY CITY TOYOTA",
		    "series": {
		        "code": "1306",
		        "description": "Corolla Hatch"
		    },
		    "ssn": {
		        "code": "4E",
		        "description": "Corolla Hatch (03.2015-05.2018"
		    },
		    "suffix": {
		        "code": "B0",
		        "description": "Ascent Sport"
		    },
		    "transmission": "Auto CVT",
		    "trim": {
		        "code": "FA20",
		        "description": "Black Fabric"
		    },
		    "vehicleDescription": "Corolla Ascent Sport 1.8L Petrol Auto CVT 5 Door Hatch",
		    "vehicleIdentificationNumber": {
		        "chassisNumber": "0J525533",
		        "vehicleDescriptorSegment": "KU3JE",
		        "vehicleDescriptorSegmentCheckDigit": "8",
		        "worldManufacturersIndex": "JTN"
		    },
		    "vehicleLine": {
		        "code": "CORI",
		        "description": "Corolla"
		    },
		    "warrantyEndDate": "2019-04-08"
		}
      ]
    }
  ]
}
