{
  "dealerId": "37272",
  "sapCode": "037272",
  "registrationNumber": "ABC123",
  "vehicleOdo": "10000",
  "vehicleDescription": "Corolla Ascent Sport 1.8L Petrol CVT 5 Door Hatch",
  "serviceCode": "RTLASV50R   A  2001",
  "operation": "0D1A93",
  "serviceDescription": "10,000KM / 6 Month Service",
  "serviceCost": 159.8,
  "estimatedServiceTime": "1.2",
  "dropOffDate": "2016-04-30",
  "dropOffTime": "07:30",
  "pickUpDate": "2016-04-30",
  "pickUpTime": "13:00",
  "confirmationType": "email",
  "notes": "Please check the wipers",
  "waitAtDealerFlag": false,
  "tsaFlag": false,
  "expressServiceFlag": false,
  "courtesyBusFlag": false,
  "loanVehicleFlag": true,
  "contactDetails": {
    "title": "Mr",
    "firstName": "John",
    "lastName": "Smith",
    "email": "jsmith@email.com",
    "phone": "0412341234"
  }
}