{
  "serviceCode": "RTLASV50R   A  2001",
  "operation": "0D1A93",
  "retailServiceCostIncGST": 236.1,
  "tsaServiceCostIncGST": 0,
  "estimatedServiceTime": "1.2",
  "serviceTsaFlag": false,
  "dropOffDate": "2016-04-30",
  "dropOffTime": "07:30",
  "pickUpDate": "2016-04-30",
  "pickUpTime": "13:00",
  "confirmationType": "email",
  "notes": "Please check the wipers",
  "waitAtDealerFlag": false,
  "expressServiceFlag": false,
  "courtesyBusFlag": false,
  "loanVehicleFlag": true,
  "contactDetails": {
    "firstName": "John",
    "lastName": "Smith",
    "email": "jsmith@email.com",
    "phone": "0412341234"
  },
  "dealerDetails": {
    "dealerId": "37272",
    "branchCode": "037272",
    "name": "Chatswood Toyota",
    "email": "booking@chatswoodtoyota.com.au"
  }
}