{
  "vehicleDescription": "COROLLA ASCENT SPORT 1.8L PETROL CONTINUOUSLY VARIABLE 5 DOO",
  "manuals": [
    {
      "name": "Corolla Ascent Owner's Manual",
      "date": "2013-05-07",
      "fileType": "PDF",
      "location": "http://NOBWXAPMSAPP01/Manuals_Distribution/OM_3A7863025FA20061.pdf",
    },
    {
      "name": "Corolla Ascent Service and Workshop Book",
      "date": "2013-05-07",
      "fileType": "PDF",
      "location": "http://NOBWXAPMSAPP01/Manuals_Distribution/SW_3A7863025FA20061.pdf",
    }
  ]