{  
   "availableDays":[  
      {  
         "date":"2016-04-14",
         "times":[  
            "7:00",
            "7:15",
            "7:30",
            "7:45",
            "8:00",
            "8:15",
            "8:30",
            "8:45",
            "9:00",
            "9:15",
            "9:30",
            "9:45",
            "10:00",
            "10:15",
            "10:30",
            "10:45"
         ]
      },
      {  
         "date":"2016-04-15",
         "times":[  
            "7:00",
            "7:15",
            "7:30",
            "7:45",
            "8:00",
            "8:15",
            "9:00",
            "9:15",
            "9:30",
            "9:45",
            "10:15",
            "10:30",
            "10:45"
         ]
      },
      {  
         "date":"2016-04-18",
         "times":[  
            "7:45",
            "8:00",
            "8:15",
            "8:30",
            "8:45",
            "9:00",
            "9:15",
            "9:30",
            "9:45",
            "10:00",
            "10:15",
            "10:30",
            "10:45"
         ]
      },
      {  
         "date":"2016-04-20",
         "times":[  
            "7:00",
            "7:15",
            "7:30",
            "8:15",
            "8:30",
            "8:45",
            "9:00",
            "9:30",
            "9:45",
            "10:00",
            "10:30",
            "10:45"
         ]
      }
   ]
}