{
  "batchNumber": "0006164997",
  "compliancePlate": "2013-04",
  "engineNumber": "2ZR1223438",
  "vin": "JTNKU3JE60J021675",
  "materialNumber": "4436080B0FD203R3",
  "vehicleDescription": "Corolla Ascent Sport 1.8L Petrol CVT 5 Door Hatch",
  "katashikiCode": "ZRE182R-AHXNKQ",
  "transmission": "CVT",
  "sellingDealerCode": "1623",
  "sellingDealerName": "BRIAN HILTON TOYOTA",
  "registrationNumber": "COI14W",
  "production": "2013-03",
  "vehicleUsers": [
    {
      "registrationNumber": "AAA111",
      "state": "VIC",
      "discontinuedDate": null
    }
  ],
  "year": "2013"
}