{
    "fuelstations": [
        {
            "brand": "CALTEX",
            "state": "VIC",
            "suburb": "South Melbourne",
            "address": "256-260 Kings Way Cnr Bank St",
            "postcode": "3205",
            "phone": "03 96996820",
            "longitude": 144.966002,
            "latitude": -37.832169,
            "locationId": "0000033334",
            "locationName": "South Melbourne"
        },
        {
            "brand": "CALTEX",
            "state": "VIC",
            "suburb": "Abbotsford",
            "address": "28-40 Hoddle St",
            "postcode": "3067",
            "phone": "03 9417 0959",
            "longitude": 144.991765,
            "latitude": -37.808186,
            "locationId": "0000037217",
            "locationName": "Abbotsford"
        }
	]
}