{
  "vin": "JTNKU3JE60J021675",
  "deliveryDate": "2013-05-01",
  "registrationDetails": {
    "documentFilename": "sample-file.jpg",
    "encodedImage": "iVBORw0KGgoAAAANSUhEUgAAAQAAAAEACAYAAABccq..."
  }
  "vehicleUser": {
    "registrationNumber": "AAA111",
    "state": "VIC"
  }
}