{
  "vin": "JTNKU3JE60J021675",
  "vehicleDescription": "COROLLA ASCENT SPORT 1.8L PETROL CONTINUOUSLY VARIABLE 5 DOO",
  "recalls": [
    {
      "invoiceDate": "2013-05-07",
      "dealerCode": "1623",
      "dealerName": "BRIAN HILTON TOYOTA",
      "servicingDealerBranchCode": "1623",
      "servicingDealerBranchName": "BRIAN HILTON TOYOTA",
      "odometerReadingKm": 10,
      "campaignCode":"AHG56",
      "campaignDescription":"OOW SUPPORT REFER TNF07/15 OR LNF09/15",
      "campaignTypeDescription":"TOYOTA INSPECT OIL COOLER PIPE",
      "campaignTypeCode":"AHG56B2"
    },
    {
      "invoiceDate": "2014-05-07",
      "dealerCode": "1623",
      "dealerName": "BRIAN HILTON TOYOTA",
      "servicingDealerBranchCode": "1623",
      "servicingDealerBranchName": "BRIAN HILTON TOYOTA",
      "odometerReadingKm": 20,
      "campaignCode":"2611H",
      "campaignDescription":"POWER WINDOW MASTER SWITCH",
      "campaignTypeDescription":"PWMS - AURION GREASE APPLICATION",
      "campaignTypeCode":"2611HA1A"
    }
   ]
}