{    
    "rewardType": "competition",
    "rewardId": "guid",
    "description": ""
    "entries": [
        {
            "questionId": "12345",
            "questionTitle": "Tell us what you think?",
            "answer": "Nothing"
        },
        {
            "questionId": "123456",
            "questionTitle": "What is your favourite myToyota features? (multiple choice question)",
            "answer": "Service Booking"
        }

    ]
}