{
  "services": [
    {
      "bookingId": "TMP-20160527052431741",
      "status": "quoted",
      "totalServicePrice": 170,
      "dealerDetails": {
        "address": "824 Bourke Street",
        "branchCode": "37425",
        "dealerId": "37425",
        "dmsId": "61.10169.10169011116",
        "dmsType": "TUNE",
        "email": "onlinesales@sydneycitytoyota.com.au",
        "externalUri": "www.sydneycitytoyota.com.au",
        "fiveStar": true,
        "fleetSpecialist": true,
        "name": "Sydney City Toyota",
        "parts": true,
        "postcode": "2017",
        "refX": "151.2109740",
        "refY": "-33.8996020",
        "sales": true,
        "service": true,
        "state": "NSW",
        "suburb": "WATERLOO",
        "telephone": "02 9690 9999"
      },
      "vehicle": {
        "batchNumber": "0006569553",
        "compliancePlate": "2014-03",
        "engineNumber": "2GRM001231",
        "images": [
          {
            "code": "907x510",
            "url": "http://cdn.rotorint.com/Kluger/2013_12_Dec/e/hero/png/hi/907x510/Kluger_GXL_Sfx_2A_AWD_1D6_Silver_Sky_003.png"
          },
          {
            "code": "1089x613",
            "url": "http://cdn.rotorint.com/Kluger/2013_12_Dec/e/hero/png/hi/1089x613/Kluger_GXL_Sfx_2A_AWD_1D6_Silver_Sky_003.png"
          },
          {
            "code": "519x292",
            "url": "http://cdn.rotorint.com/Kluger/2013_12_Dec/e/hero/png/hi/519x292/Kluger_GXL_Sfx_2A_AWD_1D6_Silver_Sky_003.png"
          },
          {
            "code": "260x146",
            "url": "http://cdn.rotorint.com/Kluger/2013_12_Dec/e/hero/png/hi/260x146/Kluger_GXL_Sfx_2A_AWD_1D6_Silver_Sky_003.png"
          }
        ],
        "katashikiCode": "GSU55R-ARTNKQ",
        "materialNumber": "9M670602ALD201D6",
        "paintCode": "1D6",
        "paintDescription": "Silver Sky",
        "production": "2014-01",
        "registrationNumber": "CXX76M",
        "salesType": "ZRET",
        "sellingDealerCode": "9387",
        "sellingDealerName": "SYDNEY CITY TOYOTA",
        "state": "ACT",
        "suffixCode": "2A",
        "suffixDescription": "GXL",
        "transmission": "Automatic",
        "trimCode": "LD20",
        "trimDescription": "Leather Accented Black",
        "userRegistrationNumber": "test",
        "vehicleDescription": "Kluger GXL AWD 3.5L Petrol Automatic Wagon",
        "vehicleImage": "https://mytoyotadev.blob.core.windows.net/vehicle/MYT-00000005/5TDBK3FH80S016123.jpeg",
        "vin": "5TDBK3FH80S016123",
        "year": "2014"
      },
      "serviceOperation": {
        "description": "40000 Km or 24 Months Service",
        "externalClaimNumber": "0D1C23",
        "fixedChargeOperationFlag": true,
        "operationId": "TOY45219-TSA40M24-3158867",
        "operationTypeId": "SCHEDULE",
        "price": 170,
        "tsaFlag": true
      }
    },
    {
      "bookingId": "TB16392257",
      "dropOffDate": "2016-05-31",
      "dropOffTime": "11:30",
      "pickUpDate": "2016-05-31",
      "pickUpTime": "11:45",
      "status": "scheduled",
      "notes": "test",
      "totalServicePrice": 170,
      "dealerDetails": {
        "address": "824 Bourke Street",
        "branchCode": "37425",
        "dealerId": "37425",
        "dmsId": "61.10169.10169011116",
        "dmsType": "TUNE",
        "email": "onlinesales@sydneycitytoyota.com.au",
        "externalUri": "www.sydneycitytoyota.com.au",
        "fiveStar": true,
        "fleetSpecialist": true,
        "name": "Sydney City Toyota",
        "parts": true,
        "postcode": "2017",
        "refX": "151.2109740",
        "refY": "-33.8996020",
        "sales": true,
        "service": true,
        "state": "NSW",
        "suburb": "WATERLOO",
        "telephone": "02 9690 9999"
      },
      "contactDetail": {
        "email": "johnver@gmail.com",
        "firstName": "John Ver",
        "lastName": "De Guzman",
        "phone": "0433871397"
      },
      "vehicle": {
        "batchNumber": "0006569553",
        "compliancePlate": "2014-03",
        "engineNumber": "2GRM001231",
        "images": [
          {
            "code": "1089x613",
            "url": "http://cdn.rotorint.com/Kluger/2013_12_Dec/e/hero/png/hi/1089x613/Kluger_GXL_Sfx_2A_AWD_1D6_Silver_Sky_003.png"
          },
          {
            "code": "260x146",
            "url": "http://cdn.rotorint.com/Kluger/2013_12_Dec/e/hero/png/hi/260x146/Kluger_GXL_Sfx_2A_AWD_1D6_Silver_Sky_003.png"
          },
          {
            "code": "519x292",
            "url": "http://cdn.rotorint.com/Kluger/2013_12_Dec/e/hero/png/hi/519x292/Kluger_GXL_Sfx_2A_AWD_1D6_Silver_Sky_003.png"
          },
          {
            "code": "907x510",
            "url": "http://cdn.rotorint.com/Kluger/2013_12_Dec/e/hero/png/hi/907x510/Kluger_GXL_Sfx_2A_AWD_1D6_Silver_Sky_003.png"
          }
        ],
        "katashikiCode": "GSU55R-ARTNKQ",
        "materialNumber": "9M670602ALD201D6",
        "paintCode": "1D6",
        "paintDescription": "Silver Sky",
        "production": "2014-01",
        "registrationNumber": "CXX76M",
        "salesType": "ZRET",
        "sellingDealerCode": "9387",
        "sellingDealerName": "SYDNEY CITY TOYOTA",
        "state": "ACT",
        "suffixCode": "2A",
        "suffixDescription": "GXL",
        "transmission": "Automatic",
        "trimCode": "LD20",
        "trimDescription": "Leather Accented Black",
        "userRegistrationNumber": "test",
        "vehicleDescription": "Kluger GXL AWD 3.5L Petrol Automatic Wagon",
        "vehicleImage": "https://mytoyotadev.blob.core.windows.net/vehicle/MYT-00000005/5TDBK3FH80S016123.jpeg",
        "vin": "5TDBK3FH80S016123",
        "year": "2014"
      },
      "serviceOperation": {
        "description": "40000 Km or 24 Months Service",
        "externalClaimNumber": "0D1C23",
        "fixedChargeOperationFlag": true,
        "operationId": "TOY45219-TSA40M24-3158867",
        "operationTypeId": "SCHEDULE",
        "price": 170,
        "tsaFlag": true
      }
    }
  ]
}