{
    "query": "franchise=Toyota&postcode=2017&suburb=WATERLOO&maxResults=&range=&serviceType=",
    "openPoint": false,
    "results": [
        {
            "dealerId": "037425",
            "name": "Sydney City Toyota",
            "dmsType": "myService",
            "branchId": "37425",
            "dmsId": "",
            "sapCode": "37425",
            "state": "NSW",
            "postcode": "2017",
            "refX": "151.210974",
            "refY": "-33.899602",
            "telephone": "02 9690 9999",
            "email": "daniel.page@rxpservices.com",
            "externalUri": "http://www.sydneycitytoyota.com.au/",
            "serviceTypes": [
                {
                    "name": "Express Maintenance",
                    "comments": "",
                    "OperatingHours": [
                        {
                            "day": "Monday",
                            "openingTime": "07:30:00",
                            "closingTime": "15:00:00",
                            "closed": ""
                        },
                        {
                            "day": "Tuesday",
                            "openingTime": "07:30:00",
                            "closingTime": "15:00:00",
                            "closed": ""
                        },
                        {
                            "day": "Wednesday",
                            "openingTime": "07:30:00",
                            "closingTime": "15:00:00",
                            "closed": ""
                        },
                        {
                            "day": "Thursday",
                            "openingTime": "07:30:00",
                            "closingTime": "15:00:00",
                            "closed": ""
                        },
                        {
                            "day": "Friday",
                            "openingTime": "07:30:00",
                            "closingTime": "15:00:00",
                            "closed": ""
                        },
                        {
                            "day": "Saturday",
                            "openingTime": "08:00:00",
                            "closingTime": "09:30:00",
                            "closed": ""
                        },
                        {
                            "day": "Sunday",
                            "openingTime": "",
                            "closingTime": "",
                            "closed": "true"
                        }
                    ]
                },
                {
                    "name": "Fleet Specialist Dealer",
                    "comments": "",
                    "OperatingHours": [
                        {
                            "day": "Monday",
                            "openingTime": "08:30:00",
                            "closingTime": "17:30:00",
                            "closed": ""
                        },
                        {
                            "day": "Tuesday",
                            "openingTime": "08:30:00",
                            "closingTime": "17:30:00",
                            "closed": ""
                        },
                        {
                            "day": "Wednesday",
                            "openingTime": "08:30:00",
                            "closingTime": "17:30:00",
                            "closed": ""
                        },
                        {
                            "day": "Thursday",
                            "openingTime": "08:30:00",
                            "closingTime": "17:30:00",
                            "closed": ""
                        },
                        {
                            "day": "Friday",
                            "openingTime": "08:30:00",
                            "closingTime": "17:30:00",
                            "closed": ""
                        },
                        {
                            "day": "Saturday",
                            "openingTime": "",
                            "closingTime": "",
                            "closed": "true"
                        },
                        {
                            "day": "Sunday",
                            "openingTime": "",
                            "closingTime": "",
                            "closed": "true"
                        }
                    ]
                },
                {
                    "name": "DASO",
                    "comments": "",
                    "OperatingHours": []
                },
                {
                    "name": "Fleet",
                    "comments": "",
                    "OperatingHours": [
                        {
                            "day": "Monday",
                            "openingTime": "08:30:00",
                            "closingTime": "17:30:00",
                            "closed": ""
                        },
                        {
                            "day": "Tuesday",
                            "openingTime": "08:30:00",
                            "closingTime": "17:30:00",
                            "closed": ""
                        },
                        {
                            "day": "Wednesday",
                            "openingTime": "08:30:00",
                            "closingTime": "17:30:00",
                            "closed": ""
                        },
                        {
                            "day": "Thursday",
                            "openingTime": "08:30:00",
                            "closingTime": "17:30:00",
                            "closed": ""
                        },
                        {
                            "day": "Friday",
                            "openingTime": "08:30:00",
                            "closingTime": "17:30:00",
                            "closed": ""
                        },
                        {
                            "day": "Saturday",
                            "openingTime": "",
                            "closingTime": "",
                            "closed": "true"
                        },
                        {
                            "day": "Sunday",
                            "openingTime": "",
                            "closingTime": "",
                            "closed": "true"
                        }
                    ]
                },
                {
                    "name": "New",
                    "comments": "",
                    "OperatingHours": [
                        {
                            "day": "Monday",
                            "openingTime": "08:30:00",
                            "closingTime": "17:30:00",
                            "closed": ""
                        },
                        {
                            "day": "Tuesday",
                            "openingTime": "08:30:00",
                            "closingTime": "17:30:00",
                            "closed": ""
                        },
                        {
                            "day": "Wednesday",
                            "openingTime": "08:30:00",
                            "closingTime": "17:30:00",
                            "closed": ""
                        },
                        {
                            "day": "Thursday",
                            "openingTime": "08:30:00",
                            "closingTime": "17:30:00",
                            "closed": ""
                        },
                        {
                            "day": "Friday",
                            "openingTime": "08:30:00",
                            "closingTime": "17:30:00",
                            "closed": ""
                        },
                        {
                            "day": "Saturday",
                            "openingTime": "08:30:00",
                            "closingTime": "17:00:00",
                            "closed": ""
                        },
                        {
                            "day": "Sunday",
                            "openingTime": "10:00:00",
                            "closingTime": "17:00:00",
                            "closed": ""
                        }
                    ]
                },
                {
                    "name": "Parts",
                    "comments": "",
                    "OperatingHours": [
                        {
                            "day": "Monday",
                            "openingTime": "08:00:00",
                            "closingTime": "17:00:00",
                            "closed": ""
                        },
                        {
                            "day": "Tuesday",
                            "openingTime": "08:00:00",
                            "closingTime": "17:00:00",
                            "closed": ""
                        },
                        {
                            "day": "Wednesday",
                            "openingTime": "08:00:00",
                            "closingTime": "17:00:00",
                            "closed": ""
                        },
                        {
                            "day": "Thursday",
                            "openingTime": "08:00:00",
                            "closingTime": "17:00:00",
                            "closed": ""
                        },
                        {
                            "day": "Friday",
                            "openingTime": "08:00:00",
                            "closingTime": "17:00:00",
                            "closed": ""
                        },
                        {
                            "day": "Saturday",
                            "openingTime": "08:00:00",
                            "closingTime": "12:00:00",
                            "closed": ""
                        },
                        {
                            "day": "Sunday",
                            "openingTime": "",
                            "closingTime": "",
                            "closed": "true"
                        }
                    ]
                },
                {
                    "name": "Service",
                    "comments": "",
                    "OperatingHours": [
                        {
                            "day": "Monday",
                            "openingTime": "07:30:00",
                            "closingTime": "17:30:00",
                            "closed": ""
                        },
                        {
                            "day": "Tuesday",
                            "openingTime": "07:30:00",
                            "closingTime": "17:30:00",
                            "closed": ""
                        },
                        {
                            "day": "Wednesday",
                            "openingTime": "07:30:00",
                            "closingTime": "17:30:00",
                            "closed": ""
                        },
                        {
                            "day": "Thursday",
                            "openingTime": "07:30:00",
                            "closingTime": "17:30:00",
                            "closed": ""
                        },
                        {
                            "day": "Friday",
                            "openingTime": "07:30:00",
                            "closingTime": "17:30:00",
                            "closed": ""
                        },
                        {
                            "day": "Saturday",
                            "openingTime": "07:30:00",
                            "closingTime": "12:00:00",
                            "closed": ""
                        },
                        {
                            "day": "Sunday",
                            "openingTime": "",
                            "closingTime": "",
                            "closed": "true"
                        }
                    ]
                },
                {
                    "name": "Used",
                    "comments": "",
                    "OperatingHours": [
                        {
                            "day": "Monday",
                            "openingTime": "08:30:00",
                            "closingTime": "17:30:00",
                            "closed": ""
                        },
                        {
                            "day": "Tuesday",
                            "openingTime": "08:30:00",
                            "closingTime": "17:30:00",
                            "closed": ""
                        },
                        {
                            "day": "Wednesday",
                            "openingTime": "08:30:00",
                            "closingTime": "17:30:00",
                            "closed": ""
                        },
                        {
                            "day": "Thursday",
                            "openingTime": "08:30:00",
                            "closingTime": "17:30:00",
                            "closed": ""
                        },
                        {
                            "day": "Friday",
                            "openingTime": "08:30:00",
                            "closingTime": "17:30:00",
                            "closed": ""
                        },
                        {
                            "day": "Saturday",
                            "openingTime": "08:30:00",
                            "closingTime": "17:00:00",
                            "closed": ""
                        },
                        {
                            "day": "Sunday",
                            "openingTime": "10:00:00",
                            "closingTime": "17:00:00",
                            "closed": ""
                        }
                    ]
                },
                {
                    "name": "Maintenance Reminder System",
                    "comments": "",
                    "OperatingHours": []
                }
            ],
            "isService": true,
            "hoursOfOperationService": [
                {
                    "day": "Monday",
                    "openingTime": "07:30:00",
                    "closingTime": "17:30:00",
                    "closed": ""
                },
                {
                    "day": "Tuesday",
                    "openingTime": "07:30:00",
                    "closingTime": "17:30:00",
                    "closed": ""
                },
                {
                    "day": "Wednesday",
                    "openingTime": "07:30:00",
                    "closingTime": "17:30:00",
                    "closed": ""
                },
                {
                    "day": "Thursday",
                    "openingTime": "07:30:00",
                    "closingTime": "17:30:00",
                    "closed": ""
                },
                {
                    "day": "Friday",
                    "openingTime": "07:30:00",
                    "closingTime": "17:30:00",
                    "closed": ""
                },
                {
                    "day": "Saturday",
                    "openingTime": "07:30:00",
                    "closingTime": "12:00:00",
                    "closed": ""
                },
                {
                    "day": "Sunday",
                    "openingTime": "",
                    "closingTime": "",
                    "closed": "true"
                }
            ],
            "isSales": true,
            "hoursOfOperationSales": [
                {
                    "day": "Monday",
                    "openingTime": "08:30:00",
                    "closingTime": "17:30:00",
                    "closed": ""
                },
                {
                    "day": "Tuesday",
                    "openingTime": "08:30:00",
                    "closingTime": "17:30:00",
                    "closed": ""
                },
                {
                    "day": "Wednesday",
                    "openingTime": "08:30:00",
                    "closingTime": "17:30:00",
                    "closed": ""
                },
                {
                    "day": "Thursday",
                    "openingTime": "08:30:00",
                    "closingTime": "17:30:00",
                    "closed": ""
                },
                {
                    "day": "Friday",
                    "openingTime": "08:30:00",
                    "closingTime": "17:30:00",
                    "closed": ""
                },
                {
                    "day": "Saturday",
                    "openingTime": "08:30:00",
                    "closingTime": "17:00:00",
                    "closed": ""
                },
                {
                    "day": "Sunday",
                    "openingTime": "10:00:00",
                    "closingTime": "17:00:00",
                    "closed": ""
                }
            ],
            "isParts": true,
            "isUsed": true,
            "isFleetSpecialist": true,
            "serviceRequestLeadTimeInDays": 2
        },
        {
            "dealerId": "037425",
            "name": "Sydney City Toyota",
            "dmsType": "myService",
            "branchId": "37426",
            "dmsId": "",
            "sapCode": "37426",
            "state": "NSW",
            "postcode": "2037",
            "refX": "151.184537",
            "refY": "-33.885065",
            "telephone": "02 9565 6313",
            "email": "location-24822-email@dealer-46101.test.toyota.com.au",
            "externalUri": "http://www.sydneycitytoyota.com.au/",
            "serviceTypes": [
                {
                    "name": "DASO",
                    "comments": "",
                    "OperatingHours": []
                },
                {
                    "name": "Fleet",
                    "comments": "",
                    "OperatingHours": [
                        {
                            "day": "Monday",
                            "openingTime": "08:30:00",
                            "closingTime": "17:30:00",
                            "closed": ""
                        },
                        {
                            "day": "Tuesday",
                            "openingTime": "08:30:00",
                            "closingTime": "17:30:00",
                            "closed": ""
                        },
                        {
                            "day": "Wednesday",
                            "openingTime": "08:30:00",
                            "closingTime": "17:30:00",
                            "closed": ""
                        },
                        {
                            "day": "Thursday",
                            "openingTime": "08:30:00",
                            "closingTime": "17:30:00",
                            "closed": ""
                        },
                        {
                            "day": "Friday",
                            "openingTime": "08:30:00",
                            "closingTime": "17:30:00",
                            "closed": ""
                        },
                        {
                            "day": "Saturday",
                            "openingTime": "",
                            "closingTime": "",
                            "closed": "true"
                        },
                        {
                            "day": "Sunday",
                            "openingTime": "",
                            "closingTime": "",
                            "closed": "true"
                        }
                    ]
                },
                {
                    "name": "New",
                    "comments": "",
                    "OperatingHours": [
                        {
                            "day": "Monday",
                            "openingTime": "08:30:00",
                            "closingTime": "17:30:00",
                            "closed": ""
                        },
                        {
                            "day": "Tuesday",
                            "openingTime": "08:30:00",
                            "closingTime": "17:30:00",
                            "closed": ""
                        },
                        {
                            "day": "Wednesday",
                            "openingTime": "08:30:00",
                            "closingTime": "17:30:00",
                            "closed": ""
                        },
                        {
                            "day": "Thursday",
                            "openingTime": "08:30:00",
                            "closingTime": "17:30:00",
                            "closed": ""
                        },
                        {
                            "day": "Friday",
                            "openingTime": "08:30:00",
                            "closingTime": "17:30:00",
                            "closed": ""
                        },
                        {
                            "day": "Saturday",
                            "openingTime": "08:30:00",
                            "closingTime": "17:00:00",
                            "closed": ""
                        },
                        {
                            "day": "Sunday",
                            "openingTime": "10:00:00",
                            "closingTime": "17:00:00",
                            "closed": ""
                        }
                    ]
                },
                {
                    "name": "Parts",
                    "comments": "",
                    "OperatingHours": [
                        {
                            "day": "Monday",
                            "openingTime": "08:00:00",
                            "closingTime": "17:00:00",
                            "closed": ""
                        },
                        {
                            "day": "Tuesday",
                            "openingTime": "08:00:00",
                            "closingTime": "17:00:00",
                            "closed": ""
                        },
                        {
                            "day": "Wednesday",
                            "openingTime": "08:00:00",
                            "closingTime": "17:00:00",
                            "closed": ""
                        },
                        {
                            "day": "Thursday",
                            "openingTime": "08:00:00",
                            "closingTime": "17:00:00",
                            "closed": ""
                        },
                        {
                            "day": "Friday",
                            "openingTime": "08:00:00",
                            "closingTime": "17:00:00",
                            "closed": ""
                        },
                        {
                            "day": "Saturday",
                            "openingTime": "08:00:00",
                            "closingTime": "12:00:00",
                            "closed": ""
                        },
                        {
                            "day": "Sunday",
                            "openingTime": "",
                            "closingTime": "",
                            "closed": "true"
                        }
                    ]
                },
                {
                    "name": "Prius Sales Specialist",
                    "comments": "",
                    "OperatingHours": []
                },
                {
                    "name": "Prius Service Specialist",
                    "comments": "",
                    "OperatingHours": []
                },
                {
                    "name": "Service",
                    "comments": "",
                    "OperatingHours": [
                        {
                            "day": "Monday",
                            "openingTime": "07:30:00",
                            "closingTime": "17:30:00",
                            "closed": ""
                        },
                        {
                            "day": "Tuesday",
                            "openingTime": "07:30:00",
                            "closingTime": "17:30:00",
                            "closed": ""
                        },
                        {
                            "day": "Wednesday",
                            "openingTime": "07:30:00",
                            "closingTime": "17:30:00",
                            "closed": ""
                        },
                        {
                            "day": "Thursday",
                            "openingTime": "07:30:00",
                            "closingTime": "17:30:00",
                            "closed": ""
                        },
                        {
                            "day": "Friday",
                            "openingTime": "07:30:00",
                            "closingTime": "17:30:00",
                            "closed": ""
                        },
                        {
                            "day": "Saturday",
                            "openingTime": "07:30:00",
                            "closingTime": "12:00:00",
                            "closed": ""
                        },
                        {
                            "day": "Sunday",
                            "openingTime": "",
                            "closingTime": "",
                            "closed": "true"
                        }
                    ]
                },
                {
                    "name": "Used",
                    "comments": "",
                    "OperatingHours": [
                        {
                            "day": "Monday",
                            "openingTime": "08:30:00",
                            "closingTime": "17:30:00",
                            "closed": ""
                        },
                        {
                            "day": "Tuesday",
                            "openingTime": "08:30:00",
                            "closingTime": "17:30:00",
                            "closed": ""
                        },
                        {
                            "day": "Wednesday",
                            "openingTime": "08:30:00",
                            "closingTime": "17:30:00",
                            "closed": ""
                        },
                        {
                            "day": "Thursday",
                            "openingTime": "08:30:00",
                            "closingTime": "17:30:00",
                            "closed": ""
                        },
                        {
                            "day": "Friday",
                            "openingTime": "08:30:00",
                            "closingTime": "17:30:00",
                            "closed": ""
                        },
                        {
                            "day": "Saturday",
                            "openingTime": "08:30:00",
                            "closingTime": "17:00:00",
                            "closed": ""
                        },
                        {
                            "day": "Sunday",
                            "openingTime": "10:00:00",
                            "closingTime": "17:00:00",
                            "closed": ""
                        }
                    ]
                },
                {
                    "name": "Maintenance Reminder System",
                    "comments": "",
                    "OperatingHours": []
                },
                {
                    "name": "Express Maintenance",
                    "comments": "",
                    "OperatingHours": [
                        {
                            "day": "Monday",
                            "openingTime": "08:00:00",
                            "closingTime": "15:00:00",
                            "closed": ""
                        },
                        {
                            "day": "Tuesday",
                            "openingTime": "08:00:00",
                            "closingTime": "15:00:00",
                            "closed": ""
                        },
                        {
                            "day": "Wednesday",
                            "openingTime": "08:00:00",
                            "closingTime": "15:00:00",
                            "closed": ""
                        },
                        {
                            "day": "Thursday",
                            "openingTime": "08:00:00",
                            "closingTime": "15:00:00",
                            "closed": ""
                        },
                        {
                            "day": "Friday",
                            "openingTime": "08:00:00",
                            "closingTime": "15:00:00",
                            "closed": ""
                        },
                        {
                            "day": "Saturday",
                            "openingTime": "08:00:00",
                            "closingTime": "09:30:00",
                            "closed": ""
                        },
                        {
                            "day": "Sunday",
                            "openingTime": "",
                            "closingTime": "",
                            "closed": "true"
                        }
                    ]
                }
            ],
            "isService": true,
            "hoursOfOperationService": [
                {
                    "day": "Monday",
                    "openingTime": "07:30:00",
                    "closingTime": "17:30:00",
                    "closed": ""
                },
                {
                    "day": "Tuesday",
                    "openingTime": "07:30:00",
                    "closingTime": "17:30:00",
                    "closed": ""
                },
                {
                    "day": "Wednesday",
                    "openingTime": "07:30:00",
                    "closingTime": "17:30:00",
                    "closed": ""
                },
                {
                    "day": "Thursday",
                    "openingTime": "07:30:00",
                    "closingTime": "17:30:00",
                    "closed": ""
                },
                {
                    "day": "Friday",
                    "openingTime": "07:30:00",
                    "closingTime": "17:30:00",
                    "closed": ""
                },
                {
                    "day": "Saturday",
                    "openingTime": "07:30:00",
                    "closingTime": "12:00:00",
                    "closed": ""
                },
                {
                    "day": "Sunday",
                    "openingTime": "",
                    "closingTime": "",
                    "closed": "true"
                }
            ],
            "isSales": true,
            "hoursOfOperationSales": [
                {
                    "day": "Monday",
                    "openingTime": "08:30:00",
                    "closingTime": "17:30:00",
                    "closed": ""
                },
                {
                    "day": "Tuesday",
                    "openingTime": "08:30:00",
                    "closingTime": "17:30:00",
                    "closed": ""
                },
                {
                    "day": "Wednesday",
                    "openingTime": "08:30:00",
                    "closingTime": "17:30:00",
                    "closed": ""
                },
                {
                    "day": "Thursday",
                    "openingTime": "08:30:00",
                    "closingTime": "17:30:00",
                    "closed": ""
                },
                {
                    "day": "Friday",
                    "openingTime": "08:30:00",
                    "closingTime": "17:30:00",
                    "closed": ""
                },
                {
                    "day": "Saturday",
                    "openingTime": "08:30:00",
                    "closingTime": "17:00:00",
                    "closed": ""
                },
                {
                    "day": "Sunday",
                    "openingTime": "10:00:00",
                    "closingTime": "17:00:00",
                    "closed": ""
                }
            ],
            "isParts": true,
            "isUsed": true,
            "isFleetSpecialist": false,
            "serviceRequestLeadTimeInDays": 2
        }
    ]
}