{
    "recallCategory": "URGENT"
    "content": {
        "contentType": "modal"
        "contentCopy": {
            "header": "Urgent Recall required",
            "subHeader": "For safety reasons, a recall is urgently required for your vehicle.",
            "body": "Your vehicle is affected by the Takata airbag recall and is being prioritised. Please call us and schedule your vehicle for urgent rectification which will be performed free of charge.<br/><br/>If your vehicle has previously been repaired for a similar airbag issue and you have received this message, we recommend you still contact your preferred Toyota Dealer or the Toyota recall helpline who can advise if further action is required.",
            "footer": "8:30am - 5:30pm AEST Monday to Friday",
            "actionButton": {
                "buttonType": "tel", 
                "buttonValue": "1800643242",
                "buttonCopy": "Call 1800 643 242",
            }
        }
        
    }
}