{
  "bookingId": "TB16392444",
  "dropOffDate": "2016-06-24",
  "dropOffTime": "07:00",
  "pickUpDate": "2016-06-24",
  "pickUpTime": "12:30",
  "status": "scheduled",
  "notes": "test abcd",
  "totalServicePrice": 180,
  "dealerDetails": {
    "address": "824 Bourke Street",
    "branchCode": "37425",
    "dealerId": "37425",
    "dmsId": "61.10169.10169011116",
    "dmsType": "TUNE",
    "email": "onlinesales@sydneycitytoyota.com.au",
    "externalUri": "www.sydneycitytoyota.com.au",
    "fiveStar": true,
    "fleetSpecialist": true,
    "name": "Sydney City Toyota",
    "parts": true,
    "postcode": "2017",
    "refX": "151.2109740",
    "refY": "-33.8996020",
    "sales": true,
    "service": true,
    "state": "NSW",
    "suburb": "WATERLOO",
    "telephone": "02 9690 9999"
  },
  "contactDetail": {
    "email": "lizette.jose+1@fabricgroup.com.au",
    "firstName": "Lizette",
    "lastName": "Jose",
    "phone": "0412345678"
  },
  "vehicle": {
    "batchNumber": "0007305842",
    "compliancePlate": "2015-10",
    "engineNumber": "1GD4053521",
    "katashikiCode": "GUN156R-STTMHQ",
    "materialNumber": "1Y17100DWLB41070",
    "paintCode": "070",
    "paintDescription": "Pearl White",
    "production": "2015-09",
    "registrationNumber": "CXU01R",
    "salesType": "ZRET",
    "sellingDealerCode": "37008",
    "sellingDealerName": "EUROBODALLA TOYOTA",
    "suffixCode": "DW",
    "suffixDescription": "Crusade",
    "transmission": "Automatic",
    "trimCode": "LB41",
    "trimDescription": "Brown Leather Accented",
    "vehicleDescription": "Fortuner Crusade 2.8L T Diesel Automatic Wagon",
    "vehicleId": 7601,
    "vin": "MR0HA3FS700023089",
    "year": "2015"
  },
  "serviceOperation": {
    "description": "20000 Km or 12 Months Service",
    "externalClaimNumber": "0D1B23",
    "fixedChargeOperationFlag": true,
    "operationId": "TOY52888-TSA20M12-1",
    "operationTypeId": "SCHEDULE",
    "price": 180,
    "procedureDescription": "Carry out 12 months/20,000km service, Toyota Service Advantage Plan.\r\nIncludes:- Replace engine oil & oil filter.\r\nInspect battery electrolyte, cleanliness & security.\r\nInspect air filter element.\r\nInspect brake fluid.\r\nInspect water sediment accumulator.\r\nCheck power steering fluid.\r\nInspect brake pads & discs.\r\nCheck brake pipes & hoses.\r\nCheck exhaust system for security & leaks.\r\nInspect steering wheel, gear & linkages.\r\nLubricate propeller shaft & tighten bolts.\r\nInspect towbar & bullbar/nudge bar mounts (if fitted).\r\nInspect ball joints & dust covers.\r\nInspect drive shafts including CV boots.\r\nInspect front & rear differential oil.\r\nInspect front & rear suspension.\r\nCheck condition & pressures of all tyres including spare.\r\nRotate wheels.\r\nBalance front wheels.\r\nCheck brake pedal height & hand brake lever operation.\r\nInspect all seat belts operation and condition.\r\nCheck lights, wiper/washers, horn & electrical systems.\r\nInspect air conditioner, including amount of refrigerant.\r\nInspect driver's floor mat for correct fitment and retention.\r\nRoad test vehicle & report any defects.\r\n",
    "totalOperationTime": 4.5,
    "tsaFlag": true
  },
  "vehicleOdo": 3000
}