{
	"transportOptions": [
	    {
	        "transportOptionCode": "OSB_TRANSPORT_OPTION_BUS",
	        "transportOption": "Shuttle Bus",
	        "transportOptionDesc": "",
	        "enabled": true,
	        "price": "",
	        "url": ""
	    },
	    {
	        "transportOptionCode": "OSB_TRANSPORT_OPTION_CAR",
	        "transportOption": "Loan Car",
	        "transportOptionDesc": "There may be a cost. A staff member will call to confirm availability",
	        "enabled": false,
	        "price": "",
	        "url": ""
	    },
	    {
	        "transportOptionCode": "OSB_TRANSPORT_OPTION_WAIT",
	        "transportOption": "Wait at the service lounge",
	        "transportOptionDesc": "Free Wi-Fi and complimentary tea/coffee",
	        "enabled": true,
	        "price": "",
	        "url": ""
	    },
	    {
	        "transportOptionCode": "OSB_TRANSPORT_OPTION_NONE",
	        "transportOption": "Make my own way",
	        "transportOptionDesc": "",
	        "enabled": true,
	        "price": "",
	        "url": ""
	    }
	]
}