{
  "rewardDetails": {
    "questions": [
      {
        "questionId": "3a5ab3af-e826-45c9-ab77-09c4403abaed",
        "questionLabel": "25 Words Or Less",
        "questionTitle": "Tell us your favourite myToyota feature",
        "questionCharacterLimit": "25",
        "placeholderTextForEntry": "Your entry"
      }
    ],
    "finishStateLabel": "Good Luck",
    "finishStateTitle": "Thanks for your entry!",
    "finishStateDescription": "Winners will be announced on Friday May 5th, 2017"
  },
  "id": "3a5ab3af-e826-45c9-ab77-09c4403abaed",
  "type": "Competition",
  "cardFront": {
    "cardImage": "/mytoyota/~/media/toyota/mytoyota/images/rewards/competitions/caltext_campaign_card_bg.png",
    "cardBackground": "#004c5f",
    "title": "Win a $50 Caltex Fuel Voucher!",
    "description": "Enter now to go into the draw for 1 of 20 $50 Caltex Fuel vouchers!",
    "buttonCopy": "Enter Now",
    "primaryColor": "#ffffff",
    "secondaryColor": "#ffffff"
  },
  "accordion": {
    "moreInformationTitle": "How to Enter",
    "aboutInformation": "To redeem this offer, simply fill out a quick survey on why and how you love myToyota.\n<br>\n<br>\nOnce you&rsquo;ve claimed this offer you will be sent an email link to the offer on <a href=\"continentaltyres.com.au/mytoyotarewards\" target=\"_blank\">continentaltyres.com.au/mytoyotarewards</a>",
    "terms": {
      "title": "Terms and Conditions",
      "content": "<ol>\n    <li>The Promoter is Morrison Media (A.B.N. 70602418566). frankiepress, the publisher of frankie Magazine is an imprint of Morrison Media.</li>\n    <li>Information on prizes and how to enter Morrison Media competitions form part of these Terms &amp; Conditions of Entry.</li>\n    <li> By entering Morrison Media competitions, entrants accept the above-stated Terms &amp; Conditions of Entry.</li>\n    <li> Entry to Morrison Media competitions are open to all Australian residents; excluding employees and their immediate families of the Promoter and its related companies.</li>\n    <li>To enter Morrison Media competitions, entrants must answer all competition questions and entries must be received by the Promoter by the close of business on the specified closing date.</li>\n</ol>",
      "hyperlinkUrl": "",
      "urlLabel": ""
    }
  },
  "expiryDate": "2017-07-24T14:30:00Z",
  "rewardIsActive": true,
  "singleClaimOnly": true
}