{
  "dealerId": "37272",
  "branchCode": "037272",
  "registrationNumber": "ABC123",
  "odometerReadingKm": "10000",
  "serviceCode": "RTLASV50R   A  2001",
  "operation": "0D1A93",
  "estimatedServiceTime": "1.2",
  "dropOffDate": "2016-04-30",
  "dropOffTime": "07:30",
  "pickUpDate": "2016-04-30",
  "pickUpTime": "13:00",
  "confirmationType": "email",
  "notes": "Please check the wipers",
  "waitAtDealerFlag": false,
  "expressServiceFlag": false,
  "courtesyBusFlag": false,
  "loanVehicleFlag": true,
  "contactDetails": {
    "title": "Mr",
    "firstName": "John",
    "lastName": "Smith",
    "email": "jsmith@email.com",
    "phone": "0412341234"
  },
  "alternativeContact": true,
  "alterContactDetails": {
    "title": "Mr",
    "firstName": "John",
    "lastName": "Smith",
    "email": "jsmith@email.com",
    "phone": "0412341234"
  }
}