{
  "dealerId": "2293",
  "branchCode": "2293",
  "tsaEligible": true,
  "production": "2016",
  "quoteDate": "2016-09-20",
  "quoteExpireDate": "2016-10-20",
  "hasOutstandingServices": true,
  "operations": [
    {
      "isTsaService": true,
      "tsaServiceDetails": {
        "serviceCode": "ADVZRE182R  A  1006",
        "serviceDescription": "10,000KM / 6 MTHS Normal",
        "customerPaymentAmount": -127.27,
        "serviceOperationCode": "0D1A63",
        "estimatedServiceTime": 1.2,
        "serviceDueDate": "2016-10-08",
        "serviceExpiryDate": "2017-01-08"
      },
      "serviceNumber": 1,
      "operation": "0D1A63",
      "kilometres": 10000,
      "months": 6,
      "retailServiceCostIncGst": 233.63,
      "tsaServiceCostIncGst": 140,
      "estimatedServiceTime": 1.2,
      "serviceKeys": [
        {
          "key": "E03",
          "section": "Engine",
          "description": "Drive belts",
          "action": "Inspect"
        },
        {
          "key": "E04",
          "section": "Engine",
          "description": "Engine oil",
          "action": "Replace"
        },
        {
          "key": "E05",
          "section": "Engine",
          "description": "Engine Oil filter",
          "action": "Replace"
        },
        {
          "key": "E06",
          "section": "Engine",
          "description": "Cooling and heater system",
          "action": "Activity not performed during this operation"
        },
        {
          "key": "E07",
          "section": "Engine",
          "description": "Engine coolant (Toyota Genuine Super LLC (Pink))",
          "action": "Activity not performed during this operation"
        },
        {
          "key": "E08",
          "section": "Engine",
          "description": "Exhaust pipes and mountings",
          "action": "Activity not performed during this operation"
        },
        {
          "key": "EL01",
          "section": "Electrical System",
          "description": "Spark Plugs (petrol models)",
          "action": "Activity not performed during this operation"
        },
        {
          "key": "EL02",
          "section": "Electrical System",
          "description": "Battery",
          "action": "Inspect"
        },
        {
          "key": "F01",
          "section": "Fuel System",
          "description": "Fuel Filter (including the in-tank filter)",
          "action": "Activity not performed during this operation"
        },
        {
          "key": "F05",
          "section": "Fuel System",
          "description": "Engine air cleaner filter",
          "action": "Activity not performed during this operation"
        },
        {
          "key": "F08",
          "section": "Fuel System",
          "description": "Fuel tank cap,fuel lines,connections & fuel vapor control valve (petrol models)",
          "action": "Activity not performed during this operation"
        },
        {
          "key": "F09",
          "section": "Fuel System",
          "description": "Charcoal canister (petrol models)",
          "action": "Activity not performed during this operation"
        },
        {
          "key": "CB01",
          "section": "Chassis and Body",
          "description": "Brake pedal and parking brake",
          "action": "Activity not performed during this operation"
        },
        {
          "key": "CB03",
          "section": "Chassis and Body",
          "description": "Brake pads and discs",
          "action": "Inspect"
        },
        {
          "key": "CB04",
          "section": "Chassis and Body",
          "description": "Brake fluid",
          "action": "Inspect"
        },
        {
          "key": "CB06",
          "section": "Chassis and Body",
          "description": "Brake pipes and hoses",
          "action": "Activity not performed during this operation"
        },
        {
          "key": "CB09",
          "section": "Chassis and Body",
          "description": "Steering wheel, linkage and steering gear box",
          "action": "Activity not performed during this operation"
        },
        {
          "key": "CB12",
          "section": "Chassis and Body",
          "description": "Drive shaft boots",
          "action": "Inspect"
        },
        {
          "key": "CB13",
          "section": "Chassis and Body",
          "description": "Suspension ball joint and dust covers",
          "action": "Activity not performed during this operation"
        },
        {
          "key": "CB34",
          "section": "Chassis and Body",
          "description": "Shift lever for manual transmission",
          "action": "Activity not performed during this operation"
        },
        {
          "key": "CB14",
          "section": "Chassis and Body",
          "description": "Automatic transmission fluid",
          "action": "Activity not performed during this operation"
        },
        {
          "key": "CB19",
          "section": "Chassis and Body",
          "description": "Front and rear suspensions (include KDSS)",
          "action": "Activity not performed during this operation"
        },
        {
          "key": "CB20",
          "section": "Chassis and Body",
          "description": "Bolts and nuts on chassis and body",
          "action": "Activity not performed during this operation"
        },
        {
          "key": "CB21",
          "section": "Chassis and Body",
          "description": "Accessory items",
          "action": "Inspect"
        },
        {
          "key": "CB22",
          "section": "Chassis and Body",
          "description": "Tyres and inflation pressures",
          "action": "Inspect"
        },
        {
          "key": "CB23",
          "section": "Chassis and Body",
          "description": "Rotate wheels",
          "action": "Inspect"
        },
        {
          "key": "CB24",
          "section": "Chassis and Body",
          "description": "Balance front wheels",
          "action": "Inspect"
        },
        {
          "key": "CB25",
          "section": "Chassis and Body",
          "description": "Lights, horn, wipers and washers",
          "action": "Inspect"
        },
        {
          "key": "CB26",
          "section": "Chassis and Body",
          "description": "Seatbelt, webbing condition, buckle and retractor mechanism operation",
          "action": "Inspect"
        },
        {
          "key": "CB27",
          "section": "Chassis and Body",
          "description": "Air conditioner filter",
          "action": "Activity not performed during this operation"
        },
        {
          "key": "CB28",
          "section": "Chassis and Body",
          "description": "Refrigerant amount of air conditioner",
          "action": "Activity not performed during this operation"
        },
        {
          "key": "RT",
          "section": "Road Test",
          "description": "Road Test Vehicle",
          "action": "Inspect"
        }
      ]
    },
    {
      "isTsaService": true,
      "tsaServiceDetails": {
        "serviceCode": "ADVZRE182R  A  1006",
        "serviceDescription": "20,000KM / 12 MTHS Normal",
        "customerPaymentAmount": -127.27,
        "serviceOperationCode": "0D1B23",
        "estimatedServiceTime": 1.5,
        "serviceDueDate": "2017-04-08",
        "serviceExpiryDate": "2017-07-08"
      },
      "serviceNumber": 2,
      "operation": "0D1B23",
      "kilometres": 20000,
      "months": 12,
      "retailServiceCostIncGst": 273.23,
      "tsaServiceCostIncGst": 140,
      "estimatedServiceTime": 1.5,
      "serviceKeys": [
        {
          "key": "E03",
          "section": "Engine",
          "description": "Drive belts",
          "action": "Inspect"
        },
        {
          "key": "E04",
          "section": "Engine",
          "description": "Engine oil",
          "action": "Replace"
        },
        {
          "key": "E05",
          "section": "Engine",
          "description": "Engine Oil filter",
          "action": "Replace"
        },
        {
          "key": "E06",
          "section": "Engine",
          "description": "Cooling and heater system",
          "action": "Activity not performed during this operation"
        },
        {
          "key": "E07",
          "section": "Engine",
          "description": "Engine coolant (Toyota Genuine Super LLC (Pink))",
          "action": "Activity not performed during this operation"
        },
        {
          "key": "E08",
          "section": "Engine",
          "description": "Exhaust pipes and mountings",
          "action": "Inspect"
        },
        {
          "key": "EL01",
          "section": "Electrical System",
          "description": "Spark Plugs (petrol models)",
          "action": "Activity not performed during this operation"
        },
        {
          "key": "EL02",
          "section": "Electrical System",
          "description": "Battery",
          "action": "Inspect"
        },
        {
          "key": "F01",
          "section": "Fuel System",
          "description": "Fuel Filter (including the in-tank filter)",
          "action": "Activity not performed during this operation"
        },
        {
          "key": "F05",
          "section": "Fuel System",
          "description": "Engine air cleaner filter",
          "action": "Inspect"
        },
        {
          "key": "F08",
          "section": "Fuel System",
          "description": "Fuel tank cap,fuel lines,connections & fuel vapor control valve (petrol models)",
          "action": "Activity not performed during this operation"
        },
        {
          "key": "F09",
          "section": "Fuel System",
          "description": "Charcoal canister (petrol models)",
          "action": "Activity not performed during this operation"
        },
        {
          "key": "CB01",
          "section": "Chassis and Body",
          "description": "Brake pedal and parking brake",
          "action": "Inspect"
        },
        {
          "key": "CB03",
          "section": "Chassis and Body",
          "description": "Brake pads and discs",
          "action": "Inspect"
        },
        {
          "key": "CB04",
          "section": "Chassis and Body",
          "description": "Brake fluid",
          "action": "Inspect"
        },
        {
          "key": "CB06",
          "section": "Chassis and Body",
          "description": "Brake pipes and hoses",
          "action": "Inspect"
        },
        {
          "key": "CB09",
          "section": "Chassis and Body",
          "description": "Steering wheel, linkage and steering gear box",
          "action": "Inspect"
        },
        {
          "key": "CB12",
          "section": "Chassis and Body",
          "description": "Drive shaft boots",
          "action": "Inspect"
        },
        {
          "key": "CB13",
          "section": "Chassis and Body",
          "description": "Suspension ball joint and dust covers",
          "action": "Inspect"
        },
        {
          "key": "CB34",
          "section": "Chassis and Body",
          "description": "Shift lever for manual transmission",
          "action": "Activity not performed during this operation"
        },
        {
          "key": "CB14",
          "section": "Chassis and Body",
          "description": "Automatic transmission fluid",
          "action": "Activity not performed during this operation"
        },
        {
          "key": "CB19",
          "section": "Chassis and Body",
          "description": "Front and rear suspensions (include KDSS)",
          "action": "Activity not performed during this operation"
        },
        {
          "key": "CB20",
          "section": "Chassis and Body",
          "description": "Bolts and nuts on chassis and body",
          "action": "Activity not performed during this operation"
        },
        {
          "key": "CB21",
          "section": "Chassis and Body",
          "description": "Accessory items",
          "action": "Inspect"
        },
        {
          "key": "CB22",
          "section": "Chassis and Body",
          "description": "Tyres and inflation pressures",
          "action": "Inspect"
        },
        {
          "key": "CB23",
          "section": "Chassis and Body",
          "description": "Rotate wheels",
          "action": "Inspect"
        },
        {
          "key": "CB24",
          "section": "Chassis and Body",
          "description": "Balance front wheels",
          "action": "Inspect"
        },
        {
          "key": "CB25",
          "section": "Chassis and Body",
          "description": "Lights, horn, wipers and washers",
          "action": "Inspect"
        },
        {
          "key": "CB26",
          "section": "Chassis and Body",
          "description": "Seatbelt, webbing condition, buckle and retractor mechanism operation",
          "action": "Inspect"
        },
        {
          "key": "CB27",
          "section": "Chassis and Body",
          "description": "Air conditioner filter",
          "action": "Activity not performed during this operation"
        },
        {
          "key": "CB28",
          "section": "Chassis and Body",
          "description": "Refrigerant amount of air conditioner",
          "action": "Inspect"
        },
        {
          "key": "RT",
          "section": "Road Test",
          "description": "Road Test Vehicle",
          "action": "Inspect"
        }
      ]
    },
    {
      "isTsaService": true,
      "tsaServiceDetails": {
        "serviceCode": "ADVZRE182R  A  1006",
        "serviceDescription": "30,000KM / 18 MTHS Normal",
        "customerPaymentAmount": -127.27,
        "serviceOperationCode": "0D1B73",
        "estimatedServiceTime": 1.2,
        "serviceDueDate": "2017-10-08",
        "serviceExpiryDate": "2018-01-08"
      },
      "serviceNumber": 3,
      "operation": "0D1B73",
      "kilometres": 30000,
      "months": 18,
      "retailServiceCostIncGst": 272.62,
      "tsaServiceCostIncGst": 140,
      "estimatedServiceTime": 1.2,
      "serviceKeys": [
        {
          "key": "E03",
          "section": "Engine",
          "description": "Drive belts",
          "action": "Inspect"
        },
        {
          "key": "E04",
          "section": "Engine",
          "description": "Engine oil",
          "action": "Replace"
        },
        {
          "key": "E05",
          "section": "Engine",
          "description": "Engine Oil filter",
          "action": "Replace"
        },
        {
          "key": "E06",
          "section": "Engine",
          "description": "Cooling and heater system",
          "action": "Activity not performed during this operation"
        },
        {
          "key": "E07",
          "section": "Engine",
          "description": "Engine coolant (Toyota Genuine Super LLC (Pink))",
          "action": "Activity not performed during this operation"
        },
        {
          "key": "E08",
          "section": "Engine",
          "description": "Exhaust pipes and mountings",
          "action": "Activity not performed during this operation"
        },
        {
          "key": "EL01",
          "section": "Electrical System",
          "description": "Spark Plugs (petrol models)",
          "action": "Activity not performed during this operation"
        },
        {
          "key": "EL02",
          "section": "Electrical System",
          "description": "Battery",
          "action": "Inspect"
        },
        {
          "key": "F01",
          "section": "Fuel System",
          "description": "Fuel Filter (including the in-tank filter)",
          "action": "Activity not performed during this operation"
        },
        {
          "key": "F05",
          "section": "Fuel System",
          "description": "Engine air cleaner filter",
          "action": "Activity not performed during this operation"
        },
        {
          "key": "F08",
          "section": "Fuel System",
          "description": "Fuel tank cap,fuel lines,connections & fuel vapor control valve (petrol models)",
          "action": "Activity not performed during this operation"
        },
        {
          "key": "F09",
          "section": "Fuel System",
          "description": "Charcoal canister (petrol models)",
          "action": "Activity not performed during this operation"
        },
        {
          "key": "CB01",
          "section": "Chassis and Body",
          "description": "Brake pedal and parking brake",
          "action": "Activity not performed during this operation"
        },
        {
          "key": "CB03",
          "section": "Chassis and Body",
          "description": "Brake pads and discs",
          "action": "Inspect"
        },
        {
          "key": "CB04",
          "section": "Chassis and Body",
          "description": "Brake fluid",
          "action": "Inspect"
        },
        {
          "key": "CB06",
          "section": "Chassis and Body",
          "description": "Brake pipes and hoses",
          "action": "Activity not performed during this operation"
        },
        {
          "key": "CB09",
          "section": "Chassis and Body",
          "description": "Steering wheel, linkage and steering gear box",
          "action": "Activity not performed during this operation"
        },
        {
          "key": "CB12",
          "section": "Chassis and Body",
          "description": "Drive shaft boots",
          "action": "Inspect"
        },
        {
          "key": "CB13",
          "section": "Chassis and Body",
          "description": "Suspension ball joint and dust covers",
          "action": "Activity not performed during this operation"
        },
        {
          "key": "CB34",
          "section": "Chassis and Body",
          "description": "Shift lever for manual transmission",
          "action": "Inspect"
        },
        {
          "key": "CB14",
          "section": "Chassis and Body",
          "description": "Automatic transmission fluid",
          "action": "Activity not performed during this operation"
        },
        {
          "key": "CB19",
          "section": "Chassis and Body",
          "description": "Front and rear suspensions (include KDSS)",
          "action": "Activity not performed during this operation"
        },
        {
          "key": "CB20",
          "section": "Chassis and Body",
          "description": "Bolts and nuts on chassis and body",
          "action": "Activity not performed during this operation"
        },
        {
          "key": "CB21",
          "section": "Chassis and Body",
          "description": "Accessory items",
          "action": "Inspect"
        },
        {
          "key": "CB22",
          "section": "Chassis and Body",
          "description": "Tyres and inflation pressures",
          "action": "Inspect"
        },
        {
          "key": "CB23",
          "section": "Chassis and Body",
          "description": "Rotate wheels",
          "action": "Inspect"
        },
        {
          "key": "CB24",
          "section": "Chassis and Body",
          "description": "Balance front wheels",
          "action": "Inspect"
        },
        {
          "key": "CB25",
          "section": "Chassis and Body",
          "description": "Lights, horn, wipers and washers",
          "action": "Inspect"
        },
        {
          "key": "CB26",
          "section": "Chassis and Body",
          "description": "Seatbelt, webbing condition, buckle and retractor mechanism operation",
          "action": "Inspect"
        },
        {
          "key": "CB27",
          "section": "Chassis and Body",
          "description": "Air conditioner filter",
          "action": "Replace"
        },
        {
          "key": "CB28",
          "section": "Chassis and Body",
          "description": "Refrigerant amount of air conditioner",
          "action": "Activity not performed during this operation"
        },
        {
          "key": "RT",
          "section": "Road Test",
          "description": "Road Test Vehicle",
          "action": "Inspect"
        }
      ]
    },
    {
      "isTsaService": true,
      "tsaServiceDetails": {
        "serviceCode": "ADVZRE182R  A  1006",
        "serviceDescription": "40,000KM / 24 MTHS Normal",
        "customerPaymentAmount": -127.27,
        "serviceOperationCode": "0D1C23",
        "estimatedServiceTime": 1.7,
        "serviceDueDate": "2018-04-08",
        "serviceExpiryDate": "2018-07-08"
      },
      "serviceNumber": 4,
      "operation": "0D1C23",
      "kilometres": 40000,
      "months": 24,
      "retailServiceCostIncGst": 350.86,
      "tsaServiceCostIncGst": 140,
      "estimatedServiceTime": 1.7,
      "serviceKeys": [
        {
          "key": "E03",
          "section": "Engine",
          "description": "Drive belts",
          "action": "Inspect"
        },
        {
          "key": "E04",
          "section": "Engine",
          "description": "Engine oil",
          "action": "Replace"
        },
        {
          "key": "E05",
          "section": "Engine",
          "description": "Engine Oil filter",
          "action": "Replace"
        },
        {
          "key": "E06",
          "section": "Engine",
          "description": "Cooling and heater system",
          "action": "Inspect"
        },
        {
          "key": "E07",
          "section": "Engine",
          "description": "Engine coolant (Toyota Genuine Super LLC (Pink))",
          "action": "Inspect"
        },
        {
          "key": "E08",
          "section": "Engine",
          "description": "Exhaust pipes and mountings",
          "action": "Inspect"
        },
        {
          "key": "EL01",
          "section": "Electrical System",
          "description": "Spark Plugs (petrol models)",
          "action": "Activity not performed during this operation"
        },
        {
          "key": "EL02",
          "section": "Electrical System",
          "description": "Battery",
          "action": "Inspect"
        },
        {
          "key": "F01",
          "section": "Fuel System",
          "description": "Fuel Filter (including the in-tank filter)",
          "action": "Activity not performed during this operation"
        },
        {
          "key": "F05",
          "section": "Fuel System",
          "description": "Engine air cleaner filter",
          "action": "Replace"
        },
        {
          "key": "F08",
          "section": "Fuel System",
          "description": "Fuel tank cap,fuel lines,connections & fuel vapor control valve (petrol models)",
          "action": "Inspect"
        },
        {
          "key": "F09",
          "section": "Fuel System",
          "description": "Charcoal canister (petrol models)",
          "action": "Inspect"
        },
        {
          "key": "CB01",
          "section": "Chassis and Body",
          "description": "Brake pedal and parking brake",
          "action": "Inspect"
        },
        {
          "key": "CB03",
          "section": "Chassis and Body",
          "description": "Brake pads and discs",
          "action": "Inspect"
        },
        {
          "key": "CB04",
          "section": "Chassis and Body",
          "description": "Brake fluid",
          "action": "Replace"
        },
        {
          "key": "CB06",
          "section": "Chassis and Body",
          "description": "Brake pipes and hoses",
          "action": "Inspect"
        },
        {
          "key": "CB09",
          "section": "Chassis and Body",
          "description": "Steering wheel, linkage and steering gear box",
          "action": "Inspect"
        },
        {
          "key": "CB12",
          "section": "Chassis and Body",
          "description": "Drive shaft boots",
          "action": "Inspect"
        },
        {
          "key": "CB13",
          "section": "Chassis and Body",
          "description": "Suspension ball joint and dust covers",
          "action": "Inspect"
        },
        {
          "key": "CB34",
          "section": "Chassis and Body",
          "description": "Shift lever for manual transmission",
          "action": "Activity not performed during this operation"
        },
        {
          "key": "CB14",
          "section": "Chassis and Body",
          "description": "Automatic transmission fluid",
          "action": "Inspect"
        },
        {
          "key": "CB19",
          "section": "Chassis and Body",
          "description": "Front and rear suspensions (include KDSS)",
          "action": "Inspect"
        },
        {
          "key": "CB20",
          "section": "Chassis and Body",
          "description": "Bolts and nuts on chassis and body",
          "action": "Activity not performed during this operation"
        },
        {
          "key": "CB21",
          "section": "Chassis and Body",
          "description": "Accessory items",
          "action": "Inspect"
        },
        {
          "key": "CB22",
          "section": "Chassis and Body",
          "description": "Tyres and inflation pressures",
          "action": "Inspect"
        },
        {
          "key": "CB23",
          "section": "Chassis and Body",
          "description": "Rotate wheels",
          "action": "Inspect"
        },
        {
          "key": "CB24",
          "section": "Chassis and Body",
          "description": "Balance front wheels",
          "action": "Inspect"
        },
        {
          "key": "CB25",
          "section": "Chassis and Body",
          "description": "Lights, horn, wipers and washers",
          "action": "Inspect"
        },
        {
          "key": "CB26",
          "section": "Chassis and Body",
          "description": "Seatbelt, webbing condition, buckle and retractor mechanism operation",
          "action": "Inspect"
        },
        {
          "key": "CB27",
          "section": "Chassis and Body",
          "description": "Air conditioner filter",
          "action": "Activity not performed during this operation"
        },
        {
          "key": "CB28",
          "section": "Chassis and Body",
          "description": "Refrigerant amount of air conditioner",
          "action": "Inspect"
        },
        {
          "key": "RT",
          "section": "Road Test",
          "description": "Road Test Vehicle",
          "action": "Inspect"
        }
      ]
    },
    {
      "isTsaService": true,
      "tsaServiceDetails": {
        "serviceCode": "ADVZRE182R  A  1006",
        "serviceDescription": "50,000KM / 30 MTHS Normal",
        "customerPaymentAmount": -127.27,
        "serviceOperationCode": "0D1C83",
        "estimatedServiceTime": 1.2,
        "serviceDueDate": "2018-10-08",
        "serviceExpiryDate": "2019-01-08"
      },
      "serviceNumber": 5,
      "operation": "0D1C83",
      "kilometres": 50000,
      "months": 30,
      "retailServiceCostIncGst": 233.63,
      "tsaServiceCostIncGst": 140,
      "estimatedServiceTime": 1.2,
      "serviceKeys": [
        {
          "key": "E03",
          "section": "Engine",
          "description": "Drive belts",
          "action": "Inspect"
        },
        {
          "key": "E04",
          "section": "Engine",
          "description": "Engine oil",
          "action": "Replace"
        },
        {
          "key": "E05",
          "section": "Engine",
          "description": "Engine Oil filter",
          "action": "Replace"
        },
        {
          "key": "E06",
          "section": "Engine",
          "description": "Cooling and heater system",
          "action": "Activity not performed during this operation"
        },
        {
          "key": "E07",
          "section": "Engine",
          "description": "Engine coolant (Toyota Genuine Super LLC (Pink))",
          "action": "Activity not performed during this operation"
        },
        {
          "key": "E08",
          "section": "Engine",
          "description": "Exhaust pipes and mountings",
          "action": "Activity not performed during this operation"
        },
        {
          "key": "EL01",
          "section": "Electrical System",
          "description": "Spark Plugs (petrol models)",
          "action": "Activity not performed during this operation"
        },
        {
          "key": "EL02",
          "section": "Electrical System",
          "description": "Battery",
          "action": "Inspect"
        },
        {
          "key": "F01",
          "section": "Fuel System",
          "description": "Fuel Filter (including the in-tank filter)",
          "action": "Activity not performed during this operation"
        },
        {
          "key": "F05",
          "section": "Fuel System",
          "description": "Engine air cleaner filter",
          "action": "Activity not performed during this operation"
        },
        {
          "key": "F08",
          "section": "Fuel System",
          "description": "Fuel tank cap,fuel lines,connections & fuel vapor control valve (petrol models)",
          "action": "Activity not performed during this operation"
        },
        {
          "key": "F09",
          "section": "Fuel System",
          "description": "Charcoal canister (petrol models)",
          "action": "Activity not performed during this operation"
        },
        {
          "key": "CB01",
          "section": "Chassis and Body",
          "description": "Brake pedal and parking brake",
          "action": "Activity not performed during this operation"
        },
        {
          "key": "CB03",
          "section": "Chassis and Body",
          "description": "Brake pads and discs",
          "action": "Inspect"
        },
        {
          "key": "CB04",
          "section": "Chassis and Body",
          "description": "Brake fluid",
          "action": "Inspect"
        },
        {
          "key": "CB06",
          "section": "Chassis and Body",
          "description": "Brake pipes and hoses",
          "action": "Activity not performed during this operation"
        },
        {
          "key": "CB09",
          "section": "Chassis and Body",
          "description": "Steering wheel, linkage and steering gear box",
          "action": "Activity not performed during this operation"
        },
        {
          "key": "CB12",
          "section": "Chassis and Body",
          "description": "Drive shaft boots",
          "action": "Inspect"
        },
        {
          "key": "CB13",
          "section": "Chassis and Body",
          "description": "Suspension ball joint and dust covers",
          "action": "Activity not performed during this operation"
        },
        {
          "key": "CB34",
          "section": "Chassis and Body",
          "description": "Shift lever for manual transmission",
          "action": "Activity not performed during this operation"
        },
        {
          "key": "CB14",
          "section": "Chassis and Body",
          "description": "Automatic transmission fluid",
          "action": "Activity not performed during this operation"
        },
        {
          "key": "CB19",
          "section": "Chassis and Body",
          "description": "Front and rear suspensions (include KDSS)",
          "action": "Activity not performed during this operation"
        },
        {
          "key": "CB20",
          "section": "Chassis and Body",
          "description": "Bolts and nuts on chassis and body",
          "action": "Activity not performed during this operation"
        },
        {
          "key": "CB21",
          "section": "Chassis and Body",
          "description": "Accessory items",
          "action": "Inspect"
        },
        {
          "key": "CB22",
          "section": "Chassis and Body",
          "description": "Tyres and inflation pressures",
          "action": "Inspect"
        },
        {
          "key": "CB23",
          "section": "Chassis and Body",
          "description": "Rotate wheels",
          "action": "Inspect"
        },
        {
          "key": "CB24",
          "section": "Chassis and Body",
          "description": "Balance front wheels",
          "action": "Inspect"
        },
        {
          "key": "CB25",
          "section": "Chassis and Body",
          "description": "Lights, horn, wipers and washers",
          "action": "Inspect"
        },
        {
          "key": "CB26",
          "section": "Chassis and Body",
          "description": "Seatbelt, webbing condition, buckle and retractor mechanism operation",
          "action": "Inspect"
        },
        {
          "key": "CB27",
          "section": "Chassis and Body",
          "description": "Air conditioner filter",
          "action": "Activity not performed during this operation"
        },
        {
          "key": "CB28",
          "section": "Chassis and Body",
          "description": "Refrigerant amount of air conditioner",
          "action": "Activity not performed during this operation"
        },
        {
          "key": "RT",
          "section": "Road Test",
          "description": "Road Test Vehicle",
          "action": "Inspect"
        }
      ]
    },
    {
      "isTsaService": true,
      "tsaServiceDetails": {
        "serviceCode": "ADVZRE182R  A  1006",
        "serviceDescription": "60,000KM / 36 MTHS Normal",
        "customerPaymentAmount": -127.27,
        "serviceOperationCode": "0D1D33",
        "estimatedServiceTime": 1.5,
        "serviceDueDate": "2019-04-08",
        "serviceExpiryDate": "2019-07-08"
      },
      "serviceNumber": 6,
      "operation": "0D1D33",
      "kilometres": 60000,
      "months": 36,
      "retailServiceCostIncGst": 312.22,
      "tsaServiceCostIncGst": 140,
      "estimatedServiceTime": 1.5,
      "serviceKeys": [
        {
          "key": "E03",
          "section": "Engine",
          "description": "Drive belts",
          "action": "Inspect"
        },
        {
          "key": "E04",
          "section": "Engine",
          "description": "Engine oil",
          "action": "Replace"
        },
        {
          "key": "E05",
          "section": "Engine",
          "description": "Engine Oil filter",
          "action": "Replace"
        },
        {
          "key": "E06",
          "section": "Engine",
          "description": "Cooling and heater system",
          "action": "Activity not performed during this operation"
        },
        {
          "key": "E07",
          "section": "Engine",
          "description": "Engine coolant (Toyota Genuine Super LLC (Pink))",
          "action": "Activity not performed during this operation"
        },
        {
          "key": "E08",
          "section": "Engine",
          "description": "Exhaust pipes and mountings",
          "action": "Inspect"
        },
        {
          "key": "EL01",
          "section": "Electrical System",
          "description": "Spark Plugs (petrol models)",
          "action": "Activity not performed during this operation"
        },
        {
          "key": "EL02",
          "section": "Electrical System",
          "description": "Battery",
          "action": "Inspect"
        },
        {
          "key": "F01",
          "section": "Fuel System",
          "description": "Fuel Filter (including the in-tank filter)",
          "action": "Activity not performed during this operation"
        },
        {
          "key": "F05",
          "section": "Fuel System",
          "description": "Engine air cleaner filter",
          "action": "Inspect"
        },
        {
          "key": "F08",
          "section": "Fuel System",
          "description": "Fuel tank cap,fuel lines,connections & fuel vapor control valve (petrol models)",
          "action": "Activity not performed during this operation"
        },
        {
          "key": "F09",
          "section": "Fuel System",
          "description": "Charcoal canister (petrol models)",
          "action": "Activity not performed during this operation"
        },
        {
          "key": "CB01",
          "section": "Chassis and Body",
          "description": "Brake pedal and parking brake",
          "action": "Inspect"
        },
        {
          "key": "CB03",
          "section": "Chassis and Body",
          "description": "Brake pads and discs",
          "action": "Inspect"
        },
        {
          "key": "CB04",
          "section": "Chassis and Body",
          "description": "Brake fluid",
          "action": "Inspect"
        },
        {
          "key": "CB06",
          "section": "Chassis and Body",
          "description": "Brake pipes and hoses",
          "action": "Inspect"
        },
        {
          "key": "CB09",
          "section": "Chassis and Body",
          "description": "Steering wheel, linkage and steering gear box",
          "action": "Inspect"
        },
        {
          "key": "CB12",
          "section": "Chassis and Body",
          "description": "Drive shaft boots",
          "action": "Inspect"
        },
        {
          "key": "CB13",
          "section": "Chassis and Body",
          "description": "Suspension ball joint and dust covers",
          "action": "Inspect"
        },
        {
          "key": "CB34",
          "section": "Chassis and Body",
          "description": "Shift lever for manual transmission",
          "action": "Inspect"
        },
        {
          "key": "CB14",
          "section": "Chassis and Body",
          "description": "Automatic transmission fluid",
          "action": "Activity not performed during this operation"
        },
        {
          "key": "CB19",
          "section": "Chassis and Body",
          "description": "Front and rear suspensions (include KDSS)",
          "action": "Activity not performed during this operation"
        },
        {
          "key": "CB20",
          "section": "Chassis and Body",
          "description": "Bolts and nuts on chassis and body",
          "action": "Activity not performed during this operation"
        },
        {
          "key": "CB21",
          "section": "Chassis and Body",
          "description": "Accessory items",
          "action": "Inspect"
        },
        {
          "key": "CB22",
          "section": "Chassis and Body",
          "description": "Tyres and inflation pressures",
          "action": "Inspect"
        },
        {
          "key": "CB23",
          "section": "Chassis and Body",
          "description": "Rotate wheels",
          "action": "Inspect"
        },
        {
          "key": "CB24",
          "section": "Chassis and Body",
          "description": "Balance front wheels",
          "action": "Inspect"
        },
        {
          "key": "CB25",
          "section": "Chassis and Body",
          "description": "Lights, horn, wipers and washers",
          "action": "Inspect"
        },
        {
          "key": "CB26",
          "section": "Chassis and Body",
          "description": "Seatbelt, webbing condition, buckle and retractor mechanism operation",
          "action": "Inspect"
        },
        {
          "key": "CB27",
          "section": "Chassis and Body",
          "description": "Air conditioner filter",
          "action": "Replace"
        },
        {
          "key": "CB28",
          "section": "Chassis and Body",
          "description": "Refrigerant amount of air conditioner",
          "action": "Inspect"
        },
        {
          "key": "RT",
          "section": "Road Test",
          "description": "Road Test Vehicle",
          "action": "Inspect"
        }
      ]
    },
    {
      "isTsaService": false,
      "tsaServiceDetails": null,
      "serviceNumber": 7,
      "operation": "0D1D83",
      "kilometres": 70000,
      "months": 42,
      "retailServiceCostIncGst": 233.63,
      "tsaServiceCostIncGst": 0,
      "estimatedServiceTime": 1.2,
      "serviceKeys": [
        {
          "key": "E03",
          "section": "Engine",
          "description": "Drive belts",
          "action": "Inspect"
        },
        {
          "key": "E04",
          "section": "Engine",
          "description": "Engine oil",
          "action": "Replace"
        },
        {
          "key": "E05",
          "section": "Engine",
          "description": "Engine Oil filter",
          "action": "Replace"
        },
        {
          "key": "E06",
          "section": "Engine",
          "description": "Cooling and heater system",
          "action": "Activity not performed during this operation"
        },
        {
          "key": "E07",
          "section": "Engine",
          "description": "Engine coolant (Toyota Genuine Super LLC (Pink))",
          "action": "Activity not performed during this operation"
        },
        {
          "key": "E08",
          "section": "Engine",
          "description": "Exhaust pipes and mountings",
          "action": "Activity not performed during this operation"
        },
        {
          "key": "EL01",
          "section": "Electrical System",
          "description": "Spark Plugs (petrol models)",
          "action": "Activity not performed during this operation"
        },
        {
          "key": "EL02",
          "section": "Electrical System",
          "description": "Battery",
          "action": "Inspect"
        },
        {
          "key": "F01",
          "section": "Fuel System",
          "description": "Fuel Filter (including the in-tank filter)",
          "action": "Activity not performed during this operation"
        },
        {
          "key": "F05",
          "section": "Fuel System",
          "description": "Engine air cleaner filter",
          "action": "Activity not performed during this operation"
        },
        {
          "key": "F08",
          "section": "Fuel System",
          "description": "Fuel tank cap,fuel lines,connections & fuel vapor control valve (petrol models)",
          "action": "Activity not performed during this operation"
        },
        {
          "key": "F09",
          "section": "Fuel System",
          "description": "Charcoal canister (petrol models)",
          "action": "Activity not performed during this operation"
        },
        {
          "key": "CB01",
          "section": "Chassis and Body",
          "description": "Brake pedal and parking brake",
          "action": "Activity not performed during this operation"
        },
        {
          "key": "CB03",
          "section": "Chassis and Body",
          "description": "Brake pads and discs",
          "action": "Inspect"
        },
        {
          "key": "CB04",
          "section": "Chassis and Body",
          "description": "Brake fluid",
          "action": "Inspect"
        },
        {
          "key": "CB06",
          "section": "Chassis and Body",
          "description": "Brake pipes and hoses",
          "action": "Activity not performed during this operation"
        },
        {
          "key": "CB09",
          "section": "Chassis and Body",
          "description": "Steering wheel, linkage and steering gear box",
          "action": "Activity not performed during this operation"
        },
        {
          "key": "CB12",
          "section": "Chassis and Body",
          "description": "Drive shaft boots",
          "action": "Inspect"
        },
        {
          "key": "CB13",
          "section": "Chassis and Body",
          "description": "Suspension ball joint and dust covers",
          "action": "Activity not performed during this operation"
        },
        {
          "key": "CB34",
          "section": "Chassis and Body",
          "description": "Shift lever for manual transmission",
          "action": "Activity not performed during this operation"
        },
        {
          "key": "CB14",
          "section": "Chassis and Body",
          "description": "Automatic transmission fluid",
          "action": "Activity not performed during this operation"
        },
        {
          "key": "CB19",
          "section": "Chassis and Body",
          "description": "Front and rear suspensions (include KDSS)",
          "action": "Activity not performed during this operation"
        },
        {
          "key": "CB20",
          "section": "Chassis and Body",
          "description": "Bolts and nuts on chassis and body",
          "action": "Activity not performed during this operation"
        },
        {
          "key": "CB21",
          "section": "Chassis and Body",
          "description": "Accessory items",
          "action": "Inspect"
        },
        {
          "key": "CB22",
          "section": "Chassis and Body",
          "description": "Tyres and inflation pressures",
          "action": "Inspect"
        },
        {
          "key": "CB23",
          "section": "Chassis and Body",
          "description": "Rotate wheels",
          "action": "Inspect"
        },
        {
          "key": "CB24",
          "section": "Chassis and Body",
          "description": "Balance front wheels",
          "action": "Inspect"
        },
        {
          "key": "CB25",
          "section": "Chassis and Body",
          "description": "Lights, horn, wipers and washers",
          "action": "Inspect"
        },
        {
          "key": "CB26",
          "section": "Chassis and Body",
          "description": "Seatbelt, webbing condition, buckle and retractor mechanism operation",
          "action": "Inspect"
        },
        {
          "key": "CB27",
          "section": "Chassis and Body",
          "description": "Air conditioner filter",
          "action": "Activity not performed during this operation"
        },
        {
          "key": "CB28",
          "section": "Chassis and Body",
          "description": "Refrigerant amount of air conditioner",
          "action": "Activity not performed during this operation"
        },
        {
          "key": "RT",
          "section": "Road Test",
          "description": "Road Test Vehicle",
          "action": "Inspect"
        }
      ]
    },
    {
      "isTsaService": false,
      "tsaServiceDetails": null,
      "serviceNumber": 8,
      "operation": "0D1E43",
      "kilometres": 80000,
      "months": 48,
      "retailServiceCostIncGst": 311.26,
      "tsaServiceCostIncGst": 0,
      "estimatedServiceTime": 1.4,
      "serviceKeys": [
        {
          "key": "E03",
          "section": "Engine",
          "description": "Drive belts",
          "action": "Inspect"
        },
        {
          "key": "E04",
          "section": "Engine",
          "description": "Engine oil",
          "action": "Replace"
        },
        {
          "key": "E05",
          "section": "Engine",
          "description": "Engine Oil filter",
          "action": "Replace"
        },
        {
          "key": "E06",
          "section": "Engine",
          "description": "Cooling and heater system",
          "action": "Inspect"
        },
        {
          "key": "E07",
          "section": "Engine",
          "description": "Engine coolant (Toyota Genuine Super LLC (Pink))",
          "action": "Inspect"
        },
        {
          "key": "E08",
          "section": "Engine",
          "description": "Exhaust pipes and mountings",
          "action": "Inspect"
        },
        {
          "key": "EL01",
          "section": "Electrical System",
          "description": "Spark Plugs (petrol models)",
          "action": "Activity not performed during this operation"
        },
        {
          "key": "EL02",
          "section": "Electrical System",
          "description": "Battery",
          "action": "Inspect"
        },
        {
          "key": "F01",
          "section": "Fuel System",
          "description": "Fuel Filter (including the in-tank filter)",
          "action": "Activity not performed during this operation"
        },
        {
          "key": "F05",
          "section": "Fuel System",
          "description": "Engine air cleaner filter",
          "action": "Replace"
        },
        {
          "key": "F08",
          "section": "Fuel System",
          "description": "Fuel tank cap,fuel lines,connections & fuel vapor control valve (petrol models)",
          "action": "Inspect"
        },
        {
          "key": "F09",
          "section": "Fuel System",
          "description": "Charcoal canister (petrol models)",
          "action": "Inspect"
        },
        {
          "key": "CB01",
          "section": "Chassis and Body",
          "description": "Brake pedal and parking brake",
          "action": "Inspect"
        },
        {
          "key": "CB03",
          "section": "Chassis and Body",
          "description": "Brake pads and discs",
          "action": "Inspect"
        },
        {
          "key": "CB04",
          "section": "Chassis and Body",
          "description": "Brake fluid",
          "action": "Replace"
        },
        {
          "key": "CB06",
          "section": "Chassis and Body",
          "description": "Brake pipes and hoses",
          "action": "Inspect"
        },
        {
          "key": "CB09",
          "section": "Chassis and Body",
          "description": "Steering wheel, linkage and steering gear box",
          "action": "Inspect"
        },
        {
          "key": "CB12",
          "section": "Chassis and Body",
          "description": "Drive shaft boots",
          "action": "Inspect"
        },
        {
          "key": "CB13",
          "section": "Chassis and Body",
          "description": "Suspension ball joint and dust covers",
          "action": "Inspect"
        },
        {
          "key": "CB34",
          "section": "Chassis and Body",
          "description": "Shift lever for manual transmission",
          "action": "Activity not performed during this operation"
        },
        {
          "key": "CB14",
          "section": "Chassis and Body",
          "description": "Automatic transmission fluid",
          "action": "Inspect"
        },
        {
          "key": "CB19",
          "section": "Chassis and Body",
          "description": "Front and rear suspensions (include KDSS)",
          "action": "Inspect"
        },
        {
          "key": "CB20",
          "section": "Chassis and Body",
          "description": "Bolts and nuts on chassis and body",
          "action": "Activity not performed during this operation"
        },
        {
          "key": "CB21",
          "section": "Chassis and Body",
          "description": "Accessory items",
          "action": "Inspect"
        },
        {
          "key": "CB22",
          "section": "Chassis and Body",
          "description": "Tyres and inflation pressures",
          "action": "Inspect"
        },
        {
          "key": "CB23",
          "section": "Chassis and Body",
          "description": "Rotate wheels",
          "action": "Inspect"
        },
        {
          "key": "CB24",
          "section": "Chassis and Body",
          "description": "Balance front wheels",
          "action": "Inspect"
        },
        {
          "key": "CB25",
          "section": "Chassis and Body",
          "description": "Lights, horn, wipers and washers",
          "action": "Inspect"
        },
        {
          "key": "CB26",
          "section": "Chassis and Body",
          "description": "Seatbelt, webbing condition, buckle and retractor mechanism operation",
          "action": "Inspect"
        },
        {
          "key": "CB27",
          "section": "Chassis and Body",
          "description": "Air conditioner filter",
          "action": "Activity not performed during this operation"
        },
        {
          "key": "CB28",
          "section": "Chassis and Body",
          "description": "Refrigerant amount of air conditioner",
          "action": "Inspect"
        },
        {
          "key": "RT",
          "section": "Road Test",
          "description": "Road Test Vehicle",
          "action": "Inspect"
        }
      ]
    },
    {
      "isTsaService": false,
      "tsaServiceDetails": null,
      "serviceNumber": 9,
      "operation": "0D1E93",
      "kilometres": 90000,
      "months": 54,
      "retailServiceCostIncGst": 272.62,
      "tsaServiceCostIncGst": 0,
      "estimatedServiceTime": 1.2,
      "serviceKeys": [
        {
          "key": "E03",
          "section": "Engine",
          "description": "Drive belts",
          "action": "Inspect"
        },
        {
          "key": "E04",
          "section": "Engine",
          "description": "Engine oil",
          "action": "Replace"
        },
        {
          "key": "E05",
          "section": "Engine",
          "description": "Engine Oil filter",
          "action": "Replace"
        },
        {
          "key": "E06",
          "section": "Engine",
          "description": "Cooling and heater system",
          "action": "Activity not performed during this operation"
        },
        {
          "key": "E07",
          "section": "Engine",
          "description": "Engine coolant (Toyota Genuine Super LLC (Pink))",
          "action": "Activity not performed during this operation"
        },
        {
          "key": "E08",
          "section": "Engine",
          "description": "Exhaust pipes and mountings",
          "action": "Activity not performed during this operation"
        },
        {
          "key": "EL01",
          "section": "Electrical System",
          "description": "Spark Plugs (petrol models)",
          "action": "Activity not performed during this operation"
        },
        {
          "key": "EL02",
          "section": "Electrical System",
          "description": "Battery",
          "action": "Inspect"
        },
        {
          "key": "F01",
          "section": "Fuel System",
          "description": "Fuel Filter (including the in-tank filter)",
          "action": "Activity not performed during this operation"
        },
        {
          "key": "F05",
          "section": "Fuel System",
          "description": "Engine air cleaner filter",
          "action": "Activity not performed during this operation"
        },
        {
          "key": "F08",
          "section": "Fuel System",
          "description": "Fuel tank cap,fuel lines,connections & fuel vapor control valve (petrol models)",
          "action": "Activity not performed during this operation"
        },
        {
          "key": "F09",
          "section": "Fuel System",
          "description": "Charcoal canister (petrol models)",
          "action": "Activity not performed during this operation"
        },
        {
          "key": "CB01",
          "section": "Chassis and Body",
          "description": "Brake pedal and parking brake",
          "action": "Activity not performed during this operation"
        },
        {
          "key": "CB03",
          "section": "Chassis and Body",
          "description": "Brake pads and discs",
          "action": "Inspect"
        },
        {
          "key": "CB04",
          "section": "Chassis and Body",
          "description": "Brake fluid",
          "action": "Inspect"
        },
        {
          "key": "CB06",
          "section": "Chassis and Body",
          "description": "Brake pipes and hoses",
          "action": "Activity not performed during this operation"
        },
        {
          "key": "CB09",
          "section": "Chassis and Body",
          "description": "Steering wheel, linkage and steering gear box",
          "action": "Activity not performed during this operation"
        },
        {
          "key": "CB12",
          "section": "Chassis and Body",
          "description": "Drive shaft boots",
          "action": "Inspect"
        },
        {
          "key": "CB13",
          "section": "Chassis and Body",
          "description": "Suspension ball joint and dust covers",
          "action": "Activity not performed during this operation"
        },
        {
          "key": "CB34",
          "section": "Chassis and Body",
          "description": "Shift lever for manual transmission",
          "action": "Inspect"
        },
        {
          "key": "CB14",
          "section": "Chassis and Body",
          "description": "Automatic transmission fluid",
          "action": "Activity not performed during this operation"
        },
        {
          "key": "CB19",
          "section": "Chassis and Body",
          "description": "Front and rear suspensions (include KDSS)",
          "action": "Activity not performed during this operation"
        },
        {
          "key": "CB20",
          "section": "Chassis and Body",
          "description": "Bolts and nuts on chassis and body",
          "action": "Activity not performed during this operation"
        },
        {
          "key": "CB21",
          "section": "Chassis and Body",
          "description": "Accessory items",
          "action": "Inspect"
        },
        {
          "key": "CB22",
          "section": "Chassis and Body",
          "description": "Tyres and inflation pressures",
          "action": "Inspect"
        },
        {
          "key": "CB23",
          "section": "Chassis and Body",
          "description": "Rotate wheels",
          "action": "Inspect"
        },
        {
          "key": "CB24",
          "section": "Chassis and Body",
          "description": "Balance front wheels",
          "action": "Inspect"
        },
        {
          "key": "CB25",
          "section": "Chassis and Body",
          "description": "Lights, horn, wipers and washers",
          "action": "Inspect"
        },
        {
          "key": "CB26",
          "section": "Chassis and Body",
          "description": "Seatbelt, webbing condition, buckle and retractor mechanism operation",
          "action": "Inspect"
        },
        {
          "key": "CB27",
          "section": "Chassis and Body",
          "description": "Air conditioner filter",
          "action": "Replace"
        },
        {
          "key": "CB28",
          "section": "Chassis and Body",
          "description": "Refrigerant amount of air conditioner",
          "action": "Activity not performed during this operation"
        },
        {
          "key": "RT",
          "section": "Road Test",
          "description": "Road Test Vehicle",
          "action": "Inspect"
        }
      ]
    },
    {
      "isTsaService": false,
      "tsaServiceDetails": null,
      "serviceNumber": 10,
      "operation": "0D1F43",
      "kilometres": 100000,
      "months": 60,
      "retailServiceCostIncGst": 367.13,
      "tsaServiceCostIncGst": 0,
      "estimatedServiceTime": 1.6,
      "serviceKeys": [
        {
          "key": "E03",
          "section": "Engine",
          "description": "Drive belts",
          "action": "Inspect"
        },
        {
          "key": "E04",
          "section": "Engine",
          "description": "Engine oil",
          "action": "Replace"
        },
        {
          "key": "E05",
          "section": "Engine",
          "description": "Engine Oil filter",
          "action": "Replace"
        },
        {
          "key": "E06",
          "section": "Engine",
          "description": "Cooling and heater system",
          "action": "Inspect"
        },
        {
          "key": "E07",
          "section": "Engine",
          "description": "Engine coolant (Toyota Genuine Super LLC (Pink))",
          "action": "Activity not performed during this operation"
        },
        {
          "key": "E08",
          "section": "Engine",
          "description": "Exhaust pipes and mountings",
          "action": "Inspect"
        },
        {
          "key": "EL01",
          "section": "Electrical System",
          "description": "Spark Plugs (petrol models)",
          "action": "Replace"
        },
        {
          "key": "EL02",
          "section": "Electrical System",
          "description": "Battery",
          "action": "Inspect"
        },
        {
          "key": "F01",
          "section": "Fuel System",
          "description": "Fuel Filter (including the in-tank filter)",
          "action": "Activity not performed during this operation"
        },
        {
          "key": "F05",
          "section": "Fuel System",
          "description": "Engine air cleaner filter",
          "action": "Inspect"
        },
        {
          "key": "F08",
          "section": "Fuel System",
          "description": "Fuel tank cap,fuel lines,connections & fuel vapor control valve (petrol models)",
          "action": "Inspect"
        },
        {
          "key": "F09",
          "section": "Fuel System",
          "description": "Charcoal canister (petrol models)",
          "action": "Activity not performed during this operation"
        },
        {
          "key": "CB01",
          "section": "Chassis and Body",
          "description": "Brake pedal and parking brake",
          "action": "Inspect"
        },
        {
          "key": "CB03",
          "section": "Chassis and Body",
          "description": "Brake pads and discs",
          "action": "Inspect"
        },
        {
          "key": "CB04",
          "section": "Chassis and Body",
          "description": "Brake fluid",
          "action": "Inspect"
        },
        {
          "key": "CB06",
          "section": "Chassis and Body",
          "description": "Brake pipes and hoses",
          "action": "Inspect"
        },
        {
          "key": "CB09",
          "section": "Chassis and Body",
          "description": "Steering wheel, linkage and steering gear box",
          "action": "Inspect"
        },
        {
          "key": "CB12",
          "section": "Chassis and Body",
          "description": "Drive shaft boots",
          "action": "Inspect"
        },
        {
          "key": "CB13",
          "section": "Chassis and Body",
          "description": "Suspension ball joint and dust covers",
          "action": "Inspect"
        },
        {
          "key": "CB34",
          "section": "Chassis and Body",
          "description": "Shift lever for manual transmission",
          "action": "Activity not performed during this operation"
        },
        {
          "key": "CB14",
          "section": "Chassis and Body",
          "description": "Automatic transmission fluid",
          "action": "Activity not performed during this operation"
        },
        {
          "key": "CB19",
          "section": "Chassis and Body",
          "description": "Front and rear suspensions (include KDSS)",
          "action": "Activity not performed during this operation"
        },
        {
          "key": "CB20",
          "section": "Chassis and Body",
          "description": "Bolts and nuts on chassis and body",
          "action": "Tighten"
        },
        {
          "key": "CB21",
          "section": "Chassis and Body",
          "description": "Accessory items",
          "action": "Inspect"
        },
        {
          "key": "CB22",
          "section": "Chassis and Body",
          "description": "Tyres and inflation pressures",
          "action": "Inspect"
        },
        {
          "key": "CB23",
          "section": "Chassis and Body",
          "description": "Rotate wheels",
          "action": "Inspect"
        },
        {
          "key": "CB24",
          "section": "Chassis and Body",
          "description": "Balance front wheels",
          "action": "Inspect"
        },
        {
          "key": "CB25",
          "section": "Chassis and Body",
          "description": "Lights, horn, wipers and washers",
          "action": "Inspect"
        },
        {
          "key": "CB26",
          "section": "Chassis and Body",
          "description": "Seatbelt, webbing condition, buckle and retractor mechanism operation",
          "action": "Inspect"
        },
        {
          "key": "CB27",
          "section": "Chassis and Body",
          "description": "Air conditioner filter",
          "action": "Activity not performed during this operation"
        },
        {
          "key": "CB28",
          "section": "Chassis and Body",
          "description": "Refrigerant amount of air conditioner",
          "action": "Inspect"
        },
        {
          "key": "RT",
          "section": "Road Test",
          "description": "Road Test Vehicle",
          "action": "Inspect"
        }
      ]
    },
    {
      "isTsaService": false,
      "tsaServiceDetails": null,
      "serviceNumber": 11,
      "operation": "0D1G03",
      "kilometres": 110000,
      "months": 66,
      "retailServiceCostIncGst": 233.63,
      "tsaServiceCostIncGst": 0,
      "estimatedServiceTime": 1.2,
      "serviceKeys": [
        {
          "key": "E03",
          "section": "Engine",
          "description": "Drive belts",
          "action": "Inspect"
        },
        {
          "key": "E04",
          "section": "Engine",
          "description": "Engine oil",
          "action": "Replace"
        },
        {
          "key": "E05",
          "section": "Engine",
          "description": "Engine Oil filter",
          "action": "Replace"
        },
        {
          "key": "E06",
          "section": "Engine",
          "description": "Cooling and heater system",
          "action": "Activity not performed during this operation"
        },
        {
          "key": "E07",
          "section": "Engine",
          "description": "Engine coolant (Toyota Genuine Super LLC (Pink))",
          "action": "Activity not performed during this operation"
        },
        {
          "key": "E08",
          "section": "Engine",
          "description": "Exhaust pipes and mountings",
          "action": "Activity not performed during this operation"
        },
        {
          "key": "EL01",
          "section": "Electrical System",
          "description": "Spark Plugs (petrol models)",
          "action": "Activity not performed during this operation"
        },
        {
          "key": "EL02",
          "section": "Electrical System",
          "description": "Battery",
          "action": "Inspect"
        },
        {
          "key": "F01",
          "section": "Fuel System",
          "description": "Fuel Filter (including the in-tank filter)",
          "action": "Activity not performed during this operation"
        },
        {
          "key": "F05",
          "section": "Fuel System",
          "description": "Engine air cleaner filter",
          "action": "Activity not performed during this operation"
        },
        {
          "key": "F08",
          "section": "Fuel System",
          "description": "Fuel tank cap,fuel lines,connections & fuel vapor control valve (petrol models)",
          "action": "Activity not performed during this operation"
        },
        {
          "key": "F09",
          "section": "Fuel System",
          "description": "Charcoal canister (petrol models)",
          "action": "Activity not performed during this operation"
        },
        {
          "key": "CB01",
          "section": "Chassis and Body",
          "description": "Brake pedal and parking brake",
          "action": "Activity not performed during this operation"
        },
        {
          "key": "CB03",
          "section": "Chassis and Body",
          "description": "Brake pads and discs",
          "action": "Inspect"
        },
        {
          "key": "CB04",
          "section": "Chassis and Body",
          "description": "Brake fluid",
          "action": "Inspect"
        },
        {
          "key": "CB06",
          "section": "Chassis and Body",
          "description": "Brake pipes and hoses",
          "action": "Activity not performed during this operation"
        },
        {
          "key": "CB09",
          "section": "Chassis and Body",
          "description": "Steering wheel, linkage and steering gear box",
          "action": "Activity not performed during this operation"
        },
        {
          "key": "CB12",
          "section": "Chassis and Body",
          "description": "Drive shaft boots",
          "action": "Inspect"
        },
        {
          "key": "CB13",
          "section": "Chassis and Body",
          "description": "Suspension ball joint and dust covers",
          "action": "Activity not performed during this operation"
        },
        {
          "key": "CB34",
          "section": "Chassis and Body",
          "description": "Shift lever for manual transmission",
          "action": "Activity not performed during this operation"
        },
        {
          "key": "CB14",
          "section": "Chassis and Body",
          "description": "Automatic transmission fluid",
          "action": "Activity not performed during this operation"
        },
        {
          "key": "CB19",
          "section": "Chassis and Body",
          "description": "Front and rear suspensions (include KDSS)",
          "action": "Activity not performed during this operation"
        },
        {
          "key": "CB20",
          "section": "Chassis and Body",
          "description": "Bolts and nuts on chassis and body",
          "action": "Activity not performed during this operation"
        },
        {
          "key": "CB21",
          "section": "Chassis and Body",
          "description": "Accessory items",
          "action": "Inspect"
        },
        {
          "key": "CB22",
          "section": "Chassis and Body",
          "description": "Tyres and inflation pressures",
          "action": "Inspect"
        },
        {
          "key": "CB23",
          "section": "Chassis and Body",
          "description": "Rotate wheels",
          "action": "Inspect"
        },
        {
          "key": "CB24",
          "section": "Chassis and Body",
          "description": "Balance front wheels",
          "action": "Inspect"
        },
        {
          "key": "CB25",
          "section": "Chassis and Body",
          "description": "Lights, horn, wipers and washers",
          "action": "Inspect"
        },
        {
          "key": "CB26",
          "section": "Chassis and Body",
          "description": "Seatbelt, webbing condition, buckle and retractor mechanism operation",
          "action": "Inspect"
        },
        {
          "key": "CB27",
          "section": "Chassis and Body",
          "description": "Air conditioner filter",
          "action": "Activity not performed during this operation"
        },
        {
          "key": "CB28",
          "section": "Chassis and Body",
          "description": "Refrigerant amount of air conditioner",
          "action": "Activity not performed during this operation"
        },
        {
          "key": "RT",
          "section": "Road Test",
          "description": "Road Test Vehicle",
          "action": "Inspect"
        }
      ]
    },
    {
      "isTsaService": false,
      "tsaServiceDetails": null,
      "serviceNumber": 12,
      "operation": "0D1G53",
      "kilometres": 120000,
      "months": 72,
      "retailServiceCostIncGst": 745.47,
      "tsaServiceCostIncGst": 0,
      "estimatedServiceTime": 2.4,
      "serviceKeys": [
        {
          "key": "E03",
          "section": "Engine",
          "description": "Drive belts",
          "action": "Inspect"
        },
        {
          "key": "E04",
          "section": "Engine",
          "description": "Engine oil",
          "action": "Replace"
        },
        {
          "key": "E05",
          "section": "Engine",
          "description": "Engine Oil filter",
          "action": "Replace"
        },
        {
          "key": "E06",
          "section": "Engine",
          "description": "Cooling and heater system",
          "action": "Inspect"
        },
        {
          "key": "E07",
          "section": "Engine",
          "description": "Engine coolant (Toyota Genuine Super LLC (Pink))",
          "action": "Inspect"
        },
        {
          "key": "E08",
          "section": "Engine",
          "description": "Exhaust pipes and mountings",
          "action": "Inspect"
        },
        {
          "key": "EL01",
          "section": "Electrical System",
          "description": "Spark Plugs (petrol models)",
          "action": "Activity not performed during this operation"
        },
        {
          "key": "EL02",
          "section": "Electrical System",
          "description": "Battery",
          "action": "Inspect"
        },
        {
          "key": "F01",
          "section": "Fuel System",
          "description": "Fuel Filter (including the in-tank filter)",
          "action": "Replace"
        },
        {
          "key": "F05",
          "section": "Fuel System",
          "description": "Engine air cleaner filter",
          "action": "Replace"
        },
        {
          "key": "F08",
          "section": "Fuel System",
          "description": "Fuel tank cap,fuel lines,connections & fuel vapor control valve (petrol models)",
          "action": "Inspect"
        },
        {
          "key": "F09",
          "section": "Fuel System",
          "description": "Charcoal canister (petrol models)",
          "action": "Inspect"
        },
        {
          "key": "CB01",
          "section": "Chassis and Body",
          "description": "Brake pedal and parking brake",
          "action": "Inspect"
        },
        {
          "key": "CB03",
          "section": "Chassis and Body",
          "description": "Brake pads and discs",
          "action": "Inspect"
        },
        {
          "key": "CB04",
          "section": "Chassis and Body",
          "description": "Brake fluid",
          "action": "Replace"
        },
        {
          "key": "CB06",
          "section": "Chassis and Body",
          "description": "Brake pipes and hoses",
          "action": "Inspect"
        },
        {
          "key": "CB09",
          "section": "Chassis and Body",
          "description": "Steering wheel, linkage and steering gear box",
          "action": "Inspect"
        },
        {
          "key": "CB12",
          "section": "Chassis and Body",
          "description": "Drive shaft boots",
          "action": "Inspect"
        },
        {
          "key": "CB13",
          "section": "Chassis and Body",
          "description": "Suspension ball joint and dust covers",
          "action": "Inspect"
        },
        {
          "key": "CB34",
          "section": "Chassis and Body",
          "description": "Shift lever for manual transmission",
          "action": "Inspect"
        },
        {
          "key": "CB14",
          "section": "Chassis and Body",
          "description": "Automatic transmission fluid",
          "action": "Inspect"
        },
        {
          "key": "CB19",
          "section": "Chassis and Body",
          "description": "Front and rear suspensions (include KDSS)",
          "action": "Inspect"
        },
        {
          "key": "CB20",
          "section": "Chassis and Body",
          "description": "Bolts and nuts on chassis and body",
          "action": "Activity not performed during this operation"
        },
        {
          "key": "CB21",
          "section": "Chassis and Body",
          "description": "Accessory items",
          "action": "Inspect"
        },
        {
          "key": "CB22",
          "section": "Chassis and Body",
          "description": "Tyres and inflation pressures",
          "action": "Inspect"
        },
        {
          "key": "CB23",
          "section": "Chassis and Body",
          "description": "Rotate wheels",
          "action": "Inspect"
        },
        {
          "key": "CB24",
          "section": "Chassis and Body",
          "description": "Balance front wheels",
          "action": "Inspect"
        },
        {
          "key": "CB25",
          "section": "Chassis and Body",
          "description": "Lights, horn, wipers and washers",
          "action": "Inspect"
        },
        {
          "key": "CB26",
          "section": "Chassis and Body",
          "description": "Seatbelt, webbing condition, buckle and retractor mechanism operation",
          "action": "Inspect"
        },
        {
          "key": "CB27",
          "section": "Chassis and Body",
          "description": "Air conditioner filter",
          "action": "Replace"
        },
        {
          "key": "CB28",
          "section": "Chassis and Body",
          "description": "Refrigerant amount of air conditioner",
          "action": "Inspect"
        },
        {
          "key": "RT",
          "section": "Road Test",
          "description": "Road Test Vehicle",
          "action": "Inspect"
        }
      ]
    },
    {
      "isTsaService": false,
      "tsaServiceDetails": null,
      "serviceNumber": 13,
      "operation": "0D1H03",
      "kilometres": 130000,
      "months": 78,
      "retailServiceCostIncGst": 233.63,
      "tsaServiceCostIncGst": 0,
      "estimatedServiceTime": 1.2,
      "serviceKeys": [
        {
          "key": "E03",
          "section": "Engine",
          "description": "Drive belts",
          "action": "Inspect"
        },
        {
          "key": "E04",
          "section": "Engine",
          "description": "Engine oil",
          "action": "Replace"
        },
        {
          "key": "E05",
          "section": "Engine",
          "description": "Engine Oil filter",
          "action": "Replace"
        },
        {
          "key": "E06",
          "section": "Engine",
          "description": "Cooling and heater system",
          "action": "Activity not performed during this operation"
        },
        {
          "key": "E07",
          "section": "Engine",
          "description": "Engine coolant (Toyota Genuine Super LLC (Pink))",
          "action": "Activity not performed during this operation"
        },
        {
          "key": "E08",
          "section": "Engine",
          "description": "Exhaust pipes and mountings",
          "action": "Activity not performed during this operation"
        },
        {
          "key": "EL01",
          "section": "Electrical System",
          "description": "Spark Plugs (petrol models)",
          "action": "Activity not performed during this operation"
        },
        {
          "key": "EL02",
          "section": "Electrical System",
          "description": "Battery",
          "action": "Inspect"
        },
        {
          "key": "F01",
          "section": "Fuel System",
          "description": "Fuel Filter (including the in-tank filter)",
          "action": "Activity not performed during this operation"
        },
        {
          "key": "F05",
          "section": "Fuel System",
          "description": "Engine air cleaner filter",
          "action": "Activity not performed during this operation"
        },
        {
          "key": "F08",
          "section": "Fuel System",
          "description": "Fuel tank cap,fuel lines,connections & fuel vapor control valve (petrol models)",
          "action": "Activity not performed during this operation"
        },
        {
          "key": "F09",
          "section": "Fuel System",
          "description": "Charcoal canister (petrol models)",
          "action": "Activity not performed during this operation"
        },
        {
          "key": "CB01",
          "section": "Chassis and Body",
          "description": "Brake pedal and parking brake",
          "action": "Activity not performed during this operation"
        },
        {
          "key": "CB03",
          "section": "Chassis and Body",
          "description": "Brake pads and discs",
          "action": "Inspect"
        },
        {
          "key": "CB04",
          "section": "Chassis and Body",
          "description": "Brake fluid",
          "action": "Inspect"
        },
        {
          "key": "CB06",
          "section": "Chassis and Body",
          "description": "Brake pipes and hoses",
          "action": "Activity not performed during this operation"
        },
        {
          "key": "CB09",
          "section": "Chassis and Body",
          "description": "Steering wheel, linkage and steering gear box",
          "action": "Activity not performed during this operation"
        },
        {
          "key": "CB12",
          "section": "Chassis and Body",
          "description": "Drive shaft boots",
          "action": "Inspect"
        },
        {
          "key": "CB13",
          "section": "Chassis and Body",
          "description": "Suspension ball joint and dust covers",
          "action": "Activity not performed during this operation"
        },
        {
          "key": "CB34",
          "section": "Chassis and Body",
          "description": "Shift lever for manual transmission",
          "action": "Activity not performed during this operation"
        },
        {
          "key": "CB14",
          "section": "Chassis and Body",
          "description": "Automatic transmission fluid",
          "action": "Activity not performed during this operation"
        },
        {
          "key": "CB19",
          "section": "Chassis and Body",
          "description": "Front and rear suspensions (include KDSS)",
          "action": "Activity not performed during this operation"
        },
        {
          "key": "CB20",
          "section": "Chassis and Body",
          "description": "Bolts and nuts on chassis and body",
          "action": "Activity not performed during this operation"
        },
        {
          "key": "CB21",
          "section": "Chassis and Body",
          "description": "Accessory items",
          "action": "Inspect"
        },
        {
          "key": "CB22",
          "section": "Chassis and Body",
          "description": "Tyres and inflation pressures",
          "action": "Inspect"
        },
        {
          "key": "CB23",
          "section": "Chassis and Body",
          "description": "Rotate wheels",
          "action": "Inspect"
        },
        {
          "key": "CB24",
          "section": "Chassis and Body",
          "description": "Balance front wheels",
          "action": "Inspect"
        },
        {
          "key": "CB25",
          "section": "Chassis and Body",
          "description": "Lights, horn, wipers and washers",
          "action": "Inspect"
        },
        {
          "key": "CB26",
          "section": "Chassis and Body",
          "description": "Seatbelt, webbing condition, buckle and retractor mechanism operation",
          "action": "Inspect"
        },
        {
          "key": "CB27",
          "section": "Chassis and Body",
          "description": "Air conditioner filter",
          "action": "Activity not performed during this operation"
        },
        {
          "key": "CB28",
          "section": "Chassis and Body",
          "description": "Refrigerant amount of air conditioner",
          "action": "Activity not performed during this operation"
        },
        {
          "key": "RT",
          "section": "Road Test",
          "description": "Road Test Vehicle",
          "action": "Inspect"
        }
      ]
    },
    {
      "isTsaService": false,
      "tsaServiceDetails": null,
      "serviceNumber": 14,
      "operation": "0D1H63",
      "kilometres": 140000,
      "months": 84,
      "retailServiceCostIncGst": 273.23,
      "tsaServiceCostIncGst": 0,
      "estimatedServiceTime": 1.5,
      "serviceKeys": [
        {
          "key": "E03",
          "section": "Engine",
          "description": "Drive belts",
          "action": "Inspect"
        },
        {
          "key": "E04",
          "section": "Engine",
          "description": "Engine oil",
          "action": "Replace"
        },
        {
          "key": "E05",
          "section": "Engine",
          "description": "Engine Oil filter",
          "action": "Replace"
        },
        {
          "key": "E06",
          "section": "Engine",
          "description": "Cooling and heater system",
          "action": "Inspect"
        },
        {
          "key": "E07",
          "section": "Engine",
          "description": "Engine coolant (Toyota Genuine Super LLC (Pink))",
          "action": "Activity not performed during this operation"
        },
        {
          "key": "E08",
          "section": "Engine",
          "description": "Exhaust pipes and mountings",
          "action": "Inspect"
        },
        {
          "key": "EL01",
          "section": "Electrical System",
          "description": "Spark Plugs (petrol models)",
          "action": "Activity not performed during this operation"
        },
        {
          "key": "EL02",
          "section": "Electrical System",
          "description": "Battery",
          "action": "Inspect"
        },
        {
          "key": "F01",
          "section": "Fuel System",
          "description": "Fuel Filter (including the in-tank filter)",
          "action": "Activity not performed during this operation"
        },
        {
          "key": "F05",
          "section": "Fuel System",
          "description": "Engine air cleaner filter",
          "action": "Inspect"
        },
        {
          "key": "F08",
          "section": "Fuel System",
          "description": "Fuel tank cap,fuel lines,connections & fuel vapor control valve (petrol models)",
          "action": "Inspect"
        },
        {
          "key": "F09",
          "section": "Fuel System",
          "description": "Charcoal canister (petrol models)",
          "action": "Activity not performed during this operation"
        },
        {
          "key": "CB01",
          "section": "Chassis and Body",
          "description": "Brake pedal and parking brake",
          "action": "Inspect"
        },
        {
          "key": "CB03",
          "section": "Chassis and Body",
          "description": "Brake pads and discs",
          "action": "Inspect"
        },
        {
          "key": "CB04",
          "section": "Chassis and Body",
          "description": "Brake fluid",
          "action": "Inspect"
        },
        {
          "key": "CB06",
          "section": "Chassis and Body",
          "description": "Brake pipes and hoses",
          "action": "Inspect"
        },
        {
          "key": "CB09",
          "section": "Chassis and Body",
          "description": "Steering wheel, linkage and steering gear box",
          "action": "Inspect"
        },
        {
          "key": "CB12",
          "section": "Chassis and Body",
          "description": "Drive shaft boots",
          "action": "Inspect"
        },
        {
          "key": "CB13",
          "section": "Chassis and Body",
          "description": "Suspension ball joint and dust covers",
          "action": "Inspect"
        },
        {
          "key": "CB34",
          "section": "Chassis and Body",
          "description": "Shift lever for manual transmission",
          "action": "Activity not performed during this operation"
        },
        {
          "key": "CB14",
          "section": "Chassis and Body",
          "description": "Automatic transmission fluid",
          "action": "Activity not performed during this operation"
        },
        {
          "key": "CB19",
          "section": "Chassis and Body",
          "description": "Front and rear suspensions (include KDSS)",
          "action": "Activity not performed during this operation"
        },
        {
          "key": "CB20",
          "section": "Chassis and Body",
          "description": "Bolts and nuts on chassis and body",
          "action": "Activity not performed during this operation"
        },
        {
          "key": "CB21",
          "section": "Chassis and Body",
          "description": "Accessory items",
          "action": "Inspect"
        },
        {
          "key": "CB22",
          "section": "Chassis and Body",
          "description": "Tyres and inflation pressures",
          "action": "Inspect"
        },
        {
          "key": "CB23",
          "section": "Chassis and Body",
          "description": "Rotate wheels",
          "action": "Inspect"
        },
        {
          "key": "CB24",
          "section": "Chassis and Body",
          "description": "Balance front wheels",
          "action": "Inspect"
        },
        {
          "key": "CB25",
          "section": "Chassis and Body",
          "description": "Lights, horn, wipers and washers",
          "action": "Inspect"
        },
        {
          "key": "CB26",
          "section": "Chassis and Body",
          "description": "Seatbelt, webbing condition, buckle and retractor mechanism operation",
          "action": "Inspect"
        },
        {
          "key": "CB27",
          "section": "Chassis and Body",
          "description": "Air conditioner filter",
          "action": "Activity not performed during this operation"
        },
        {
          "key": "CB28",
          "section": "Chassis and Body",
          "description": "Refrigerant amount of air conditioner",
          "action": "Inspect"
        },
        {
          "key": "RT",
          "section": "Road Test",
          "description": "Road Test Vehicle",
          "action": "Inspect"
        }
      ]
    },
    {
      "isTsaService": false,
      "tsaServiceDetails": null,
      "serviceNumber": 15,
      "operation": "0D1J13",
      "kilometres": 150000,
      "months": 90,
      "retailServiceCostIncGst": 272.62,
      "tsaServiceCostIncGst": 0,
      "estimatedServiceTime": 1.2,
      "serviceKeys": [
        {
          "key": "E03",
          "section": "Engine",
          "description": "Drive belts",
          "action": "Inspect"
        },
        {
          "key": "E04",
          "section": "Engine",
          "description": "Engine oil",
          "action": "Replace"
        },
        {
          "key": "E05",
          "section": "Engine",
          "description": "Engine Oil filter",
          "action": "Replace"
        },
        {
          "key": "E06",
          "section": "Engine",
          "description": "Cooling and heater system",
          "action": "Activity not performed during this operation"
        },
        {
          "key": "E07",
          "section": "Engine",
          "description": "Engine coolant (Toyota Genuine Super LLC (Pink))",
          "action": "Activity not performed during this operation"
        },
        {
          "key": "E08",
          "section": "Engine",
          "description": "Exhaust pipes and mountings",
          "action": "Activity not performed during this operation"
        },
        {
          "key": "EL01",
          "section": "Electrical System",
          "description": "Spark Plugs (petrol models)",
          "action": "Activity not performed during this operation"
        },
        {
          "key": "EL02",
          "section": "Electrical System",
          "description": "Battery",
          "action": "Inspect"
        },
        {
          "key": "F01",
          "section": "Fuel System",
          "description": "Fuel Filter (including the in-tank filter)",
          "action": "Activity not performed during this operation"
        },
        {
          "key": "F05",
          "section": "Fuel System",
          "description": "Engine air cleaner filter",
          "action": "Activity not performed during this operation"
        },
        {
          "key": "F08",
          "section": "Fuel System",
          "description": "Fuel tank cap,fuel lines,connections & fuel vapor control valve (petrol models)",
          "action": "Activity not performed during this operation"
        },
        {
          "key": "F09",
          "section": "Fuel System",
          "description": "Charcoal canister (petrol models)",
          "action": "Activity not performed during this operation"
        },
        {
          "key": "CB01",
          "section": "Chassis and Body",
          "description": "Brake pedal and parking brake",
          "action": "Activity not performed during this operation"
        },
        {
          "key": "CB03",
          "section": "Chassis and Body",
          "description": "Brake pads and discs",
          "action": "Inspect"
        },
        {
          "key": "CB04",
          "section": "Chassis and Body",
          "description": "Brake fluid",
          "action": "Inspect"
        },
        {
          "key": "CB06",
          "section": "Chassis and Body",
          "description": "Brake pipes and hoses",
          "action": "Activity not performed during this operation"
        },
        {
          "key": "CB09",
          "section": "Chassis and Body",
          "description": "Steering wheel, linkage and steering gear box",
          "action": "Activity not performed during this operation"
        },
        {
          "key": "CB12",
          "section": "Chassis and Body",
          "description": "Drive shaft boots",
          "action": "Inspect"
        },
        {
          "key": "CB13",
          "section": "Chassis and Body",
          "description": "Suspension ball joint and dust covers",
          "action": "Activity not performed during this operation"
        },
        {
          "key": "CB34",
          "section": "Chassis and Body",
          "description": "Shift lever for manual transmission",
          "action": "Inspect"
        },
        {
          "key": "CB14",
          "section": "Chassis and Body",
          "description": "Automatic transmission fluid",
          "action": "Activity not performed during this operation"
        },
        {
          "key": "CB19",
          "section": "Chassis and Body",
          "description": "Front and rear suspensions (include KDSS)",
          "action": "Activity not performed during this operation"
        },
        {
          "key": "CB20",
          "section": "Chassis and Body",
          "description": "Bolts and nuts on chassis and body",
          "action": "Activity not performed during this operation"
        },
        {
          "key": "CB21",
          "section": "Chassis and Body",
          "description": "Accessory items",
          "action": "Inspect"
        },
        {
          "key": "CB22",
          "section": "Chassis and Body",
          "description": "Tyres and inflation pressures",
          "action": "Inspect"
        },
        {
          "key": "CB23",
          "section": "Chassis and Body",
          "description": "Rotate wheels",
          "action": "Inspect"
        },
        {
          "key": "CB24",
          "section": "Chassis and Body",
          "description": "Balance front wheels",
          "action": "Inspect"
        },
        {
          "key": "CB25",
          "section": "Chassis and Body",
          "description": "Lights, horn, wipers and washers",
          "action": "Inspect"
        },
        {
          "key": "CB26",
          "section": "Chassis and Body",
          "description": "Seatbelt, webbing condition, buckle and retractor mechanism operation",
          "action": "Inspect"
        },
        {
          "key": "CB27",
          "section": "Chassis and Body",
          "description": "Air conditioner filter",
          "action": "Replace"
        },
        {
          "key": "CB28",
          "section": "Chassis and Body",
          "description": "Refrigerant amount of air conditioner",
          "action": "Activity not performed during this operation"
        },
        {
          "key": "RT",
          "section": "Road Test",
          "description": "Road Test Vehicle",
          "action": "Inspect"
        }
      ]
    }
  ]
}