 {
    "vehicleDescription": "Aurion AT-X 3.5L Petrol Automatic Sedan",
    "production": "2014-08",
    "manuals": [
        {
            "type": "repair",
            "title": "aurion-service-repair-manual-feb-12-current",
            "link": "http://toyotamanuals.com.au/docs/aurion-service-repair-manual-feb-12-current"
        },
        {
            "type": "manual",
            "title": "aurion-owners-manual-aug-12-current",
            "link": "http://toyotamanuals.com.au/docs/aurion-owners-manual-aug-12-current"
        }
    ]
}