{
  "title": "Mr",
  "firstName": "Sixtree",
  "lastName": "Test",
  "email": "six@sixtree.com.au",
  "mobile": "0423456789",
  "landline": "0334567891",
  "dateOfBirth": "1990-11-02",
  "address": {
    "postal": {
      "streetAddress": "23 Bourke St",
      "suburb": "Melbourne",
      "state": "VIC",
      "postcode": "3000"
    }
  }
}