{  
   "communicationEnabled":true,
   "notificationEnabled":false,
   "selectAllModels":false,
   "takeABreak":0,
   "userInterestedVehicles":[  
      "Y23I",
      "C219",
      "R748",
      "P82C",
      "P82V",
      "P820",
      "C984",
      "H094",
      "R475",
      "F871",
      "K838",
      "F806",
      "P627",
      "L301",
      "H113",
      "L384",
      "T899",
      "H133",
      "C090"
   ],
   "userInterestedTopics":[  
      "0",
      "1",
      "2",
      "3",
      "4",
      "5",
      "6"
   ]
}