{
  "dealerDetails": {
    "dealerCode": "36647",
    "locationCode": "36647"
  },
  "campaignDetails": [
    {
      "campaignCode": "RAV4-OFFER",
      "campaignName": "RAV4-OFFER"
    }
  ],
  "interestedVehicles": [
    {
      "make": "Toyota",
      "model": "RAV4"
    }
    
  ]
    
}