{
  "dealers": [
    {
      "dealerCode": "037038",
      "dealerName": "Midland Toyota",
      "franchise": "Toyota",
      "dealerPartsCode": "6",
      "sapDealerCode": "37038",
      "pmaCode": "F09",
      "pmaName": "MIDLAND",
      "region": "WEST",
      "motorDealerLicenseNumber": "",
      "isMetro": "true",
      "isRural": "false",
      "pricingTransparencyOptIn": "false",
      "weightGroup": {
        "parts": "Middle",
        "sales": "Bantam",
        "service": "Heavy",
        "accessories": "Bantam",
        "used": "Bantam",
        "customerSupport": "Bantam"
      },
      "uniqueCode": "45164",
      "locations": [
        {
          "locationType": "Principal",
          "locationId": "22341",
          "locationCode": "",
          "locationName": "Midland Toyota",
          "sapCode": "37038",
          "address": {
            "streetAddress": "163-165 Great Eastern Highway",
            "suburb": "MIDLAND",
            "state": "WA",
            "postCode": "6056"
          },
          "poBox": {
            "box": "PO Box 330",
            "city": "MIDLAND",
            "state": "WA",
            "postCode": "6056"
          },
          "phone": {
            "main": "08 9464 1000",
            "fax": "08 9464 1011",
            "sales": "",
            "parts": "",
            "customerSupport": "",
            "service": ""
          },
          "email": {
            "main": "midland.toyota@dvg.com.au",
            "sales": "",
            "parts": "",
            "service": "",
            "customerSupport": ""
          },
          "webSite": "www.midlandtoyota.com.au",
          "serviceWebsite": ""
        },
        {
          "locationType": "Service",
          "locationId": "22982",
          "locationCode": "",
          "locationName": "Midland Toyota (Service & Parts)",
          "sapCode": "",
          "address": {
            "streetAddress": "163 Gt Eastern Hwy, 6 Moore Avenue",
            "suburb": "MIDLAND",
            "state": "WA",
            "postCode": "6056"
          },
          "poBox": {
            "box": "",
            "city": "",
            "state": "",
            "postCode": ""
          },
          "phone": {
            "main": "",
            "fax": "",
            "sales": "",
            "parts": "",
            "customerSupport": "",
            "service": ""
          },
          "email": {
            "main": "",
            "sales": "test@gmail.com",
            "parts": "",
            "service": "",
            "customerSupport": ""
          },
          "webSite": "",
          "serviceWebsite": ""
        }
      ]
    },
    {
      "dealerCode": "037038",
      "dealerName": "Penrith Toyota (copy)",
      "franchise": "Toyota",
      "dealerPartsCode": "1",
      "sapDealerCode": "037038",
      "pmaCode": "S26",
      "pmaName": "PENRITH",
      "region": "EAST",
      "motorDealerLicenseNumber": "",
      "isMetro": "true",
      "isRural": "false",
      "pricingTransparencyOptIn": "false",
      "weightGroup": {
        "parts": "Welter",
        "sales": "Welter",
        "service": "Welter",
        "accessories": "Welter",
        "used": "Welter",
        "customerSupport": "Middle"
      },
      "uniqueCode": "47121",
      "locations": [
        {
          "locationType": "Parts Warehouse",
          "locationId": "25721",
          "locationCode": "",
          "locationName": "Penrith Toyota (copy)",
          "sapCode": "",
          "address": {
            "streetAddress": "Morley Avenue",
            "suburb": "KINGSWOOD",
            "state": "NSW",
            "postCode": "2747"
          },
          "poBox": {
            "box": "",
            "city": "",
            "state": "",
            "postCode": ""
          },
          "phone": {
            "main": "",
            "fax": "",
            "sales": "",
            "parts": "",
            "customerSupport": "",
            "service": ""
          },
          "email": {
            "main": "",
            "sales": "",
            "parts": "",
            "service": "",
            "customerSupport": ""
          },
          "webSite": "",
          "serviceWebsite": ""
        },
        {
          "locationType": "Service",
          "locationId": "25722",
          "locationCode": "",
          "locationName": "Penrith Toyota (copy)",
          "sapCode": "",
          "address": {
            "streetAddress": "Morley Avenue",
            "suburb": "KINGSWOOD",
            "state": "NSW",
            "postCode": "2747"
          },
          "poBox": {
            "box": "",
            "city": "",
            "state": "",
            "postCode": ""
          },
          "phone": {
            "main": "",
            "fax": "",
            "sales": "",
            "parts": "",
            "customerSupport": "",
            "service": ""
          },
          "email": {
            "main": "",
            "sales": "",
            "parts": "",
            "service": "",
            "customerSupport": ""
          },
          "webSite": "",
          "serviceWebsite": ""
        },
        {
          "locationType": "Principal",
          "locationId": "25641",
          "locationCode": "",
          "locationName": "Penrith Toyota (copy)",
          "sapCode": "37038",
          "address": {
            "streetAddress": "87-101 Great Western Highway",
            "suburb": "KINGSWOOD",
            "state": "NSW",
            "postCode": "2747"
          },
          "poBox": {
            "box": "PO Box 733",
            "city": "KINGSWOOD",
            "state": "NSW",
            "postCode": "2747"
          },
          "phone": {
            "main": "02 8805 9500",
            "fax": "02 4736 5256",
            "sales": "",
            "parts": "",
            "customerSupport": "",
            "service": ""
          },
          "email": {
            "main": "",
            "sales": "",
            "parts": "",
            "service": "",
            "customerSupport": ""
          },
          "webSite": "",
          "serviceWebsite": ""
        }
      ]
    },
    {
      "dealerCode": "037038",
      "dealerName": "Boekeman Toyota (copy)",
      "franchise": "Toyota",
      "dealerPartsCode": "",
      "sapDealerCode": "37038",
      "pmaCode": "F34",
      "pmaName": "WONGAN HILLS",
      "region": "WEST",
      "motorDealerLicenseNumber": "",
      "isMetro": "false",
      "isRural": "true",
      "pricingTransparencyOptIn": "false",
      "weightGroup": {
        "parts": "Fly",
        "sales": "Fly",
        "service": "Fly",
        "accessories": "Fly",
        "used": "Fly",
        "customerSupport": "Fly"
      },
      "uniqueCode": "47261",
      "locations": [
        {
          "locationType": "Principal",
          "locationId": "25801",
          "locationCode": "",
          "locationName": "Boekeman Toyota (copy)",
          "sapCode": "37038",
          "address": {
            "streetAddress": "Manmanning Road",
            "suburb": "WONGAN HILLS",
            "state": "WA",
            "postCode": "6603"
          },
          "poBox": {
            "box": "125",
            "city": "WONGAN HILLS",
            "state": "WA",
            "postCode": "6603"
          },
          "phone": {
            "main": "08 9671 1211",
            "fax": "08 9671 1125",
            "sales": "",
            "parts": "",
            "customerSupport": "",
            "service": ""
          },
          "email": {
            "main": "",
            "sales": "sales@boekemans.com.au",
            "parts": "ray@boekemans.com.au",
            "service": "sean@boekemans.com.au",
            "customerSupport": "sales@boekemans.com.au"
          },
          "webSite": "",
          "serviceWebsite": ""
        },
        {
          "locationType": "Satellite",
          "locationId": "25802",
          "locationCode": "",
          "locationName": "Boekeman Toyota (copy)",
          "sapCode": "",
          "address": {
            "streetAddress": "Great Northern Highway",
            "suburb": "DALWALLINU",
            "state": "WA",
            "postCode": "6609"
          },
          "poBox": {
            "box": "PO Box 160",
            "city": "DALWALLINU",
            "state": "WA",
            "postCode": "6609"
          },
          "phone": {
            "main": "08 9661 1002",
            "fax": "08 9661 1332",
            "sales": "",
            "parts": "",
            "customerSupport": "",
            "service": ""
          },
          "email": {
            "main": "",
            "sales": "",
            "parts": "",
            "service": "",
            "customerSupport": ""
          },
          "webSite": "",
          "serviceWebsite": ""
        }
      ]
    }
  ]
}