{
  "dealerId": "037272",
  "branchCode": "37272",
  "registrationNumber": "1FT9WJ (QLD)",
  "vehicleOdo": null,
  "serviceCode": "RTLALA49R   A012002",
  "operation": "0D1A63",
  "estimatedServiceTime": 1,
  "dropOffDate": "2017-02-28",
  "dropOffTime": "07:30",
  "pickUpDate": null,
  "pickUpTime": null,
  "confirmationType": "email",
  "notes": "Please check the wipers",
  "waitAtDealerFlag": false,
  "expressServiceFlag": false,
  "courtesyBusFlag": false,
  "loanVehicleFlag": false,
  "contactDetails": {
    "isUpdateMyContact": true,
    "firstName": "James",
    "lastName": "Garner",
    "phone": "0401111222",
    "email": "james.a.garner@gmail.com"
  },
  "alternativeContact": false,
  "sapCode": "37272",
  "alterContactDetails": {},
  "vehicleDescription": "RAV 4 GX AWD 2.2L Diesel Automatic 5 Door Wagon",
  "serviceDescription": "10000 Kms or 6 months",
  "tsaFlag": false,
  "serviceCost": 0
}