{  
  "vehicles":[  	
	{
	    "registrationNumber": "1CN5RI",
	    "state": "VIC",
	    "odometer": "20000",
	    "vin": "JTNKU3JE50J069491",
	    "images": [
	        {
	            "size": "260x146",
	            "materialCode": "4436080D0LA204V8",
	            "link": "//cdn.rotorint.com/Corolla/2012_08_Aug/e/hero/jpg/hi/260x146/Corolla_Hatch_Levin_ZR_Sfx_D0_4V8_Positano_Bronze_003.jpg"
	        }
	    ],
	    "model": "Corolla",
	    "grade": "Levin ZR",
	    "manufacturedYear": "2014-06",
	    "vehicleAge": "45",
	    "deliveryDate": "2014-08-15",
	    "vehicleTypeCode": null,
	    "manufacturer": "Toyota",
	    "engineNumber": "2ZR1396240"
	}
  ]
}	