{
	"dealers": [
    {
        "createdBy": "",
        "createdDate": "",
        "lastModifiedBy": "",
        "lastModifiedDate": "",
        "id": 0,
        "discontinuedDate": "",
        "favorite": false,
        "dealer": {
            "createdBy": "",
            "createdDate": "",
            "lastModifiedBy": "",
            "lastModifiedDate": "",
            "id": 0,
            "dealerId": "",
            "branchId": "",
            "address": "",
            "postcode": "",
            "telephone": "",
            "email": "",
            "name": "",
            "suburb": "",
            "state": "",
            "fiveStar": false,
            "refX": "",
            "refY": "",
            "externalUri": "",
            "service": false,
            "sales": false,
            "parts": false,
            "fleetSpecialist": false,
            "used": false,
            "toyotaDealerPage": ""
        }
    },
    {
        "createdBy": "",
        "createdDate": "",
        "lastModifiedBy": "",
        "lastModifiedDate": "",
        "id": 0,
        "discontinuedDate": "",
        "favorite": false,
        "dealer": {
            "createdBy": "",
            "createdDate": "",
            "lastModifiedBy": "",
            "lastModifiedDate": "",
            "id": 0,
            "dealerId": "",
            "branchId": "",
            "address": "",
            "postcode": "",
            "telephone": "",
            "email": "",
            "name": "",
            "suburb": "",
            "state": "",
            "fiveStar": false,
            "refX": "",
            "refY": "",
            "externalUri": "",
            "service": false,
            "sales": false,
            "parts": false,
            "fleetSpecialist": false,
            "used": false,
            "toyotaDealerPage": ""
        }
    }
]}