{
  "validation" : {
    "status" : "match",
    "fields" : [
      "firstname" : {
        "match" : true
      },
      "surname" : {
        "match" : true
      },
      "email" : {
        "match" : false
      },
      "mobile" : {
        "match" : true
      },
      "vin" : {
        "match" : false
      }
    ]
  }
}