{
  "favorite": true,
  "dealerId": "37431",
  "branchId": "37431",
  "address": "610 Camberwell Road",
  "postcode": "3124",
  "telephone": "03 9809 2466",
  "email": "sales@camberwelltoyota.com.au",
  "name": "Camberwell Toyota",
  "suburb": "CAMBERWELL",
  "state": "VIC",
  "fiveStar": true,
  "refX": "145.0747890",
  "refY": "-37.8473470",
  "externalUri": "www.camberwelltoyota.com.au",
  "service": true,
  "sales": true,
  "parts": true,
  "fleetSpecialist": true
}