{
  "departmentData": {
    "departments": [
      {
        "departmentID": "116",
        "departmentName": "Service Department",
        "departmentPhone": "02 9647 4444",
        "companyName": "Home Town Toyota",
        "companyURL": "http://www.rev.com.au",
        "unknownVehicleURL": "<OBSOLETE>",
        "tandcURL": "http://www.rev.com.au/termsandconditions",
        "defaultOpTime": 1.5,
        "franchiseName": "Toyota",
        "franchiseURL": "https://www.toyota.com.au/owners/service",
        "expressEnabled": true,
        "loanEnabled": true,
        "courtesyEnabled": true,
        "customCSS": "",
        "courtesyBusURL": "http://www.rev.com.au",
        "openHours": "false|true,07:30,17:45|true,07:30,17:45|true,07:30,17:45|true,07:30,17:45|true,07:30,17:45|true,09:00,13:00",
        "bookingInterval": "15",
        "defaultInTime": "0800",
        "defaultOutTime": "1500",
        "leadDays": 1,
        "operationTime": 1.5,
        "holidays": ""
      }
    ],
    "ttsession": [
      {
        "sessionid": "iHviNMdGbdbfiidP6390"
      }
    ]
  }
}