{
        "dealerCode": "44",
        "dealerName": "Maitland Toyota",
        "sites": [
          {
            "isPrincipal": true,
            "branchCode": "44",
            "branchName": "Maitland Toyota",
            "address": "104-124 Newcastle Road",
            "postCode": "2323",
            "phone": "02 4933 8383",
            "fax": "02 4933 2458",
            "email": "reception@maitlandtoyota.com.au",
            "suburb": "EAST MAITLAND",
            "state": "NSW",
            "locationName": "Maitland Toyota",
            "locationType": "Principal",
            "locationSapCode": "44",
            "website": "www.maitlandtoyota.com.au",
            "franchise": "Toyota",
            "dealerPartsCode": "1",
            "isSales": true,
            "isParts": true,
            "isService": true,
            "isUsed": true,
            "csWeightGroup": "Middle",
            "partsWeightGroup": "Welter",
            "accessoriesWeightGroup": "Middle",
            "serviceWeightGroup": "Middle",
            "salesWeightGroup": "Middle",
            "hoursOfOperation": [
              {
                "daysOfWeek": "Monday",
                "openingAt": "09:00",
                "closingAt": "17:00"
              },
              {
                "daysOfWeek": "Tuesday",
                "openingAt": "09:00",
                "closingAt": "17:00"
              },
              {
                "daysOfWeek": "Wednesday",
                "openingAt": "09:00",
                "closingAt": "17:00"
              },
              {
                "daysOfWeek": "Thursday",
                "openingAt": "09:00",
                "closingAt": "17:00"
              },
              {
                "daysOfWeek": "Friday",
                "openingAt": "09:00",
                "closingAt": "17:00"
              },
              {
                "daysOfWeek": null,
                "openingAt": "09:00",
                "closingAt": "18:00"
              },
              {
                "daysOfWeek": null,
                "openingAt": "09:00",
                "closingAt": "18:30"
              }
            ],
            "geoLocation": {
              "latitude": -32.74618,
              "longitude": 151.58154
            }
          },
          {
            "isPrincipal": false,
            "branchCode": "000044B",
            "branchName": "Port Stephens Toyota",
            "address": "70 Port Stephens Drive",
            "postCode": "2316",
            "phone": "02 4916 3333",
            "fax": "02 4916 3331",
            "email": "rgreenlees@portstephenstoyota.com.au",
            "suburb": "TAYLORS BEACH",
            "state": "NSW",
            "locationName": "Port Stephens Toyota",
            "locationType": "Branch",
            "locationSapCode": "37062",
            "website": "www.portstephenstoyota.com.au",
            "franchise": "Toyota",
            "dealerPartsCode": "1",
            "isSales": true,
            "isParts": true,
            "isService": true,
            "isUsed": true,
            "csWeightGroup": "Middle",
            "partsWeightGroup": "Welter",
            "accessoriesWeightGroup": "Middle",
            "serviceWeightGroup": "Middle",
            "salesWeightGroup": "Middle",
            "hoursOfOperation": [
              {
                "daysOfWeek": "Monday",
                "openingAt": "09:00",
                "closingAt": "17:00"
              },
              {
                "daysOfWeek": "Tuesday",
                "openingAt": "09:00",
                "closingAt": "17:00"
              },
              {
                "daysOfWeek": "Wednesday",
                "openingAt": "09:00",
                "closingAt": "17:00"
              },
              {
                "daysOfWeek": "Thursday",
                "openingAt": "09:00",
                "closingAt": "17:00"
              },
              {
                "daysOfWeek": "Friday",
                "openingAt": "09:00",
                "closingAt": "17:00"
              },
              {
                "daysOfWeek": null,
                "openingAt": "09:00",
                "closingAt": "18:00"
              },
              {
                "daysOfWeek": null,
                "openingAt": "09:00",
                "closingAt": "18:30"
              }
            ],
            "geoLocation": {
              "latitude": -32.75095,
              "longitude": 152.06908
            }
          }
        ]
      }