{
  "dealerCode": "37272",
  "dealerName": "Chatswood Toyota",
  "preferredBranch": {
    "address": "728 Pacific Highway",
    "branchCode": "37184",
    "branchName": "Chatswood Toyota",
    "dealerPartsCode": "1",
    "email": "new@chatswoodtoyota.com.au",
    "fax": "02 9412 3443",
    "franchise": "Toyota",
    "geolocation": {
      "latitude": 0,
      "longitude": 0
    },
    "hoursOfOperation": [
      {
        "ClosingAt": "17:00",
        "DaysOfWeek": "Monday",
        "OpeningAt": "9:00"
      },
      {
        "ClosingAt": "17:00",
        "DaysOfWeek": "Tuesday",
        "OpeningAt": "9:00"
      },
      {
        "ClosingAt": "17:00",
        "DaysOfWeek": "Wednesday",
        "OpeningAt": "9:00"
      },
      {
        "ClosingAt": "17:00",
        "DaysOfWeek": "Thursday",
        "OpeningAt": "9:00"
      },
      {
        "ClosingAt": "17:00",
        "DaysOfWeek": "Friday",
        "OpeningAt": "9:00"
      },
      {
        "ClosingAt": "18:00",
        "DaysOfWeek": "Saturday",
        "OpeningAt": "9:00"
      },
      {
        "ClosingAt": "18:30",
        "DaysOfWeek": "Sunday",
        "OpeningAt": "9:00"
      }
    ],
    "isPrincipal": true,
    "phone": "02 9201 4444",
    "postcode": "2067",
    "regionName": "",
    "regionType": "",
    "state": "NSW",
    "suburb": "CHATSWOOD",
    "website": "www.chatswoodtoyota.com.au"
  }
}