{
  "bookingId": "TB16392499",
  "myToyotaId": "MYT-000001f6",
  "dealerId": "37272",
  "branchCode": "037272",
  "dmsId": "61.10169.10169011116",
  "dmsType": "TUNE",
  "operationID": "SCHEDULE",
  "operationTypeID": "TOY9983-S0000CVI-1",
  "serviceTsaFlag": false,
  "fixedChargeOperationFlag": false,
  "cappedPriceOperationFlag": true,
  "inclusions": "Carry out 45 months/75,000km service with additional maintenance",
  "totalOperationTime": 2.5,
  "serviceOperationPrice": 150.00,
  "description": "some description",
  "externalNumberOfClaim": "0D1D33",
  "dropOffDate": "2016-04-30",
  "dropOffTime": "07:30",
  "pickUpDate": "2016-04-30",
  "pickUpTime": "13:00",
  "confirmationType": "email",
  "totalServicePrice": 250.00,
  "upsells": [
    {
      "id": "0x0000000007ae1441",
      "price": "345.00"
    },
    {
      "id": "0x0000000007ae1488",
      "price": "319.00"
    },
    {
      "id": "0x0000000007ae1489",
      "price": "POA"
    }
  ],
  "contactDetails": {
    "firstName": "John",
    "lastName": "Smith",
    "email": "jsmith@email.com",
    "phone": "0412341234"
  },
  "notes": "Please check the wipers",
  "waitAtDealerFlag": false,
  "expressServiceFlag": false,
  "courtesyBusFlag": false,
  "loanVehicleFlag": true,
  "customerType": "business",
  "businessName": "My Company",
  "vehicleOdo": 20000
}