{
  "type": "service_account",
  "project_id": "mytoyota-app-prod",
  "private_key_id": "f4b6ac3802ba60592f9fc4eb966cc6fd4eb52bf0",
  "private_key": "-----BEGIN PRIVATE KEY-----\nMIIEvQIBADANBgkqhkiG9w0BAQEFAASCBKcwggSjAgEAAoIBAQCRcjki2W5/H8Bp\n84LzyaolkuHN6HcmLV2gEITEl+Fn6fKkeIVKK+gvN113CW9PLggncP795u/ie0H2\nIhIqzwotcgeYWi1BJG48pkniwK4lFm+C4d/XA95LBvGyjH7tA1sVF9bix3TH1lLk\nrOlCDRtgBJZaZnQqk3+vCFqjFA28ZvEGOUPlTCIAB5tuT/Aa4gxut9N2/bMLJbOV\nmlx0iTwfxgMF3wEtmzcRURRu873FR6heY84kSqO25AIehUd+hHn1KRbRcjPTLb65\nhae9I232AhE8IUs0JzPzu0KQafr8mZBWnrGHabsIVgN0msIL/fdVlm93iS4LlOiT\nFoKagNElAgMBAAECggEANSSxL8SWlSh627u4G2+SFcyHaP8Jmg91aCjg+hwsphVb\nLTFEMoe8fJQUOIxf+WRuYkrtQMSC3hP/U/m6/Z1MsLI7iDVa17SB+vMfiBSzDKYX\n9JCngx7MuEk/QugG8H8LZrehMpeCWgo7m4Z6bEHxwLGsZjeNNolSXBgHVhLbufyu\nCLbMH4HA9Fx9RLagEnrJIqtwFjz9i0cr3L6RQudUlvIoNJUuFIHT6CKL+ElcoBLF\nQjFQIHgjN3pNUiFuZnlTNq++s5r3a8FElgCpPhKZLYSHZrvKYYHrPn9lsJPwLTkp\n50HzDFncQKA898hdUrOau2enKtNdOnns4G0PUQnGOQKBgQDEKQdmj5Apoh9s18PO\n/0f+0RZp5+jJNDVoevrFrS8qXBrKZG415T7I3czx+E9Vdsty9G5MApy2mZxF1LT6\nrydPe2OQ754QhqakMQXxJixiLJKsVFYXQjlpdQO5kNUDMV8KpQxg0WkS25B5mxvq\nMTEkjTLwuo3jh7L5ufGgyisH9wKBgQC90LhzqiDM1T4jq7Hb8sv7o8hBG9L/LOfg\n1tF4yUUUBx6KV7PcTj3vpRbqxvq8Z+SOplWHakQ9uf1tLCDRHpBQTKAGxsNoGMGD\nnAG96msiR2V2nf5gz5DRAwoxnNisxn0tcqs+Jg2Qm3rAIwiMmhx/Ji9W8TX2D2fP\nIsLUXSRAwwKBgHUyGiTRcw0cum+5/VfHt0jrvNtrXe4QDjSs/PRrgvlo6+yt0hbL\nLxatRYvvkd56yhSVKuyoxt5lqjMiYTpAuVjIXHU0ZBh1ikwgqe8oom3JOZxSCtl8\njHaQHbiZalqs/Z6Le3jAxGkq2wd8f1INL9IpthyTKMCey3Rd/pnVD56DAoGBAI2k\nGn/1C9TNqzji/i2q2BxG8z/ii2hvEfjtVBJV3n47cca5+zUCDaWuA5PeN2wv+pWX\n+Wq7GYEWMM4uh66EqBvDkgZ8e4RKNN0IpSQasSc7L7N74j5LpTzSj+DFscn7s50e\nXDpcGvM1kjud6NtChNE8pUazaBjdFhGzVr8xYcQRAoGAOJ/9zYujvtOvqI571/7t\n0RTqGb8wgzcANDvegTjPn0HtWCv4pqQqz3Kz0iyxsNMA124CAXJWFkK8YszX5kf6\n5RHfFzQNZHjsTDfr3wODvJWbPe37m5+A978jJhRRCDX5dVzFvWHcAVg3Oawl5hge\nXa2bl1lbBeS0cZ73tSOKff4=\n-----END PRIVATE KEY-----\n",
  "client_email": "firebase-adminsdk-yptda@mytoyota-app-prod.iam.gserviceaccount.com",
  "client_id": "113589728496074184358",
  "auth_uri": "https://accounts.google.com/o/oauth2/auth",
  "token_uri": "https://oauth2.googleapis.com/token",
  "auth_provider_x509_cert_url": "https://www.googleapis.com/oauth2/v1/certs",
  "client_x509_cert_url": "https://www.googleapis.com/robot/v1/metadata/x509/firebase-adminsdk-yptda%40mytoyota-app-prod.iam.gserviceaccount.com"
}
