{
  "batchNumber": "0004233285",
  "compliancePlate": "2009-03",
  "engineNumber": "1KD1916858",
  "ignitionKeyNumber": "64429",
  "materialNumber": "4203660X4FA10056",
  "production": "2009-03",
  "vin": "JTEBZ29JX00196420",
  "warranties": [
    {
      "claimNumber": "000007518599",
      "claimTypeCode": "WVE1",
      "dealerClaimNumber": "W12964",
      "remedyDescription": "REPLACE CLIPS",
      "serviceOperationCode": "473301",
      "repairDate": "2011-09-19",
      "odometerReadingKm": "92054",
      "repairOrderNumber": "4062924",
      "dealerCode": "0000008224",
      "dealerName": "MIKE CARNEY TOYOTA"
    },
    {
      "claimNumber": "000007426506",
      "claimTypeCode": "WVE1",
      "dealerClaimNumber": "W12669",
      "remedyDescription": "REPLACE CLIPS",
      "serviceOperationCode": "473311",
      "repairDate": "2011-08-17",
      "odometerReadingKm": "90170",
      "repairOrderNumber": "4062532",
      "dealerCode": "0000008224",
      "dealerName": "MIKE CARNEY TOYOTA"
    },
    {
      "claimNumber": "000006608068",
      "claimTypeCode": "WVE1",
      "dealerClaimNumber": "W10427",
      "remedyDescription": "REPLACE SHAFT",
      "serviceOperationCode": "370011",
      "repairDate": "2011-01-31",
      "odometerReadingKm": "69255",
      "repairOrderNumber": "4048602",
      "dealerCode": "0000008224",
      "dealerName": "MIKE CARNEY TOYOTA"
    }
  ]
}