{  
  "dealers":[  
    {  
      "discontinuedDate":"2015-12-20",
      "favorite":true,
      "dealerId":"37104",
      "branchId":"37184",
      "address":"215-217 Normanby Rd",
      "postcode":"3205",
      "telephone":"03 8645 6333",
      "email":"sales@southmelbtoyota.com.au",
      "name":"South Melbourne Toyota",
      "suburb":"SOUTH MELBOURNE",
      "state":"VIC",
      "fiveStar":false,
      "refX":"144.9489480",
      "refY":"-37.8290190",
      "externalUri":"www.southmelbtoyota.com.au",
      "service":true,
      "sales":true,
      "parts":true,
      "fleetSpecialist":false,
      "used":false,
      "toyotaDealerPage":"dealer.toyota.com.au"
    },
    {  
      "discontinuedDate":"2016-01-15",
      "favorite":true,
      "dealerId":"37431",
      "branchId":"37431",
      "address":"610 Camberwell Road",
      "postcode":"3124",
      "telephone":"03 9809 2466",
      "email":"sales@camberwelltoyota.com.au",
      "name":"Camberwell Toyota",
      "suburb":"CAMBERWELL",
      "state":"VIC",
      "fiveStar":true,
      "refX":"145.0747890",
      "refY":"-37.8473470",
      "externalUri":"www.camberwelltoyota.com.au",
      "service":true,
      "sales":true,
      "parts":true,
      "fleetSpecialist":true,
      "used":true,
      "toyotaDealerPage":"dealer.toyota.com.au"
    }
  ]
}