{
  "batchNumber": "0006164997",
  "compliancePlate": "2013-04",
  "engineNumber": "2ZR1223438",
  "vin": "JTNKU3JE60J021675",
  "materialNumber": "4436080B0FD203R3",
  "vehicleDescription": "Corolla Ascent Sport 1.8L Petrol CVT 5 Door Hatch",
  "katashikiCode": "ZRE182R-AHXNKQ",
  "vehicleLine": {
    "code": "CORI",
    "description": "Corolla"
  },
  "ssn": {
    "code": "44",
    "description": "Corolla Hatch(03.2007-"
  },
  "model": {
    "code": "36080",
    "description": "Hatch Asct Spt/SE/Lev SX/ZR CV"
  },
  "suffix": {
    "code": "B0",
    "description": "Ascent Sport"
  },
  "trim": {
    "code": "FD20",
    "description": "Black Fabric"
  },
  "paint": {
    "code": "3R3",
    "description": "Wildfire"
  },
  "series": {
    "code": "1306",
    "description": "Corolla Hatch"
  },
  "transmission": "CVT",
  "salesType": "ZRET",
  "sellingDealerCode": "1623",
  "sellingDealerName": "BRIAN HILTON TOYOTA",
  "production": "2013-03",
  "deliveryDate": "2013-07-29",
  "registrationNumber": "COI14W",
  "vehicleIdentificationNumber": {
    "worldManufacturersIndex": "JTN",
    "vehicleDescriptorSegmentCheckDigit": "6",
    "vehicleDescriptorSegment": "KU3JE",
    "chassisNumber": "0J021675"
  },
  "images": [
    {
      "size": "260x146",
      "materialCode": "4436080B0FD203R3",
      "link": "http://cdn.rotorint.com/Corolla/2012_08_Aug/e/hero/png/hi/260x146/Corolla_Hatch_Ascent_Sport_Sfx_B0_3R3_Wildfire_003.png"
    },
    {
      "size": "520x292",
      "materialCode": "4436080B0FD203R3",
      "link": "http://cdn.rotorint.com/Corolla/2012_08_Aug/e/hero/png/hi/520x292/Corolla_Hatch_Ascent_Sport_Sfx_B0_3R3_Wildfire_003.png"
    },
    {
      "size": "980x510",
      "materialCode": "4436080B0FD203R3",
      "link": "http://cdn.rotorint.com/Corolla/2012_08_Aug/e/hero/png/hi/980x510/Corolla_Hatch_Ascent_Sport_Sfx_B0_3R3_Wildfire_003.png"
    },
    {
      "size": "1089x613",
      "materialCode": "4436080B0FD203R3",
      "link": "http://cdn.rotorint.com/Corolla/2012_08_Aug/e/hero/png/hi/1089x613/Corolla_Hatch_Ascent_Sport_Sfx_B0_3R3_Wildfire_003.png"
    }
  ]
}