{
  "login": "six@sixtree.com.au",
  "password": "password",
  "firstName": "Sixtree",
  "lastName": "Test",
  "email": "six@sixtree.com.au",
  "termsAndConditions": {
    "acceptedVersion": "1.1"
  },
  "privacyStatement": {
    "acceptedVersion": "1.1"
  },
  "isMarketingOptIn": false,
  "favoriteDealer": {
  	"dealerCode":"37431",
  	"branchCode":"37431"
  }
}