{
   "batchNumber": "0004233285",
   "compliancePlate": "2009-03",
   "engineNumber": "1KD1916858",
   "ignitionKeyNumber": "64429",
   "materialNumber": "4203660X4FA10056",
   "production": "2009-03",
   "vin":"JTEBZ29JX00196420",
   "outstandingServices":[
      {
         "serviceCode":"ADVZRE152R     1002",
         "serviceDescription":"10,000KM / 6 MTHS SERVICE",
         "customerPaymentAmount":-118.19,
         "serviceOperationCode":"0D1A63",
         "serviceDueDate": "2014-02-09",
         "serviceExpiryDate": "2015-02-09"
      },
      {
         "serviceCode":"ADVZRE152R     1002",
         "serviceDescription":"20,000KM / 12 MTHS SERVICE",
         "customerPaymentAmount":"-118.19",
         "serviceOperationCode":"0D1B23",
         "serviceDueDate": "2014-02-09",
         "serviceExpiryDate": "2015-02-09"
      }
   ]
}