{
  "vehicles": [
    {
      "batchNumber": "0007473958",
      "compliancePlate": "2016-01",
      "engineNumber": "1GD8047780",
      "vin": "JTEBR3FJ60K015246",
      "materialNumber": "4C78720B0FH221G3",
      "vehicleDescription": "Prado GXL 2.8L T Diesel Automatic Wagon",
      "katashikiCode": "GDJ150R-GKTEYQ",
      "transmission": "Automatic",
      "production": "2016-01",
      "releaseYear": "2016",
      "suffix": {
        "code": "3121",
        "description": "ajfkd"
      },
      "trim": {
        "code": "43432",
        "description": "sdfdsd"
      },
      "paint": {
        "code": "90890",
        "description": "dfewfsdkl"
      },
      "salesType": "wre",
      "images": [
        {
          "size": "260x146",
          "link": "http://cdn.rotorint.com/Corolla/2012_08_Aug/e/hero/png/hi/260x146/Corolla_Hatch_Ascent_Sport_Sfx_B0_3R3_Wildfire_003.png"
        },
        {
          "size": "519x292",
          "link": "http://cdn.rotorint.com/Corolla/2012_08_Aug/e/hero/png/hi/519x292/Corolla_Hatch_Ascent_Sport_Sfx_B0_3R3_Wildfire_003.png"
        },
        {
          "size": "907x510",
          "link": "http://cdn.rotorint.com/Corolla/2012_08_Aug/e/hero/png/hi/907x510/Corolla_Hatch_Ascent_Sport_Sfx_B0_3R3_Wildfire_003.png"
        },
        {
          "size": "1089x613",
          "link": "http://cdn.rotorint.com/Corolla/2012_08_Aug/e/hero/png/hi/1089x613/Corolla_Hatch_Ascent_Sport_Sfx_B0_3R3_Wildfire_003.png"
        }
      ],
      "customImages": [
        {
          "code": "primary",
          "link": "www.website.com/image"
        }
      ],
      "vehicleOdo": 10000
    },
    {
      "batchNumber": "0003664786",
      "compliancePlate": "2008-03",
      "engineNumber": "2NZ4972479",
      "vin": "JTDKW923405099718",
      "materialNumber": "2T14310Y1FR18209",
      "vehicleDescription": "Yaris YR 1.3L Petrol Manual 5 Door Hatch",
      "katashikiCode": "NCP90R-AHMRKQ",
      "transmission": "Manual",
      "sellingDealerCode": "8224",
      "sellingDealerName": "MIKE CARNEY TOYOTA",
      "registrationNumber": "MH664W",
      "production": "2008-02",
      "discontinuedDate": "2016-05-03",
      "ownershipCreatedDate": "2016-05-03",
      "releaseYear": "2008",
      "vehicleUser": {
        "registrationNumber": "MH664W",
        "state": "VIC"
      }
    }
  ]
}