{
  "success": false,
  "errors": [
    {
      "code": 400006,
      "description": "Invalid argument: New Password was not validated - invalid password - minimum length of 6 characters is required"
    }
  ]
}