{
  "vin": "JTNKU3JE60J021675",
  "services": [
    {
      "invoiceDate": "2013-05-07",
      "dealerCode": "1623",
      "dealerName": "BRIAN HILTON TOYOTA",
      "servicingDealerBranchCode": "1623",
      "servicingDealerBranchName": "BRIAN HILTON TOYOTA",
      "odometerReadingKm": 10,
      "repairOrderNumber" : "137932",
      "serviceCode" : "NDETAIL",
      "serviceDescription" : "NEW VEHICLE DETAIL (YARD)",
      "serviceType" : "TSA",
      "category" : "PM"
    },
    {
      "invoiceDate": "2014-07-30",
      "dealerCode": "1623",
      "dealerName": "BRIAN HILTON TOYOTA",
      "servicingDealerBranchCode": "1623",
      "servicingDealerBranchName": "BRIAN HILTON TOYOTA",
      "odometerReadingKm": 29050,
      "repairOrderNumber" : "188691",
      "serviceCode" : "CUSTOMER CONCERNED WITH ABNORMAL NOISE FROM ENGINE",
      "serviceDescription" : "CUSTOMER CONCERNED WITH ABNORMAL NOISE FROM ENGINE",
      "serviceType" : "TSG",
      "category" : "PM"
    },
    {
      "invoiceDate": "2014-08-07",
      "dealerCode": "1623",
      "dealerName": "BRIAN HILTON TOYOTA",
      "servicingDealerBranchCode": "1623",
      "servicingDealerBranchName": "BRIAN HILTON TOYOTA",
      "odometerReadingKm": 30020,
      "repairOrderNumber" : "189595",
      "serviceCode" : "CONSUMPTION TEST, HAS TRAVELLED 1,000KMS. NO OIL ADDED, NO OIL LOSS. VEHICLE USI",
      "serviceDescription" : "CONSUMPTION TEST, HAS TRAVELLED 1,000KMS. NO OIL ADDED, NO OIL LOSS. VEHICLE USI",
      "serviceType" : "VehicleInspection",
      "category" : "PM"
    }
  ]
}