{
   "valid": true,
   "userName": "myToyotaUser@toyota.com.au",
   "token": "eyJhbGciOiJkaXIiLCJjdHkiOiJKV1QiLCJlbmMiOiJBMjU2R0NNIn0..KBbOThZAsRto5PX8.kXKusY2SQintcCS5xBQNXakbHJagaIKYqoLz11sZbAAMgpGNYNYyAuGfx-qtBsf6apFV4dUNh_97O_c4rqOkUx-YKZMgUkIAsTy844h_QaMhNlQngwNld0sfSJfaw4uf0L_0TLEkSjnrJNP8g56iJ-AUyFLb42K6kRlbqtAyIYnoNHdX05y8rBCCS2O9ySlUm3OOWXZDUP0PmOL6wAtDsMot4Fjb29n8ERwkeHwSQyAT48w23mWIgt7gtXWi-yRiYZEy_QIjXpnb0MvJOvjvB5SzCK7-bwseaABc4a_WLpwbsyF28YM7rzVjTLDWRmbuhzsG5WVvwf7N9S2R5SHivnX_254nOd_oniM9okMtoUisqQAqxNhF9VovNKN6R1_DW4ejHy7ypkRylxHMaw.UY1GDwjt7MONRc5ZVf0w6A"
}