{
  "orders": [
    {
      "cosi": "0007633515",
      "sapEta": "2016-11-10",
      "isCowt": true,
      "shippingLineId": "TRANS FUTURE 6",
      "vehicleDetails": {
        "batchId": "0007887844",
        "vehicleLine": "RAV4",
        "vehicleDescription": "RAV 4 GX AWD 2.5L Petrol Automatic 5 Door Wagon", // currently confirming this is separate to 'vehicleDescription' value above
        "materialNumber": "3P385801AFB20040",
        "modelAllocationObject": "RAV4 4CYL",
        "modelDescription": "RAV 4 GX AWD",
        "transmission": "Automatic",                   // new
        "trimDescription": "Black Accented Leather",   // new 
        "paintMarketingDescription": "Glacier White",  // new
        "images": [
          {
            "size": "260x146",
            "materialCode": "3P385801AFB20040",
            "link": "http://cdn.rotorint.com/RAV4/2016_08_Aug/e/hero/png/hi/260x146/GX_AWD_PET_Sfx_1A_1B_040_Glacier_White_003.png",
            "perspective": "front",                    // new
            "orientation": "right"                     // new
          },
          {
            "size": "519x292",
            "materialCode": "3P385801AFB20040",
            "link": "http://cdn.rotorint.com/RAV4/2016_08_Aug/e/hero/png/hi/519x292/GX_AWD_PET_Sfx_1A_1B_040_Glacier_White_003.png",
            "perspective": "front",
            "orientation": "right"
          },
          {
            "size": "907x510",
            "materialCode": "3P385801AFB20040",
            "link": "http://cdn.rotorint.com/RAV4/2016_08_Aug/e/hero/png/hi/907x510/GX_AWD_PET_Sfx_1A_1B_040_Glacier_White_003.png",
            "perspective": "front",
            "orientation": "right"
          },
          {
            "size": "1193x671",
            "materialCode": "3P385801AFB20040",
            "link": "http://cdn.rotorint.com/RAV4/2016_08_Aug/e/hero/png/hi/1193x671/GX_AWD_PET_Sfx_1A_1B_040_Glacier_White_003.png",
            "perspective": "front",
            "orientation": "right"
          },
          {
            "size": "260x146",
            "materialCode": "3P385801AFB20040",
            "link": "http://cdn.rotorint.com/RAV4/2015_10_Oct/e/hero/png/hi/260x146/GX_AWD_PET_Sfx_1A_1B_040_Glacier_White_003.png",
            "perspective": "front",
            "orientation": "right"
          },
          {
            "size": "519x292",
            "materialCode": "3P385801AFB20040",
            "link": "http://cdn.rotorint.com/RAV4/2015_10_Oct/e/hero/png/hi/519x292/GX_AWD_PET_Sfx_1A_1B_040_Glacier_White_003.png",
            "perspective": "front",
            "orientation": "right"
          },
          {
            "size": "907x510",
            "materialCode": "3P385801AFB20040",
            "link": "http://cdn.rotorint.com/RAV4/2015_10_Oct/e/hero/png/hi/907x510/GX_AWD_PET_Sfx_1A_1B_040_Glacier_White_003.png",
            "perspective": "front",
            "orientation": "right"
          },
          {
            "size": "1089x613",
            "materialCode": "3P385801AFB20040",
            "link": "http://cdn.rotorint.com/RAV4/2015_10_Oct/e/hero/png/hi/1089x613/GX_AWD_PET_Sfx_1A_1B_040_Glacier_White_003.png",
            "perspective": "front",
            "orientation": "right"
          },
          {
            "size": "260x146",
            "materialCode": "3P385801AFB20040",
            "link": "http://cdn.rotorint.com/RAV4/2016_08_Aug/e/hero/png/hi/260x146/GX_AWD_PET_Sfx_1A_1B_040_Glacier_White_033.png",
            "perspective": "front",
            "orientation": "left"
          },
          {
            "size": "519x292",
            "materialCode": "3P385801AFB20040",
            "link": "http://cdn.rotorint.com/RAV4/2016_08_Aug/e/hero/png/hi/519x292/GX_AWD_PET_Sfx_1A_1B_040_Glacier_White_033.png",
            "perspective": "front",
            "orientation": "left"
          },
          {
            "size": "907x510",
            "materialCode": "3P385801AFB20040",
            "link": "http://cdn.rotorint.com/RAV4/2016_08_Aug/e/hero/png/hi/907x510/GX_AWD_PET_Sfx_1A_1B_040_Glacier_White_033.png",
            "perspective": "front",
            "orientation": "left"
          },
          {
            "size": "1193x671",
            "materialCode": "3P385801AFB20040",
            "link": "http://cdn.rotorint.com/RAV4/2016_08_Aug/e/hero/png/hi/1193x671/GX_AWD_PET_Sfx_1A_1B_040_Glacier_White_033.png",
            "perspective": "front",
            "orientation": "left"
          },
          {
            "size": "260x146",
            "materialCode": "3P385801AFB20040",
            "link": "http://cdn.rotorint.com/RAV4/2015_10_Oct/e/hero/png/hi/260x146/GX_AWD_PET_Sfx_1A_1B_040_Glacier_White_033.png",
            "perspective": "front",
            "orientation": "left"
          },
          {
            "size": "519x292",
            "materialCode": "3P385801AFB20040",
            "link": "http://cdn.rotorint.com/RAV4/2015_10_Oct/e/hero/png/hi/519x292/GX_AWD_PET_Sfx_1A_1B_040_Glacier_White_033.png",
            "perspective": "front",
            "orientation": "left"
          },
          {
            "size": "907x510",
            "materialCode": "3P385801AFB20040",
            "link": "http://cdn.rotorint.com/RAV4/2015_10_Oct/e/hero/png/hi/907x510/GX_AWD_PET_Sfx_1A_1B_040_Glacier_White_033.png",
            "perspective": "front",
            "orientation": "left"
          },
          {
            "size": "1089x613",
            "materialCode": "3P385801AFB20040",
            "link": "http://cdn.rotorint.com/RAV4/2015_10_Oct/e/hero/png/hi/1089x613/GX_AWD_PET_Sfx_1A_1B_040_Glacier_White_033.png",
            "perspective": "front",
            "orientation": "left"
          }
        ]
      },
      "dealerDetails": {
        "dealerCode": "37272",
        "branchCode": "37272"
      },
      "status": {
        "smoothedStatus": "50",
        "statusDescription": "Despatch To Dealer",
        "sapStatus": "R02",
        "lastUpdatedDate": "2017-01-10"
      }
    },
    {
      "cosi": "0007698107",
      "sapEta": "2016-11-10",
      "isCowt": true,
      "shippingLineId": "GLORIOUS LEADER",
      "vehicleDetails": {
        "batchId": "0007947429",
        "vehicleLine": "CHR",
        "vehicleDescription": "CHR L3 1.2L Petrol CVT Wagon",
        "materialNumber": "2P969003ALB20209",
        "modelAllocationObject": "CHR",
        "modelDescription": "RAV 4 GX AWD",
        "transmission": "Automatic",
        "trimDescription": "Accented Black Leather",
        "paintMarketingDescription": "Ink",
        "images": [
          {
            "size": "260x146",
            "materialCode": "2P969003ALB20209",
            "link": "http://cdn.rotorint.com/CH-R/2016_08_Dec/e/hero/png/hi/260x146/2016-12_C-HR_FWD_5X-Over_PET_Koba_3A_209_Ink_e360_v04dl_003.png",
            "perspective": "front",
            "orientation": "right"
          },
          {
            "size": "519x292",
            "materialCode": "2P969003ALB20209",
            "link": "http://cdn.rotorint.com/CH-R/2016_08_Dec/e/hero/png/hi/519x292/2016-12_C-HR_FWD_5X-Over_PET_Koba_3A_209_Ink_e360_v04dl_003.png",
            "perspective": "front",
            "orientation": "right"
          },
          {
            "size": "907x510",
            "materialCode": "2P969003ALB20209",
            "link": "http://cdn.rotorint.com/CH-R/2016_08_Dec/e/hero/png/hi/907x510/2016-12_C-HR_FWD_5X-Over_PET_Koba_3A_209_Ink_e360_v04dl_003.png",
            "perspective": "front",
            "orientation": "right"
          },
          {
            "size": "1193x671",
            "materialCode": "2P969003ALB20209",
            "link": "http://cdn.rotorint.com/CH-R/2016_08_Dec/e/hero/png/hi/1193x671/2016-12_C-HR_FWD_5X-Over_PET_Koba_3A_209_Ink_e360_v04dl_003.png",
            "perspective": "front",
            "orientation": "right"
          },
          {
            "size": "260x146",
            "materialCode": "2P969003ALB20209",
            "link": "http://cdn.rotorint.com/CH-R/2016_08_Dec/e/hero/png/hi/260x146/2016-12_C-HR_FWD_5X-Over_PET_Koba_3A_209_Ink_e360_v04dl_033.png",
            "perspective": "front",
            "orientation": "left"
          },
          {
            "size": "519x292",
            "materialCode": "2P969003ALB20209",
            "link": "http://cdn.rotorint.com/CH-R/2016_08_Dec/e/hero/png/hi/519x292/2016-12_C-HR_FWD_5X-Over_PET_Koba_3A_209_Ink_e360_v04dl_033.png",
            "perspective": "front",
            "orientation": "left"
          },
          {
            "size": "907x510",
            "materialCode": "2P969003ALB20209",
            "link": "http://cdn.rotorint.com/CH-R/2016_08_Dec/e/hero/png/hi/907x510/2016-12_C-HR_FWD_5X-Over_PET_Koba_3A_209_Ink_e360_v04dl_033.png",
            "perspective": "front",
            "orientation": "left"
          },
          {
            "size": "1193x671",
            "materialCode": "2P969003ALB20209",
            "link": "http://cdn.rotorint.com/CH-R/2016_08_Dec/e/hero/png/hi/1193x671/2016-12_C-HR_FWD_5X-Over_PET_Koba_3A_209_Ink_e360_v04dl_033.png",
            "perspective": "front",
            "orientation": "left"
          }
        ]
      },
      "dealerDetails": {
        "dealerCode": "36328",
        "branchCode": "36329"
      },
      "status": {
        "smoothedStatus": "10",
        "statusDescription": "Order Received",
        "sapStatus": "A00",
        "lastUpdatedDate": "2017-01-10"
      }
    }
  ]
}