{
  "batchNumber": "0006164997",
  "compliancePlate": "2013-04",
  "deliveryDate": "2013-07-29",
  "engineNumber": "2ZR1223438",
  "katashikiCode": "ZRE182R-AHXNKQ",
  "makeCode": "TO",
  "makeDescription": "Toyota",
  "materialNumber": "4436080B0FD203R3",
  "model": {
    "code": "36080",
    "description": "Hatch Asct Spt/SE/Lev SX/ZR CV"
  },
  "paint": {
    "code": "3R3",
    "description": "Wildfire"
  },
  "production": "2013-03",
  "registrationNumber": "COI14W",
  "salesType": "ZRET",
  "sellingDealerCode": "1623",
  "sellingDealerName": "BRIAN HILTON TOYOTA",
  "series": {
    "code": "1306",
    "description": "Corolla Hatch"
  },
  "ssn": {
    "code": "44",
    "description": "Corolla Hatch(03.2007-"
  },
  "suffix": {
    "code": "B0",
    "description": "Ascent Sport"
  },
  "transmission": "CVT",
  "trim": {
    "code": "FD20",
    "description": "Black Fabric"
  },
  "vehicleDescription": "Corolla Ascent Sport 1.8L Petrol CVT 5 Door Hatch",
  "vehicleIdentificationNumber": {
    "chassisNumber": "0J021675",
    "vehicleDescriptorSegment": "KU3JE",
    "vehicleDescriptorSegmentCheckDigit": "6",
    "worldManufacturersIndex": "JTN"
  },
  "vehicleLine": {
    "code": "CORI",
    "description": "Corolla"
  },
  "vin": "JTNKU3JE60J021675",
  "warrantyEndDate": "2016-07-29",
  "demoStatus": false
}