{
  "vehicle" : {
    "vin":"JTNKU3JE60J021675",
    "registration": {
      "registrationNumber":"ABC123",
      "registrationState":"VIC"
    },
    "relationship" : {
      "relationshipType":"owner",
      "endDate":"2015-11-01",
      "comments":"I sold my car on carsales.com"
    }
  }
}