{
  "dealerId": "37425",
  "branchCode": "37425",
  "kilometres": "30000",
  "serviceQuoteLink": "http://qa.hub1.toyota.okndig.com.au/main/api/v2/pdf/servicebook/6T1BD3FKX0X144234/30000/37425/37425"
}