{
    "osbUrl": "https://sydneycitytoyota.dealer.toyota.com.au/service/booking",
    "privacyPolicyUrl": "http://www.sydneycitytoyota.com.au/privacy-policy/",
    "termsOfUseUrl": "http://www.sydneycitytoyota.com.au/legals/"
}