[
  {
    "createdBy": "johnver@gmail.com",
    "createdDate": 1452706525343,
    "lastModifiedBy": "johnver@gmail.com",
    "lastModifiedDate": 1452706525343,
    "id": 50,
    "topic": {
      "createdBy": "System",
      "createdDate": 1452665898723,
      "lastModifiedBy": null,
      "lastModifiedDate": null,
      "id": 1,
      "code": "0",
      "name": "Services notices",
      "description": "Lorem ipsum dolor adipiscing elit.",
      "title": "Services notices"
    }
  },
  {
    "createdBy": "johnver@gmail.com",
    "createdDate": 1452708036837,
    "lastModifiedBy": "johnver@gmail.com",
    "lastModifiedDate": 1452708036837,
    "id": 56,
    "topic": {
      "createdBy": "System",
      "createdDate": 1452665898730,
      "lastModifiedBy": null,
      "lastModifiedDate": null,
      "id": 7,
      "code": "6",
      "name": "Go Places (via Magazine)",
      "description": "Lorem ipsum dolor adipiscing elit.",
      "title": "Go Places (via Magazine)"
    }
  }
]