{  
   "operationID":"SCHEDULE",
   "operationTypeID":"TOY9983-S0000CVI-1",
   "serviceTsaFlag":false,
   "serviceOperationPrice":150.00,
   "externalNumberOfClaim":"0D1D33",
   "serviceCode":"ADVASA44R      1003",
   "dropOffDate":"2016-04-30",
   "dropOffTime":"07:30",
   "pickUpDate":"2016-04-30",
   "pickUpTime":"13:00",
   "confirmationType":"email",
   "confirmationTo":"dealer@toyota.com.au",
   "totalServicePrice":250.00,
   "upsells": {
     "ids": [  
          "0x0000000007ae1441",
          "0x0000000007ae1488"
      ]
   },
   "notes":"Please check the wipers",
   "waitAtDealerFlag":false,
   "expressServiceFlag":false,
   "courtesyBusFlag":false,
   "loanVehicleFlag":true
}